Position [m]	T (fluid)  	T (solid)
0.000000e+00	9.228207e-01	9.871158e-01	
2.500000e-01	9.228207e-01	9.871158e-01	
2.500000e-01	7.063658e-01	8.368364e-01	
5.000000e-01	7.063658e-01	8.368364e-01	
5.000000e-01	3.823730e-01	5.591562e-01	
7.500000e-01	3.823730e-01	5.591562e-01	
7.500000e-01	1.674883e-04	1.963495e-01	
1.000000e+00	1.674883e-04	1.963495e-01	
1.000000e+00	-3.820636e-01	-1.963495e-01	
1.250000e+00	-3.820636e-01	-1.963495e-01	
1.250000e+00	-7.061289e-01	-5.591562e-01	
1.500000e+00	-7.061289e-01	-5.591562e-01	
1.500000e+00	-9.226925e-01	-8.368364e-01	
1.750000e+00	-9.226925e-01	-8.368364e-01	
1.750000e+00	-9.987846e-01	-9.871158e-01	
2.000000e+00	-9.987846e-01	-9.871158e-01	
2.000000e+00	-9.228207e-01	-9.871158e-01	
2.250000e+00	-9.228207e-01	-9.871158e-01	
2.250000e+00	-7.063658e-01	-8.368364e-01	
2.500000e+00	-7.063658e-01	-8.368364e-01	
2.500000e+00	-3.823730e-01	-5.591562e-01	
2.750000e+00	-3.823730e-01	-5.591562e-01	
2.750000e+00	-1.674883e-04	-1.963495e-01	
3.000000e+00	-1.674883e-04	-1.963495e-01	
3.000000e+00	3.820636e-01	1.963495e-01	
3.250000e+00	3.820636e-01	1.963495e-01	
3.250000e+00	7.061292e-01	5.591562e-01	
3.500000e+00	7.061292e-01	5.591562e-01	
3.500000e+00	9.227117e-01	8.368364e-01	
3.750000e+00	9.227117e-01	8.368364e-01	
3.750000e+00	1.000000e+00	9.871158e-01	
4.000000e+00	1.000000e+00	9.871158e-01	
