Position [m]	T (fluid)  	T (solid)
0.000000e+00	9.999474e-01	9.480594e-01	
5.000000e-01	9.999474e-01	9.480594e-01	
5.000000e-01	4.446237e-01	3.926991e-01	
1.000000e+00	4.446237e-01	3.926991e-01	
1.000000e+00	-3.407189e-01	-3.926991e-01	
1.500000e+00	-3.407189e-01	-3.926991e-01	
1.500000e+00	-8.960335e-01	-9.480594e-01	
2.000000e+00	-8.960335e-01	-9.480594e-01	
2.000000e+00	-8.960205e-01	-9.480594e-01	
2.500000e+00	-8.960205e-01	-9.480594e-01	
2.500000e+00	-3.406837e-01	-3.926991e-01	
3.000000e+00	-3.406837e-01	-3.926991e-01	
3.000000e+00	4.446718e-01	3.926991e-01	
3.500000e+00	4.446718e-01	3.926991e-01	
3.500000e+00	9.999994e-01	9.480594e-01	
4.000000e+00	9.999994e-01	9.480594e-01	
