Position [m]	T (fluid)  	T (solid)
0.000000e+00	8.476271e-01	7.853982e-01	
2.500000e-01	8.476271e-01	7.853982e-01	
2.500000e-01	-6.701925e-01	-7.853982e-01	
5.000000e-01	-6.701925e-01	-7.853982e-01	
5.000000e-01	-6.495796e-01	-7.853982e-01	
7.500000e-01	-6.495796e-01	-7.853982e-01	
7.500000e-01	8.806180e-01	7.853982e-01	
1.000000e+00	8.806180e-01	7.853982e-01	
1.000000e+00	8.731566e-01	7.853982e-01	
1.250000e+00	8.731566e-01	7.853982e-01	
1.250000e+00	-6.430674e-01	-7.853982e-01	
1.500000e+00	-6.430674e-01	-7.853982e-01	
1.500000e+00	-6.207591e-01	-7.853982e-01	
1.750000e+00	-6.207591e-01	-7.853982e-01	
1.750000e+00	9.112398e-01	7.853982e-01	
2.000000e+00	9.112398e-01	7.853982e-01	
2.000000e+00	9.056923e-01	7.853982e-01	
2.250000e+00	9.056923e-01	7.853982e-01	
2.250000e+00	-6.084983e-01	-7.853982e-01	
2.500000e+00	-6.084983e-01	-7.853982e-01	
2.500000e+00	-5.840294e-01	-7.853982e-01	
2.750000e+00	-5.840294e-01	-7.853982e-01	
2.750000e+00	9.502650e-01	7.853982e-01	
3.000000e+00	9.502650e-01	7.853982e-01	
3.000000e+00	9.471566e-01	7.853982e-01	
3.250000e+00	9.471566e-01	7.853982e-01	
3.250000e+00	-5.644424e-01	-7.853982e-01	
3.500000e+00	-5.644424e-01	-7.853982e-01	
3.500000e+00	-5.372201e-01	-7.853982e-01	
3.750000e+00	-5.372201e-01	-7.853982e-01	
3.750000e+00	1.000000e+00	7.853982e-01	
4.000000e+00	1.000000e+00	7.853982e-01	
