Position [m]	T (fluid)  	T (solid)
0.000000e+00	9.998416e-01	9.967852e-01	
3.125000e-02	9.998416e-01	9.967852e-01	
3.125000e-02	9.615359e-01	9.584793e-01	
6.250000e-02	9.615359e-01	9.584793e-01	
6.250000e-02	8.863965e-01	8.833396e-01	
9.375000e-02	8.863965e-01	8.833396e-01	
9.375000e-02	7.773109e-01	7.742536e-01	
1.250000e-01	7.773109e-01	7.742536e-01	
1.250000e-01	6.384714e-01	6.354135e-01	
1.562500e-01	6.384714e-01	6.354135e-01	
1.562500e-01	4.752134e-01	4.721548e-01	
1.875000e-01	4.752134e-01	4.721548e-01	
1.875000e-01	2.938108e-01	2.907515e-01	
2.187500e-01	2.938108e-01	2.907515e-01	
2.187500e-01	1.012348e-01	9.817477e-02	
2.500000e-01	1.012348e-01	9.817477e-02	
2.500000e-01	-9.511395e-02	-9.817477e-02	
2.812500e-01	-9.511395e-02	-9.817477e-02	
2.812500e-01	-2.876899e-01	-2.907515e-01	
3.125000e-01	-2.876899e-01	-2.907515e-01	
3.125000e-01	-4.690925e-01	-4.721548e-01	
3.437500e-01	-4.690925e-01	-4.721548e-01	
3.437500e-01	-6.323505e-01	-6.354135e-01	
3.750000e-01	-6.323505e-01	-6.354135e-01	
3.750000e-01	-7.711900e-01	-7.742536e-01	
4.062500e-01	-7.711900e-01	-7.742536e-01	
4.062500e-01	-8.802755e-01	-8.833396e-01	
4.375000e-01	-8.802755e-01	-8.833396e-01	
4.375000e-01	-9.554149e-01	-9.584793e-01	
4.687500e-01	-9.554149e-01	-9.584793e-01	
4.687500e-01	-9.937206e-01	-9.967852e-01	
5.000000e-01	-9.937206e-01	-9.967852e-01	
5.000000e-01	-9.937205e-01	-9.967852e-01	
5.312500e-01	-9.937205e-01	-9.967852e-01	
5.312500e-01	-9.554147e-01	-9.584793e-01	
5.625000e-01	-9.554147e-01	-9.584793e-01	
5.625000e-01	-8.802752e-01	-8.833396e-01	
5.937500e-01	-8.802752e-01	-8.833396e-01	
5.937500e-01	-7.711897e-01	-7.742536e-01	
6.250000e-01	-7.711897e-01	-7.742536e-01	
6.250000e-01	-6.323501e-01	-6.354135e-01	
6.562500e-01	-6.323501e-01	-6.354135e-01	
6.562500e-01	-4.690920e-01	-4.721548e-01	
6.875000e-01	-4.690920e-01	-4.721548e-01	
6.875000e-01	-2.876893e-01	-2.907515e-01	
7.187500e-01	-2.876893e-01	-2.907515e-01	
7.187500e-01	-9.511333e-02	-9.817477e-02	
7.500000e-01	-9.511333e-02	-9.817477e-02	
7.500000e-01	1.012355e-01	9.817477e-02	
7.812500e-01	1.012355e-01	9.817477e-02	
7.812500e-01	2.938115e-01	2.907515e-01	
8.125000e-01	2.938115e-01	2.907515e-01	
8.125000e-01	4.752141e-01	4.721548e-01	
8.437500e-01	4.752141e-01	4.721548e-01	
8.437500e-01	6.384722e-01	6.354135e-01	
8.750000e-01	6.384722e-01	6.354135e-01	
8.750000e-01	7.773117e-01	7.742536e-01	
9.062500e-01	7.773117e-01	7.742536e-01	
9.062500e-01	8.863972e-01	8.833396e-01	
9.375000e-01	8.863972e-01	8.833396e-01	
9.375000e-01	9.615367e-01	9.584793e-01	
9.687500e-01	9.615367e-01	9.584793e-01	
9.687500e-01	9.998424e-01	9.967852e-01	
1.000000e+00	9.998424e-01	9.967852e-01	
1.000000e+00	9.998424e-01	9.967852e-01	
1.031250e+00	9.998424e-01	9.967852e-01	
1.031250e+00	9.615367e-01	9.584793e-01	
1.062500e+00	9.615367e-01	9.584793e-01	
1.062500e+00	8.863972e-01	8.833396e-01	
1.093750e+00	8.863972e-01	8.833396e-01	
1.093750e+00	7.773117e-01	7.742536e-01	
1.125000e+00	7.773117e-01	7.742536e-01	
1.125000e+00	6.384722e-01	6.354135e-01	
1.156250e+00	6.384722e-01	6.354135e-01	
1.156250e+00	4.752141e-01	4.721548e-01	
1.187500e+00	4.752141e-01	4.721548e-01	
1.187500e+00	2.938115e-01	2.907515e-01	
1.218750e+00	2.938115e-01	2.907515e-01	
1.218750e+00	1.012356e-01	9.817477e-02	
1.250000e+00	1.012356e-01	9.817477e-02	
1.250000e+00	-9.511317e-02	-9.817477e-02	
1.281250e+00	-9.511317e-02	-9.817477e-02	
1.281250e+00	-2.876891e-01	-2.907515e-01	
1.312500e+00	-2.876891e-01	-2.907515e-01	
1.312500e+00	-4.690917e-01	-4.721548e-01	
1.343750e+00	-4.690917e-01	-4.721548e-01	
1.343750e+00	-6.323497e-01	-6.354135e-01	
1.375000e+00	-6.323497e-01	-6.354135e-01	
1.375000e+00	-7.711892e-01	-7.742536e-01	
1.406250e+00	-7.711892e-01	-7.742536e-01	
1.406250e+00	-8.802747e-01	-8.833396e-01	
1.437500e+00	-8.802747e-01	-8.833396e-01	
1.437500e+00	-9.554141e-01	-9.584793e-01	
1.468750e+00	-9.554141e-01	-9.584793e-01	
1.468750e+00	-9.937198e-01	-9.967852e-01	
1.500000e+00	-9.937198e-01	-9.967852e-01	
1.500000e+00	-9.937197e-01	-9.967852e-01	
1.531250e+00	-9.937197e-01	-9.967852e-01	
1.531250e+00	-9.554139e-01	-9.584793e-01	
1.562500e+00	-9.554139e-01	-9.584793e-01	
1.562500e+00	-8.802745e-01	-8.833396e-01	
1.593750e+00	-8.802745e-01	-8.833396e-01	
1.593750e+00	-7.711889e-01	-7.742536e-01	
1.625000e+00	-7.711889e-01	-7.742536e-01	
1.625000e+00	-6.323493e-01	-6.354135e-01	
1.656250e+00	-6.323493e-01	-6.354135e-01	
1.656250e+00	-4.690912e-01	-4.721548e-01	
1.687500e+00	-4.690912e-01	-4.721548e-01	
1.687500e+00	-2.876886e-01	-2.907515e-01	
1.718750e+00	-2.876886e-01	-2.907515e-01	
1.718750e+00	-9.511255e-02	-9.817477e-02	
1.750000e+00	-9.511255e-02	-9.817477e-02	
1.750000e+00	1.012362e-01	9.817477e-02	
1.781250e+00	1.012362e-01	9.817477e-02	
1.781250e+00	2.938123e-01	2.907515e-01	
1.812500e+00	2.938123e-01	2.907515e-01	
1.812500e+00	4.752149e-01	4.721548e-01	
1.843750e+00	4.752149e-01	4.721548e-01	
1.843750e+00	6.384729e-01	6.354135e-01	
1.875000e+00	6.384729e-01	6.354135e-01	
1.875000e+00	7.773125e-01	7.742536e-01	
1.906250e+00	7.773125e-01	7.742536e-01	
1.906250e+00	8.863980e-01	8.833396e-01	
1.937500e+00	8.863980e-01	8.833396e-01	
1.937500e+00	9.615374e-01	9.584793e-01	
1.968750e+00	9.615374e-01	9.584793e-01	
1.968750e+00	9.998432e-01	9.967852e-01	
2.000000e+00	9.998432e-01	9.967852e-01	
2.000000e+00	9.998432e-01	9.967852e-01	
2.031250e+00	9.998432e-01	9.967852e-01	
2.031250e+00	9.615374e-01	9.584793e-01	
2.062500e+00	9.615374e-01	9.584793e-01	
2.062500e+00	8.863980e-01	8.833396e-01	
2.093750e+00	8.863980e-01	8.833396e-01	
2.093750e+00	7.773125e-01	7.742536e-01	
2.125000e+00	7.773125e-01	7.742536e-01	
2.125000e+00	6.384730e-01	6.354135e-01	
2.156250e+00	6.384730e-01	6.354135e-01	
2.156250e+00	4.752149e-01	4.721548e-01	
2.187500e+00	4.752149e-01	4.721548e-01	
2.187500e+00	2.938123e-01	2.907515e-01	
2.218750e+00	2.938123e-01	2.907515e-01	
2.218750e+00	1.012364e-01	9.817477e-02	
2.250000e+00	1.012364e-01	9.817477e-02	
2.250000e+00	-9.511239e-02	-9.817477e-02	
2.281250e+00	-9.511239e-02	-9.817477e-02	
2.281250e+00	-2.876883e-01	-2.907515e-01	
2.312500e+00	-2.876883e-01	-2.907515e-01	
2.312500e+00	-4.690909e-01	-4.721548e-01	
2.343750e+00	-4.690909e-01	-4.721548e-01	
2.343750e+00	-6.323489e-01	-6.354135e-01	
2.375000e+00	-6.323489e-01	-6.354135e-01	
2.375000e+00	-7.711884e-01	-7.742536e-01	
2.406250e+00	-7.711884e-01	-7.742536e-01	
2.406250e+00	-8.802739e-01	-8.833396e-01	
2.437500e+00	-8.802739e-01	-8.833396e-01	
2.437500e+00	-9.554133e-01	-9.584793e-01	
2.468750e+00	-9.554133e-01	-9.584793e-01	
2.468750e+00	-9.937190e-01	-9.967852e-01	
2.500000e+00	-9.937190e-01	-9.967852e-01	
2.500000e+00	-9.937189e-01	-9.967852e-01	
2.531250e+00	-9.937189e-01	-9.967852e-01	
2.531250e+00	-9.554132e-01	-9.584793e-01	
2.562500e+00	-9.554132e-01	-9.584793e-01	
2.562500e+00	-8.802737e-01	-8.833396e-01	
2.593750e+00	-8.802737e-01	-8.833396e-01	
2.593750e+00	-7.711881e-01	-7.742536e-01	
2.625000e+00	-7.711881e-01	-7.742536e-01	
2.625000e+00	-6.323485e-01	-6.354135e-01	
2.656250e+00	-6.323485e-01	-6.354135e-01	
2.656250e+00	-4.690904e-01	-4.721548e-01	
2.687500e+00	-4.690904e-01	-4.721548e-01	
2.687500e+00	-2.876878e-01	-2.907515e-01	
2.718750e+00	-2.876878e-01	-2.907515e-01	
2.718750e+00	-9.511177e-02	-9.817477e-02	
2.750000e+00	-9.511177e-02	-9.817477e-02	
2.750000e+00	1.012370e-01	9.817477e-02	
2.781250e+00	1.012370e-01	9.817477e-02	
2.781250e+00	2.938130e-01	2.907515e-01	
2.812500e+00	2.938130e-01	2.907515e-01	
2.812500e+00	4.752157e-01	4.721548e-01	
2.843750e+00	4.752157e-01	4.721548e-01	
2.843750e+00	6.384737e-01	6.354135e-01	
2.875000e+00	6.384737e-01	6.354135e-01	
2.875000e+00	7.773133e-01	7.742536e-01	
2.906250e+00	7.773133e-01	7.742536e-01	
2.906250e+00	8.863988e-01	8.833396e-01	
2.937500e+00	8.863988e-01	8.833396e-01	
2.937500e+00	9.615382e-01	9.584793e-01	
2.968750e+00	9.615382e-01	9.584793e-01	
2.968750e+00	9.998440e-01	9.967852e-01	
3.000000e+00	9.998440e-01	9.967852e-01	
3.000000e+00	9.998440e-01	9.967852e-01	
3.031250e+00	9.998440e-01	9.967852e-01	
3.031250e+00	9.615382e-01	9.584793e-01	
3.062500e+00	9.615382e-01	9.584793e-01	
3.062500e+00	8.863988e-01	8.833396e-01	
3.093750e+00	8.863988e-01	8.833396e-01	
3.093750e+00	7.773133e-01	7.742536e-01	
3.125000e+00	7.773133e-01	7.742536e-01	
3.125000e+00	6.384737e-01	6.354135e-01	
3.156250e+00	6.384737e-01	6.354135e-01	
3.156250e+00	4.752157e-01	4.721548e-01	
3.187500e+00	4.752157e-01	4.721548e-01	
3.187500e+00	2.938131e-01	2.907515e-01	
3.218750e+00	2.938131e-01	2.907515e-01	
3.218750e+00	1.012371e-01	9.817477e-02	
3.250000e+00	1.012371e-01	9.817477e-02	
3.250000e+00	-9.511160e-02	-9.817477e-02	
3.281250e+00	-9.511160e-02	-9.817477e-02	
3.281250e+00	-2.876876e-01	-2.907515e-01	
3.312500e+00	-2.876876e-01	-2.907515e-01	
3.312500e+00	-4.690901e-01	-4.721548e-01	
3.343750e+00	-4.690901e-01	-4.721548e-01	
3.343750e+00	-6.323481e-01	-6.354135e-01	
3.375000e+00	-6.323481e-01	-6.354135e-01	
3.375000e+00	-7.711876e-01	-7.742536e-01	
3.406250e+00	-7.711876e-01	-7.742536e-01	
3.406250e+00	-8.802731e-01	-8.833396e-01	
3.437500e+00	-8.802731e-01	-8.833396e-01	
3.437500e+00	-9.554125e-01	-9.584793e-01	
3.468750e+00	-9.554125e-01	-9.584793e-01	
3.468750e+00	-9.937182e-01	-9.967852e-01	
3.500000e+00	-9.937182e-01	-9.967852e-01	
3.500000e+00	-9.937182e-01	-9.967852e-01	
3.531250e+00	-9.937182e-01	-9.967852e-01	
3.531250e+00	-9.554124e-01	-9.584793e-01	
3.562500e+00	-9.554124e-01	-9.584793e-01	
3.562500e+00	-8.802729e-01	-8.833396e-01	
3.593750e+00	-8.802729e-01	-8.833396e-01	
3.593750e+00	-7.711873e-01	-7.742536e-01	
3.625000e+00	-7.711873e-01	-7.742536e-01	
3.625000e+00	-6.323477e-01	-6.354135e-01	
3.656250e+00	-6.323477e-01	-6.354135e-01	
3.656250e+00	-4.690896e-01	-4.721548e-01	
3.687500e+00	-4.690896e-01	-4.721548e-01	
3.687500e+00	-2.876870e-01	-2.907515e-01	
3.718750e+00	-2.876870e-01	-2.907515e-01	
3.718750e+00	-9.511097e-02	-9.817477e-02	
3.750000e+00	-9.511097e-02	-9.817477e-02	
3.750000e+00	1.012378e-01	9.817477e-02	
3.781250e+00	1.012378e-01	9.817477e-02	
3.781250e+00	2.938138e-01	2.907515e-01	
3.812500e+00	2.938138e-01	2.907515e-01	
3.812500e+00	4.752165e-01	4.721548e-01	
3.843750e+00	4.752165e-01	4.721548e-01	
3.843750e+00	6.384745e-01	6.354135e-01	
3.875000e+00	6.384745e-01	6.354135e-01	
3.875000e+00	7.773141e-01	7.742536e-01	
3.906250e+00	7.773141e-01	7.742536e-01	
3.906250e+00	8.863996e-01	8.833396e-01	
3.937500e+00	8.863996e-01	8.833396e-01	
3.937500e+00	9.615390e-01	9.584793e-01	
3.968750e+00	9.615390e-01	9.584793e-01	
3.968750e+00	9.998448e-01	9.967852e-01	
4.000000e+00	9.998448e-01	9.967852e-01	
