Position [m]	T (fluid)  	T (solid)
0.000000e+00	9.996218e-01	9.999498e-01	
1.562500e-02	9.996218e-01	9.999498e-01	
1.562500e-02	9.987185e-01	9.993475e-01	
3.125000e-02	9.987185e-01	9.993475e-01	
3.125000e-02	9.972137e-01	9.981432e-01	
4.687500e-02	9.972137e-01	9.981432e-01	
4.687500e-02	9.951081e-01	9.963376e-01	
6.250000e-02	9.951081e-01	9.963376e-01	
6.250000e-02	9.924032e-01	9.939319e-01	
7.812500e-02	9.924032e-01	9.939319e-01	
7.812500e-02	9.891004e-01	9.909275e-01	
9.375000e-02	9.891004e-01	9.909275e-01	
9.375000e-02	9.852019e-01	9.873262e-01	
1.093750e-01	9.852019e-01	9.873262e-01	
1.093750e-01	9.807099e-01	9.831302e-01	
1.250000e-01	9.807099e-01	9.831302e-01	
1.250000e-01	9.756272e-01	9.783419e-01	
1.406250e-01	9.756272e-01	9.783419e-01	
1.406250e-01	9.699567e-01	9.729644e-01	
1.562500e-01	9.699567e-01	9.729644e-01	
1.562500e-01	9.637021e-01	9.670007e-01	
1.718750e-01	9.637021e-01	9.670007e-01	
1.718750e-01	9.568669e-01	9.604546e-01	
1.875000e-01	9.568669e-01	9.604546e-01	
1.875000e-01	9.494553e-01	9.533300e-01	
2.031250e-01	9.494553e-01	9.533300e-01	
2.031250e-01	9.414719e-01	9.456311e-01	
2.187500e-01	9.414719e-01	9.456311e-01	
2.187500e-01	9.329213e-01	9.373625e-01	
2.343750e-01	9.329213e-01	9.373625e-01	
2.343750e-01	9.238087e-01	9.285294e-01	
2.500000e-01	9.238087e-01	9.285294e-01	
2.500000e-01	9.141397e-01	9.191369e-01	
2.656250e-01	9.141397e-01	9.191369e-01	
2.656250e-01	9.039201e-01	9.091908e-01	
2.812500e-01	9.039201e-01	9.091908e-01	
2.812500e-01	8.931559e-01	8.986970e-01	
2.968750e-01	8.931559e-01	8.986970e-01	
2.968750e-01	8.818538e-01	8.876619e-01	
3.125000e-01	8.818538e-01	8.876619e-01	
3.125000e-01	8.700205e-01	8.760921e-01	
3.281250e-01	8.700205e-01	8.760921e-01	
3.281250e-01	8.576631e-01	8.639945e-01	
3.437500e-01	8.576631e-01	8.639945e-01	
3.437500e-01	8.447890e-01	8.513766e-01	
3.593750e-01	8.447890e-01	8.513766e-01	
3.593750e-01	8.314061e-01	8.382457e-01	
3.750000e-01	8.314061e-01	8.382457e-01	
3.750000e-01	8.175224e-01	8.246100e-01	
3.906250e-01	8.175224e-01	8.246100e-01	
3.906250e-01	8.031463e-01	8.104775e-01	
4.062500e-01	8.031463e-01	8.104775e-01	
4.062500e-01	7.882863e-01	7.958569e-01	
4.218750e-01	7.882863e-01	7.958569e-01	
4.218750e-01	7.729516e-01	7.807568e-01	
4.375000e-01	7.729516e-01	7.807568e-01	
4.375000e-01	7.571512e-01	7.651865e-01	
4.531250e-01	7.571512e-01	7.651865e-01	
4.531250e-01	7.408948e-01	7.491552e-01	
4.687500e-01	7.408948e-01	7.491552e-01	
4.687500e-01	7.241920e-01	7.326727e-01	
4.843750e-01	7.241920e-01	7.326727e-01	
4.843750e-01	7.070531e-01	7.157488e-01	
5.000000e-01	7.070531e-01	7.157488e-01	
5.000000e-01	6.894882e-01	6.983938e-01	
5.156250e-01	6.894882e-01	6.983938e-01	
5.156250e-01	6.715080e-01	6.806181e-01	
5.312500e-01	6.715080e-01	6.806181e-01	
5.312500e-01	6.531233e-01	6.624324e-01	
5.468750e-01	6.531233e-01	6.624324e-01	
5.468750e-01	6.343452e-01	6.438477e-01	
5.625000e-01	6.343452e-01	6.438477e-01	
5.625000e-01	6.151850e-01	6.248752e-01	
5.781250e-01	6.151850e-01	6.248752e-01	
5.781250e-01	5.956543e-01	6.055262e-01	
5.937500e-01	5.956543e-01	6.055262e-01	
5.937500e-01	5.757647e-01	5.858126e-01	
6.093750e-01	5.757647e-01	5.858126e-01	
6.093750e-01	5.555283e-01	5.657460e-01	
6.250000e-01	5.555283e-01	5.657460e-01	
6.250000e-01	5.349573e-01	5.453387e-01	
6.406250e-01	5.349573e-01	5.453387e-01	
6.406250e-01	5.140641e-01	5.246028e-01	
6.562500e-01	5.140641e-01	5.246028e-01	
6.562500e-01	4.928612e-01	5.035510e-01	
6.718750e-01	4.928612e-01	5.035510e-01	
6.718750e-01	4.713614e-01	4.821959e-01	
6.875000e-01	4.713614e-01	4.821959e-01	
6.875000e-01	4.495777e-01	4.605503e-01	
7.031250e-01	4.495777e-01	4.605503e-01	
7.031250e-01	4.275231e-01	4.386272e-01	
7.187500e-01	4.275231e-01	4.386272e-01	
7.187500e-01	4.052111e-01	4.164400e-01	
7.343750e-01	4.052111e-01	4.164400e-01	
7.343750e-01	3.826550e-01	3.940019e-01	
7.500000e-01	3.826550e-01	3.940019e-01	
7.500000e-01	3.598683e-01	3.713265e-01	
7.656250e-01	3.598683e-01	3.713265e-01	
7.656250e-01	3.368649e-01	3.484274e-01	
7.812500e-01	3.368649e-01	3.484274e-01	
7.812500e-01	3.136586e-01	3.253185e-01	
7.968750e-01	3.136586e-01	3.253185e-01	
7.968750e-01	2.902634e-01	3.020135e-01	
8.125000e-01	2.902634e-01	3.020135e-01	
8.125000e-01	2.666933e-01	2.785267e-01	
8.281250e-01	2.666933e-01	2.785267e-01	
8.281250e-01	2.429625e-01	2.548721e-01	
8.437500e-01	2.429625e-01	2.548721e-01	
8.437500e-01	2.190854e-01	2.310639e-01	
8.593750e-01	2.190854e-01	2.310639e-01	
8.593750e-01	1.950764e-01	2.071166e-01	
8.750000e-01	1.950764e-01	2.071166e-01	
8.750000e-01	1.709498e-01	1.830445e-01	
8.906250e-01	1.709498e-01	1.830445e-01	
8.906250e-01	1.467203e-01	1.588621e-01	
9.062500e-01	1.467203e-01	1.588621e-01	
9.062500e-01	1.224023e-01	1.345841e-01	
9.218750e-01	1.224023e-01	1.345841e-01	
9.218750e-01	9.801069e-02	1.102250e-01	
9.375000e-01	9.801069e-02	1.102250e-01	
9.375000e-01	7.356000e-02	8.579947e-02	
9.531250e-01	7.356000e-02	8.579947e-02	
9.531250e-01	4.906501e-02	6.132228e-02	
9.687500e-01	4.906501e-02	6.132228e-02	
9.687500e-01	2.454045e-02	3.680815e-02	
9.843750e-01	2.454045e-02	3.680815e-02	
9.843750e-01	1.115038e-06	1.227185e-02	
1.000000e+00	1.115038e-06	1.227185e-02	
1.000000e+00	-2.453822e-02	-1.227185e-02	
1.015625e+00	-2.453822e-02	-1.227185e-02	
1.015625e+00	-4.906278e-02	-3.680815e-02	
1.031250e+00	-4.906278e-02	-3.680815e-02	
1.031250e+00	-7.355778e-02	-6.132228e-02	
1.046875e+00	-7.355778e-02	-6.132228e-02	
1.046875e+00	-9.800847e-02	-8.579947e-02	
1.062500e+00	-9.800847e-02	-8.579947e-02	
1.062500e+00	-1.224001e-01	-1.102250e-01	
1.078125e+00	-1.224001e-01	-1.102250e-01	
1.078125e+00	-1.467181e-01	-1.345841e-01	
1.093750e+00	-1.467181e-01	-1.345841e-01	
1.093750e+00	-1.709476e-01	-1.588621e-01	
1.109375e+00	-1.709476e-01	-1.588621e-01	
1.109375e+00	-1.950742e-01	-1.830445e-01	
1.125000e+00	-1.950742e-01	-1.830445e-01	
1.125000e+00	-2.190833e-01	-2.071166e-01	
1.140625e+00	-2.190833e-01	-2.071166e-01	
1.140625e+00	-2.429604e-01	-2.310639e-01	
1.156250e+00	-2.429604e-01	-2.310639e-01	
1.156250e+00	-2.666911e-01	-2.548721e-01	
1.171875e+00	-2.666911e-01	-2.548721e-01	
1.171875e+00	-2.902612e-01	-2.785267e-01	
1.187500e+00	-2.902612e-01	-2.785267e-01	
1.187500e+00	-3.136565e-01	-3.020135e-01	
1.203125e+00	-3.136565e-01	-3.020135e-01	
1.203125e+00	-3.368628e-01	-3.253185e-01	
1.218750e+00	-3.368628e-01	-3.253185e-01	
1.218750e+00	-3.598663e-01	-3.484274e-01	
1.234375e+00	-3.598663e-01	-3.484274e-01	
1.234375e+00	-3.826529e-01	-3.713265e-01	
1.250000e+00	-3.826529e-01	-3.713265e-01	
1.250000e+00	-4.052091e-01	-3.940019e-01	
1.265625e+00	-4.052091e-01	-3.940019e-01	
1.265625e+00	-4.275211e-01	-4.164400e-01	
1.281250e+00	-4.275211e-01	-4.164400e-01	
1.281250e+00	-4.495757e-01	-4.386272e-01	
1.296875e+00	-4.495757e-01	-4.386272e-01	
1.296875e+00	-4.713594e-01	-4.605503e-01	
1.312500e+00	-4.713594e-01	-4.605503e-01	
1.312500e+00	-4.928592e-01	-4.821959e-01	
1.328125e+00	-4.928592e-01	-4.821959e-01	
1.328125e+00	-5.140622e-01	-5.035510e-01	
1.343750e+00	-5.140622e-01	-5.035510e-01	
1.343750e+00	-5.349554e-01	-5.246028e-01	
1.359375e+00	-5.349554e-01	-5.246028e-01	
1.359375e+00	-5.555265e-01	-5.453387e-01	
1.375000e+00	-5.555265e-01	-5.453387e-01	
1.375000e+00	-5.757629e-01	-5.657460e-01	
1.390625e+00	-5.757629e-01	-5.657460e-01	
1.390625e+00	-5.956525e-01	-5.858126e-01	
1.406250e+00	-5.956525e-01	-5.858126e-01	
1.406250e+00	-6.151833e-01	-6.055262e-01	
1.421875e+00	-6.151833e-01	-6.055262e-01	
1.421875e+00	-6.343435e-01	-6.248752e-01	
1.437500e+00	-6.343435e-01	-6.248752e-01	
1.437500e+00	-6.531216e-01	-6.438477e-01	
1.453125e+00	-6.531216e-01	-6.438477e-01	
1.453125e+00	-6.715064e-01	-6.624324e-01	
1.468750e+00	-6.715064e-01	-6.624324e-01	
1.468750e+00	-6.894866e-01	-6.806181e-01	
1.484375e+00	-6.894866e-01	-6.806181e-01	
1.484375e+00	-7.070515e-01	-6.983938e-01	
1.500000e+00	-7.070515e-01	-6.983938e-01	
1.500000e+00	-7.241905e-01	-7.157488e-01	
1.515625e+00	-7.241905e-01	-7.157488e-01	
1.515625e+00	-7.408933e-01	-7.326727e-01	
1.531250e+00	-7.408933e-01	-7.326727e-01	
1.531250e+00	-7.571497e-01	-7.491552e-01	
1.546875e+00	-7.571497e-01	-7.491552e-01	
1.546875e+00	-7.729502e-01	-7.651865e-01	
1.562500e+00	-7.729502e-01	-7.651865e-01	
1.562500e+00	-7.882850e-01	-7.807568e-01	
1.578125e+00	-7.882850e-01	-7.807568e-01	
1.578125e+00	-8.031449e-01	-7.958569e-01	
1.593750e+00	-8.031449e-01	-7.958569e-01	
1.593750e+00	-8.175211e-01	-8.104775e-01	
1.609375e+00	-8.175211e-01	-8.104775e-01	
1.609375e+00	-8.314049e-01	-8.246100e-01	
1.625000e+00	-8.314049e-01	-8.246100e-01	
1.625000e+00	-8.447878e-01	-8.382457e-01	
1.640625e+00	-8.447878e-01	-8.382457e-01	
1.640625e+00	-8.576619e-01	-8.513766e-01	
1.656250e+00	-8.576619e-01	-8.513766e-01	
1.656250e+00	-8.700194e-01	-8.639945e-01	
1.671875e+00	-8.700194e-01	-8.639945e-01	
1.671875e+00	-8.818528e-01	-8.760921e-01	
1.687500e+00	-8.818528e-01	-8.760921e-01	
1.687500e+00	-8.931549e-01	-8.876619e-01	
1.703125e+00	-8.931549e-01	-8.876619e-01	
1.703125e+00	-9.039191e-01	-8.986970e-01	
1.718750e+00	-9.039191e-01	-8.986970e-01	
1.718750e+00	-9.141388e-01	-9.091908e-01	
1.734375e+00	-9.141388e-01	-9.091908e-01	
1.734375e+00	-9.238079e-01	-9.191369e-01	
1.750000e+00	-9.238079e-01	-9.191369e-01	
1.750000e+00	-9.329205e-01	-9.285294e-01	
1.765625e+00	-9.329205e-01	-9.285294e-01	
1.765625e+00	-9.414711e-01	-9.373625e-01	
1.781250e+00	-9.414711e-01	-9.373625e-01	
1.781250e+00	-9.494546e-01	-9.456311e-01	
1.796875e+00	-9.494546e-01	-9.456311e-01	
1.796875e+00	-9.568662e-01	-9.533300e-01	
1.812500e+00	-9.568662e-01	-9.533300e-01	
1.812500e+00	-9.637015e-01	-9.604546e-01	
1.828125e+00	-9.637015e-01	-9.604546e-01	
1.828125e+00	-9.699562e-01	-9.670007e-01	
1.843750e+00	-9.699562e-01	-9.670007e-01	
1.843750e+00	-9.756267e-01	-9.729644e-01	
1.859375e+00	-9.756267e-01	-9.729644e-01	
1.859375e+00	-9.807095e-01	-9.783419e-01	
1.875000e+00	-9.807095e-01	-9.783419e-01	
1.875000e+00	-9.852015e-01	-9.831302e-01	
1.890625e+00	-9.852015e-01	-9.831302e-01	
1.890625e+00	-9.891001e-01	-9.873262e-01	
1.906250e+00	-9.891001e-01	-9.873262e-01	
1.906250e+00	-9.924029e-01	-9.909275e-01	
1.921875e+00	-9.924029e-01	-9.909275e-01	
1.921875e+00	-9.951079e-01	-9.939319e-01	
1.937500e+00	-9.951079e-01	-9.939319e-01	
1.937500e+00	-9.972135e-01	-9.963376e-01	
1.953125e+00	-9.972135e-01	-9.963376e-01	
1.953125e+00	-9.987184e-01	-9.981432e-01	
1.968750e+00	-9.987184e-01	-9.981432e-01	
1.968750e+00	-9.996217e-01	-9.993475e-01	
1.984375e+00	-9.996217e-01	-9.993475e-01	
1.984375e+00	-9.999229e-01	-9.999498e-01	
2.000000e+00	-9.999229e-01	-9.999498e-01	
2.000000e+00	-9.996218e-01	-9.999498e-01	
2.015625e+00	-9.996218e-01	-9.999498e-01	
2.015625e+00	-9.987185e-01	-9.993475e-01	
2.031250e+00	-9.987185e-01	-9.993475e-01	
2.031250e+00	-9.972137e-01	-9.981432e-01	
2.046875e+00	-9.972137e-01	-9.981432e-01	
2.046875e+00	-9.951081e-01	-9.963376e-01	
2.062500e+00	-9.951081e-01	-9.963376e-01	
2.062500e+00	-9.924032e-01	-9.939319e-01	
2.078125e+00	-9.924032e-01	-9.939319e-01	
2.078125e+00	-9.891004e-01	-9.909275e-01	
2.093750e+00	-9.891004e-01	-9.909275e-01	
2.093750e+00	-9.852019e-01	-9.873262e-01	
2.109375e+00	-9.852019e-01	-9.873262e-01	
2.109375e+00	-9.807099e-01	-9.831302e-01	
2.125000e+00	-9.807099e-01	-9.831302e-01	
2.125000e+00	-9.756272e-01	-9.783419e-01	
2.140625e+00	-9.756272e-01	-9.783419e-01	
2.140625e+00	-9.699567e-01	-9.729644e-01	
2.156250e+00	-9.699567e-01	-9.729644e-01	
2.156250e+00	-9.637021e-01	-9.670007e-01	
2.171875e+00	-9.637021e-01	-9.670007e-01	
2.171875e+00	-9.568669e-01	-9.604546e-01	
2.187500e+00	-9.568669e-01	-9.604546e-01	
2.187500e+00	-9.494553e-01	-9.533300e-01	
2.203125e+00	-9.494553e-01	-9.533300e-01	
2.203125e+00	-9.414719e-01	-9.456311e-01	
2.218750e+00	-9.414719e-01	-9.456311e-01	
2.218750e+00	-9.329213e-01	-9.373625e-01	
2.234375e+00	-9.329213e-01	-9.373625e-01	
2.234375e+00	-9.238087e-01	-9.285294e-01	
2.250000e+00	-9.238087e-01	-9.285294e-01	
2.250000e+00	-9.141397e-01	-9.191369e-01	
2.265625e+00	-9.141397e-01	-9.191369e-01	
2.265625e+00	-9.039201e-01	-9.091908e-01	
2.281250e+00	-9.039201e-01	-9.091908e-01	
2.281250e+00	-8.931559e-01	-8.986970e-01	
2.296875e+00	-8.931559e-01	-8.986970e-01	
2.296875e+00	-8.818538e-01	-8.876619e-01	
2.312500e+00	-8.818538e-01	-8.876619e-01	
2.312500e+00	-8.700205e-01	-8.760921e-01	
2.328125e+00	-8.700205e-01	-8.760921e-01	
2.328125e+00	-8.576631e-01	-8.639945e-01	
2.343750e+00	-8.576631e-01	-8.639945e-01	
2.343750e+00	-8.447890e-01	-8.513766e-01	
2.359375e+00	-8.447890e-01	-8.513766e-01	
2.359375e+00	-8.314061e-01	-8.382457e-01	
2.375000e+00	-8.314061e-01	-8.382457e-01	
2.375000e+00	-8.175224e-01	-8.246100e-01	
2.390625e+00	-8.175224e-01	-8.246100e-01	
2.390625e+00	-8.031463e-01	-8.104775e-01	
2.406250e+00	-8.031463e-01	-8.104775e-01	
2.406250e+00	-7.882863e-01	-7.958569e-01	
2.421875e+00	-7.882863e-01	-7.958569e-01	
2.421875e+00	-7.729516e-01	-7.807568e-01	
2.437500e+00	-7.729516e-01	-7.807568e-01	
2.437500e+00	-7.571512e-01	-7.651865e-01	
2.453125e+00	-7.571512e-01	-7.651865e-01	
2.453125e+00	-7.408948e-01	-7.491552e-01	
2.468750e+00	-7.408948e-01	-7.491552e-01	
2.468750e+00	-7.241920e-01	-7.326727e-01	
2.484375e+00	-7.241920e-01	-7.326727e-01	
2.484375e+00	-7.070531e-01	-7.157488e-01	
2.500000e+00	-7.070531e-01	-7.157488e-01	
2.500000e+00	-6.894882e-01	-6.983938e-01	
2.515625e+00	-6.894882e-01	-6.983938e-01	
2.515625e+00	-6.715080e-01	-6.806181e-01	
2.531250e+00	-6.715080e-01	-6.806181e-01	
2.531250e+00	-6.531233e-01	-6.624324e-01	
2.546875e+00	-6.531233e-01	-6.624324e-01	
2.546875e+00	-6.343452e-01	-6.438477e-01	
2.562500e+00	-6.343452e-01	-6.438477e-01	
2.562500e+00	-6.151850e-01	-6.248752e-01	
2.578125e+00	-6.151850e-01	-6.248752e-01	
2.578125e+00	-5.956543e-01	-6.055262e-01	
2.593750e+00	-5.956543e-01	-6.055262e-01	
2.593750e+00	-5.757647e-01	-5.858126e-01	
2.609375e+00	-5.757647e-01	-5.858126e-01	
2.609375e+00	-5.555283e-01	-5.657460e-01	
2.625000e+00	-5.555283e-01	-5.657460e-01	
2.625000e+00	-5.349573e-01	-5.453387e-01	
2.640625e+00	-5.349573e-01	-5.453387e-01	
2.640625e+00	-5.140641e-01	-5.246028e-01	
2.656250e+00	-5.140641e-01	-5.246028e-01	
2.656250e+00	-4.928612e-01	-5.035510e-01	
2.671875e+00	-4.928612e-01	-5.035510e-01	
2.671875e+00	-4.713614e-01	-4.821959e-01	
2.687500e+00	-4.713614e-01	-4.821959e-01	
2.687500e+00	-4.495777e-01	-4.605503e-01	
2.703125e+00	-4.495777e-01	-4.605503e-01	
2.703125e+00	-4.275231e-01	-4.386272e-01	
2.718750e+00	-4.275231e-01	-4.386272e-01	
2.718750e+00	-4.052111e-01	-4.164400e-01	
2.734375e+00	-4.052111e-01	-4.164400e-01	
2.734375e+00	-3.826550e-01	-3.940019e-01	
2.750000e+00	-3.826550e-01	-3.940019e-01	
2.750000e+00	-3.598683e-01	-3.713265e-01	
2.765625e+00	-3.598683e-01	-3.713265e-01	
2.765625e+00	-3.368649e-01	-3.484274e-01	
2.781250e+00	-3.368649e-01	-3.484274e-01	
2.781250e+00	-3.136586e-01	-3.253185e-01	
2.796875e+00	-3.136586e-01	-3.253185e-01	
2.796875e+00	-2.902634e-01	-3.020135e-01	
2.812500e+00	-2.902634e-01	-3.020135e-01	
2.812500e+00	-2.666933e-01	-2.785267e-01	
2.828125e+00	-2.666933e-01	-2.785267e-01	
2.828125e+00	-2.429625e-01	-2.548721e-01	
2.843750e+00	-2.429625e-01	-2.548721e-01	
2.843750e+00	-2.190854e-01	-2.310639e-01	
2.859375e+00	-2.190854e-01	-2.310639e-01	
2.859375e+00	-1.950764e-01	-2.071166e-01	
2.875000e+00	-1.950764e-01	-2.071166e-01	
2.875000e+00	-1.709498e-01	-1.830445e-01	
2.890625e+00	-1.709498e-01	-1.830445e-01	
2.890625e+00	-1.467203e-01	-1.588621e-01	
2.906250e+00	-1.467203e-01	-1.588621e-01	
2.906250e+00	-1.224023e-01	-1.345841e-01	
2.921875e+00	-1.224023e-01	-1.345841e-01	
2.921875e+00	-9.801069e-02	-1.102250e-01	
2.937500e+00	-9.801069e-02	-1.102250e-01	
2.937500e+00	-7.356000e-02	-8.579947e-02	
2.953125e+00	-7.356000e-02	-8.579947e-02	
2.953125e+00	-4.906501e-02	-6.132228e-02	
2.968750e+00	-4.906501e-02	-6.132228e-02	
2.968750e+00	-2.454045e-02	-3.680815e-02	
2.984375e+00	-2.454045e-02	-3.680815e-02	
2.984375e+00	-1.115038e-06	-1.227185e-02	
3.000000e+00	-1.115038e-06	-1.227185e-02	
3.000000e+00	2.453822e-02	1.227185e-02	
3.015625e+00	2.453822e-02	1.227185e-02	
3.015625e+00	4.906278e-02	3.680815e-02	
3.031250e+00	4.906278e-02	3.680815e-02	
3.031250e+00	7.355778e-02	6.132228e-02	
3.046875e+00	7.355778e-02	6.132228e-02	
3.046875e+00	9.800847e-02	8.579947e-02	
3.062500e+00	9.800847e-02	8.579947e-02	
3.062500e+00	1.224001e-01	1.102250e-01	
3.078125e+00	1.224001e-01	1.102250e-01	
3.078125e+00	1.467181e-01	1.345841e-01	
3.093750e+00	1.467181e-01	1.345841e-01	
3.093750e+00	1.709476e-01	1.588621e-01	
3.109375e+00	1.709476e-01	1.588621e-01	
3.109375e+00	1.950742e-01	1.830445e-01	
3.125000e+00	1.950742e-01	1.830445e-01	
3.125000e+00	2.190833e-01	2.071166e-01	
3.140625e+00	2.190833e-01	2.071166e-01	
3.140625e+00	2.429604e-01	2.310639e-01	
3.156250e+00	2.429604e-01	2.310639e-01	
3.156250e+00	2.666911e-01	2.548721e-01	
3.171875e+00	2.666911e-01	2.548721e-01	
3.171875e+00	2.902612e-01	2.785267e-01	
3.187500e+00	2.902612e-01	2.785267e-01	
3.187500e+00	3.136565e-01	3.020135e-01	
3.203125e+00	3.136565e-01	3.020135e-01	
3.203125e+00	3.368628e-01	3.253185e-01	
3.218750e+00	3.368628e-01	3.253185e-01	
3.218750e+00	3.598663e-01	3.484274e-01	
3.234375e+00	3.598663e-01	3.484274e-01	
3.234375e+00	3.826529e-01	3.713265e-01	
3.250000e+00	3.826529e-01	3.713265e-01	
3.250000e+00	4.052091e-01	3.940019e-01	
3.265625e+00	4.052091e-01	3.940019e-01	
3.265625e+00	4.275211e-01	4.164400e-01	
3.281250e+00	4.275211e-01	4.164400e-01	
3.281250e+00	4.495757e-01	4.386272e-01	
3.296875e+00	4.495757e-01	4.386272e-01	
3.296875e+00	4.713594e-01	4.605503e-01	
3.312500e+00	4.713594e-01	4.605503e-01	
3.312500e+00	4.928592e-01	4.821959e-01	
3.328125e+00	4.928592e-01	4.821959e-01	
3.328125e+00	5.140622e-01	5.035510e-01	
3.343750e+00	5.140622e-01	5.035510e-01	
3.343750e+00	5.349554e-01	5.246028e-01	
3.359375e+00	5.349554e-01	5.246028e-01	
3.359375e+00	5.555265e-01	5.453387e-01	
3.375000e+00	5.555265e-01	5.453387e-01	
3.375000e+00	5.757629e-01	5.657460e-01	
3.390625e+00	5.757629e-01	5.657460e-01	
3.390625e+00	5.956525e-01	5.858126e-01	
3.406250e+00	5.956525e-01	5.858126e-01	
3.406250e+00	6.151833e-01	6.055262e-01	
3.421875e+00	6.151833e-01	6.055262e-01	
3.421875e+00	6.343435e-01	6.248752e-01	
3.437500e+00	6.343435e-01	6.248752e-01	
3.437500e+00	6.531216e-01	6.438477e-01	
3.453125e+00	6.531216e-01	6.438477e-01	
3.453125e+00	6.715064e-01	6.624324e-01	
3.468750e+00	6.715064e-01	6.624324e-01	
3.468750e+00	6.894866e-01	6.806181e-01	
3.484375e+00	6.894866e-01	6.806181e-01	
3.484375e+00	7.070515e-01	6.983938e-01	
3.500000e+00	7.070515e-01	6.983938e-01	
3.500000e+00	7.241905e-01	7.157488e-01	
3.515625e+00	7.241905e-01	7.157488e-01	
3.515625e+00	7.408933e-01	7.326727e-01	
3.531250e+00	7.408933e-01	7.326727e-01	
3.531250e+00	7.571497e-01	7.491552e-01	
3.546875e+00	7.571497e-01	7.491552e-01	
3.546875e+00	7.729502e-01	7.651865e-01	
3.562500e+00	7.729502e-01	7.651865e-01	
3.562500e+00	7.882850e-01	7.807568e-01	
3.578125e+00	7.882850e-01	7.807568e-01	
3.578125e+00	8.031449e-01	7.958569e-01	
3.593750e+00	8.031449e-01	7.958569e-01	
3.593750e+00	8.175211e-01	8.104775e-01	
3.609375e+00	8.175211e-01	8.104775e-01	
3.609375e+00	8.314049e-01	8.246100e-01	
3.625000e+00	8.314049e-01	8.246100e-01	
3.625000e+00	8.447878e-01	8.382457e-01	
3.640625e+00	8.447878e-01	8.382457e-01	
3.640625e+00	8.576619e-01	8.513766e-01	
3.656250e+00	8.576619e-01	8.513766e-01	
3.656250e+00	8.700194e-01	8.639945e-01	
3.671875e+00	8.700194e-01	8.639945e-01	
3.671875e+00	8.818528e-01	8.760921e-01	
3.687500e+00	8.818528e-01	8.760921e-01	
3.687500e+00	8.931549e-01	8.876619e-01	
3.703125e+00	8.931549e-01	8.876619e-01	
3.703125e+00	9.039191e-01	8.986970e-01	
3.718750e+00	9.039191e-01	8.986970e-01	
3.718750e+00	9.141388e-01	9.091908e-01	
3.734375e+00	9.141388e-01	9.091908e-01	
3.734375e+00	9.238079e-01	9.191369e-01	
3.750000e+00	9.238079e-01	9.191369e-01	
3.750000e+00	9.329205e-01	9.285294e-01	
3.765625e+00	9.329205e-01	9.285294e-01	
3.765625e+00	9.414711e-01	9.373625e-01	
3.781250e+00	9.414711e-01	9.373625e-01	
3.781250e+00	9.494546e-01	9.456311e-01	
3.796875e+00	9.494546e-01	9.456311e-01	
3.796875e+00	9.568662e-01	9.533300e-01	
3.812500e+00	9.568662e-01	9.533300e-01	
3.812500e+00	9.637015e-01	9.604546e-01	
3.828125e+00	9.637015e-01	9.604546e-01	
3.828125e+00	9.699562e-01	9.670007e-01	
3.843750e+00	9.699562e-01	9.670007e-01	
3.843750e+00	9.756267e-01	9.729644e-01	
3.859375e+00	9.756267e-01	9.729644e-01	
3.859375e+00	9.807095e-01	9.783419e-01	
3.875000e+00	9.807095e-01	9.783419e-01	
3.875000e+00	9.852015e-01	9.831302e-01	
3.890625e+00	9.852015e-01	9.831302e-01	
3.890625e+00	9.891001e-01	9.873262e-01	
3.906250e+00	9.891001e-01	9.873262e-01	
3.906250e+00	9.924029e-01	9.909275e-01	
3.921875e+00	9.924029e-01	9.909275e-01	
3.921875e+00	9.951080e-01	9.939319e-01	
3.937500e+00	9.951080e-01	9.939319e-01	
3.937500e+00	9.972141e-01	9.963376e-01	
3.953125e+00	9.972141e-01	9.963376e-01	
3.953125e+00	9.987216e-01	9.981432e-01	
3.968750e+00	9.987216e-01	9.981432e-01	
3.968750e+00	9.996374e-01	9.993475e-01	
3.984375e+00	9.996374e-01	9.993475e-01	
3.984375e+00	1.000000e+00	9.999498e-01	
4.000000e+00	1.000000e+00	9.999498e-01	
