Position [m]	T (fluid)  	T (solid)
0.000000e+00	9.999847e-01	9.871158e-01	
2.500000e-01	9.999847e-01	9.871158e-01	
2.500000e-01	8.497100e-01	8.368364e-01	
5.000000e-01	8.497100e-01	8.368364e-01	
5.000000e-01	5.720387e-01	5.591562e-01	
7.500000e-01	5.720387e-01	5.591562e-01	
7.500000e-01	2.092439e-01	1.963495e-01	
1.000000e+00	2.092439e-01	1.963495e-01	
1.000000e+00	-1.834421e-01	-1.963495e-01	
1.250000e+00	-1.834421e-01	-1.963495e-01	
1.250000e+00	-5.462363e-01	-5.591562e-01	
1.500000e+00	-5.462363e-01	-5.591562e-01	
1.500000e+00	-8.239064e-01	-8.368364e-01	
1.750000e+00	-8.239064e-01	-8.368364e-01	
1.750000e+00	-9.741796e-01	-9.871158e-01	
2.000000e+00	-9.741796e-01	-9.871158e-01	
2.000000e+00	-9.741780e-01	-9.871158e-01	
2.250000e+00	-9.741780e-01	-9.871158e-01	
2.250000e+00	-8.239017e-01	-8.368364e-01	
2.500000e+00	-8.239017e-01	-8.368364e-01	
2.500000e+00	-5.462288e-01	-5.591562e-01	
2.750000e+00	-5.462288e-01	-5.591562e-01	
2.750000e+00	-1.834324e-01	-1.963495e-01	
3.000000e+00	-1.834324e-01	-1.963495e-01	
3.000000e+00	2.092552e-01	1.963495e-01	
3.250000e+00	2.092552e-01	1.963495e-01	
3.250000e+00	5.720510e-01	5.591562e-01	
3.500000e+00	5.720510e-01	5.591562e-01	
3.500000e+00	8.497228e-01	8.368364e-01	
3.750000e+00	8.497228e-01	8.368364e-01	
3.750000e+00	9.999976e-01	9.871158e-01	
4.000000e+00	9.999976e-01	9.871158e-01	
