Position [m]	T (fluid)  	T (solid)
0.000000e+00	7.024848e-01	9.480594e-01	
1.250000e-01	7.024848e-01	9.480594e-01	
1.250000e-01	2.688867e-03	3.926991e-01	
2.500000e-01	2.688867e-03	3.926991e-01	
2.500000e-01	-6.986822e-01	-3.926991e-01	
3.750000e-01	-6.986822e-01	-3.926991e-01	
3.750000e-01	-9.907747e-01	-9.480594e-01	
5.000000e-01	-9.907747e-01	-9.480594e-01	
5.000000e-01	-7.024848e-01	-9.480594e-01	
6.250000e-01	-7.024848e-01	-9.480594e-01	
6.250000e-01	-2.688867e-03	-3.926991e-01	
7.500000e-01	-2.688867e-03	-3.926991e-01	
7.500000e-01	6.986822e-01	3.926991e-01	
8.750000e-01	6.986822e-01	3.926991e-01	
8.750000e-01	9.907747e-01	9.480594e-01	
1.000000e+00	9.907747e-01	9.480594e-01	
1.000000e+00	7.024848e-01	9.480594e-01	
1.125000e+00	7.024848e-01	9.480594e-01	
1.125000e+00	2.688867e-03	3.926991e-01	
1.250000e+00	2.688867e-03	3.926991e-01	
1.250000e+00	-6.986822e-01	-3.926991e-01	
1.375000e+00	-6.986822e-01	-3.926991e-01	
1.375000e+00	-9.907747e-01	-9.480594e-01	
1.500000e+00	-9.907747e-01	-9.480594e-01	
1.500000e+00	-7.024848e-01	-9.480594e-01	
1.625000e+00	-7.024848e-01	-9.480594e-01	
1.625000e+00	-2.688867e-03	-3.926991e-01	
1.750000e+00	-2.688867e-03	-3.926991e-01	
1.750000e+00	6.986822e-01	3.926991e-01	
1.875000e+00	6.986822e-01	3.926991e-01	
1.875000e+00	9.907747e-01	9.480594e-01	
2.000000e+00	9.907747e-01	9.480594e-01	
2.000000e+00	7.024848e-01	9.480594e-01	
2.125000e+00	7.024848e-01	9.480594e-01	
2.125000e+00	2.688867e-03	3.926991e-01	
2.250000e+00	2.688867e-03	3.926991e-01	
2.250000e+00	-6.986822e-01	-3.926991e-01	
2.375000e+00	-6.986822e-01	-3.926991e-01	
2.375000e+00	-9.907747e-01	-9.480594e-01	
2.500000e+00	-9.907747e-01	-9.480594e-01	
2.500000e+00	-7.024848e-01	-9.480594e-01	
2.625000e+00	-7.024848e-01	-9.480594e-01	
2.625000e+00	-2.688867e-03	-3.926991e-01	
2.750000e+00	-2.688867e-03	-3.926991e-01	
2.750000e+00	6.986822e-01	3.926991e-01	
2.875000e+00	6.986822e-01	3.926991e-01	
2.875000e+00	9.907747e-01	9.480594e-01	
3.000000e+00	9.907747e-01	9.480594e-01	
3.000000e+00	7.024848e-01	9.480594e-01	
3.125000e+00	7.024848e-01	9.480594e-01	
3.125000e+00	2.688867e-03	3.926991e-01	
3.250000e+00	2.688867e-03	3.926991e-01	
3.250000e+00	-6.986822e-01	-3.926991e-01	
3.375000e+00	-6.986822e-01	-3.926991e-01	
3.375000e+00	-9.907747e-01	-9.480594e-01	
3.500000e+00	-9.907747e-01	-9.480594e-01	
3.500000e+00	-7.024846e-01	-9.480594e-01	
3.625000e+00	-7.024846e-01	-9.480594e-01	
3.625000e+00	-2.679997e-03	-3.926991e-01	
3.750000e+00	-2.679997e-03	-3.926991e-01	
3.750000e+00	6.989683e-01	3.926991e-01	
3.875000e+00	6.989683e-01	3.926991e-01	
3.875000e+00	1.000000e+00	9.480594e-01	
4.000000e+00	1.000000e+00	9.480594e-01	
