Position [m]	T (fluid)  	T (solid)
0.000000e+00	1.000373e+00	9.330859e-01	
6.250000e-02	1.000373e+00	9.330859e-01	
6.250000e-02	8.328270e-01	3.822162e-01	
1.250000e-01	8.328270e-01	3.822162e-01	
1.250000e-01	5.313584e-01	-3.969949e-01	
1.875000e-01	5.313584e-01	-3.969949e-01	
1.875000e-01	1.533429e-01	-9.483986e-01	
2.500000e-01	1.533429e-01	-9.483986e-01	
2.500000e-01	-2.355526e-01	-9.493850e-01	
3.125000e-01	-2.355526e-01	-9.493850e-01	
3.125000e-01	-5.761220e-01	-3.998039e-01	
3.750000e-01	-5.761220e-01	-3.998039e-01	
3.750000e-01	-8.246338e-01	3.780126e-01	
4.375000e-01	-8.246338e-01	3.780126e-01	
4.375000e-01	-9.547338e-01	9.281279e-01	
5.000000e-01	-9.547338e-01	9.281279e-01	
5.000000e-01	-9.547329e-01	9.281284e-01	
5.625000e-01	-9.547329e-01	9.281284e-01	
5.625000e-01	-8.246316e-01	3.780138e-01	
6.250000e-01	-8.246316e-01	3.780138e-01	
6.250000e-01	-5.761195e-01	-3.998025e-01	
6.875000e-01	-5.761195e-01	-3.998025e-01	
6.875000e-01	-2.355510e-01	-9.493841e-01	
7.500000e-01	-2.355510e-01	-9.493841e-01	
7.500000e-01	1.533429e-01	-9.483986e-01	
8.125000e-01	1.533429e-01	-9.483986e-01	
8.125000e-01	5.313569e-01	-3.969959e-01	
8.750000e-01	5.313569e-01	-3.969959e-01	
8.750000e-01	8.328247e-01	3.822146e-01	
9.375000e-01	8.328247e-01	3.822146e-01	
9.375000e-01	1.000371e+00	9.330841e-01	
1.000000e+00	1.000371e+00	9.330841e-01	
