Position [m]	T (fluid)  	T (solid)
0.000000e+00	9.996841e-01	9.998559e-01	
9.765625e-04	9.990816e-01	9.989149e-01	
1.953125e-03	9.978773e-01	9.970337e-01	
2.929688e-03	9.960719e-01	9.942140e-01	
3.906250e-03	9.936665e-01	9.904587e-01	
4.882812e-03	9.906626e-01	9.857711e-01	
5.859375e-03	9.870619e-01	9.801557e-01	
6.835938e-03	9.828666e-01	9.736178e-01	
7.812500e-03	9.780793e-01	9.661636e-01	
8.789062e-03	9.727028e-01	9.578000e-01	
9.765625e-03	9.667404e-01	9.485349e-01	
1.074219e-02	9.601956e-01	9.383771e-01	
1.171875e-02	9.530725e-01	9.273361e-01	
1.269531e-02	9.453752e-01	9.154223e-01	
1.367188e-02	9.371085e-01	9.026469e-01	
1.464844e-02	9.282773e-01	8.890219e-01	
1.562500e-02	9.188869e-01	8.745602e-01	
1.660156e-02	9.089430e-01	8.592754e-01	
1.757812e-02	8.984516e-01	8.431818e-01	
1.855469e-02	8.874190e-01	8.262946e-01	
1.953125e-02	8.758519e-01	8.086297e-01	
2.050781e-02	8.637571e-01	7.902038e-01	
2.148438e-02	8.511421e-01	7.710341e-01	
2.246094e-02	8.380143e-01	7.511387e-01	
2.343750e-02	8.243818e-01	7.305364e-01	
2.441406e-02	8.102526e-01	7.092465e-01	
2.539062e-02	7.956354e-01	6.872890e-01	
2.636719e-02	7.805390e-01	6.646847e-01	
2.734375e-02	7.649723e-01	6.414547e-01	
2.832031e-02	7.489449e-01	6.176210e-01	
2.929688e-02	7.324663e-01	5.932061e-01	
3.027344e-02	7.155465e-01	5.682328e-01	
3.125000e-02	6.981956e-01	5.427246e-01	
3.222656e-02	6.804242e-01	5.167057e-01	
3.320312e-02	6.622430e-01	4.902004e-01	
3.417969e-02	6.436628e-01	4.632338e-01	
3.515625e-02	6.246949e-01	4.358312e-01	
3.613281e-02	6.053506e-01	4.080183e-01	
3.710938e-02	5.856418e-01	3.798215e-01	
3.808594e-02	5.655802e-01	3.512671e-01	
3.906250e-02	5.451778e-01	3.223821e-01	
4.003906e-02	5.244471e-01	2.931937e-01	
4.101562e-02	5.034005e-01	2.637293e-01	
4.199219e-02	4.820506e-01	2.340167e-01	
4.296875e-02	4.604104e-01	2.040838e-01	
4.394531e-02	4.384928e-01	1.739589e-01	
4.492188e-02	4.163111e-01	1.436702e-01	
4.589844e-02	3.938786e-01	1.132462e-01	
4.687500e-02	3.712088e-01	8.271571e-02	
4.785156e-02	3.483155e-01	5.210732e-02	
4.882812e-02	3.252123e-01	2.144987e-02	
4.980469e-02	3.019132e-01	-9.227781e-03	
5.078125e-02	2.784323e-01	-3.989676e-02	
5.175781e-02	2.547837e-01	-7.052820e-02	
5.273438e-02	2.309815e-01	-1.010933e-01	
5.371094e-02	2.070403e-01	-1.315632e-01	
5.468750e-02	1.829743e-01	-1.619093e-01	
5.566406e-02	1.587981e-01	-1.921031e-01	
5.664062e-02	1.345263e-01	-2.221161e-01	
5.761719e-02	1.101734e-01	-2.519200e-01	
5.859375e-02	8.575412e-02	-2.814868e-01	
5.957031e-02	6.128321e-02	-3.107888e-01	
6.054688e-02	3.677540e-02	-3.397982e-01	
6.152344e-02	1.224542e-02	-3.684878e-01	
6.250000e-02	-1.229192e-02	-3.968306e-01	
6.347656e-02	-3.682186e-02	-4.248000e-01	
6.445312e-02	-6.132962e-02	-4.523695e-01	
6.542969e-02	-8.580044e-02	-4.795134e-01	
6.640625e-02	-1.102196e-01	-5.062059e-01	
6.738281e-02	-1.345723e-01	-5.324220e-01	
6.835938e-02	-1.588440e-01	-5.581370e-01	
6.933594e-02	-1.830200e-01	-5.833267e-01	
7.031250e-02	-2.070857e-01	-6.079674e-01	
7.128906e-02	-2.310267e-01	-6.320359e-01	
7.226562e-02	-2.548286e-01	-6.555096e-01	
7.324219e-02	-2.784769e-01	-6.783663e-01	
7.421875e-02	-3.019575e-01	-7.005846e-01	
7.519531e-02	-3.252562e-01	-7.221435e-01	
7.617188e-02	-3.483590e-01	-7.430227e-01	
7.714844e-02	-3.712519e-01	-7.632027e-01	
7.812500e-02	-3.939212e-01	-7.826643e-01	
7.910156e-02	-4.163532e-01	-8.013894e-01	
8.007812e-02	-4.385344e-01	-8.193602e-01	
8.105469e-02	-4.604515e-01	-8.365598e-01	
8.203125e-02	-4.820912e-01	-8.529721e-01	
8.300781e-02	-5.034404e-01	-8.685817e-01	
8.398438e-02	-5.244865e-01	-8.833737e-01	
8.496094e-02	-5.452166e-01	-8.973343e-01	
8.593750e-02	-5.656182e-01	-9.104504e-01	
8.691406e-02	-5.856792e-01	-9.227096e-01	
8.789062e-02	-6.053874e-01	-9.341004e-01	
8.886719e-02	-6.247309e-01	-9.446121e-01	
8.984375e-02	-6.436981e-01	-9.542347e-01	
9.082031e-02	-6.622775e-01	-9.629592e-01	
9.179688e-02	-6.804580e-01	-9.707774e-01	
9.277344e-02	-6.982286e-01	-9.776819e-01	
9.375000e-02	-7.155786e-01	-9.836663e-01	
9.472656e-02	-7.324976e-01	-9.887249e-01	
9.570312e-02	-7.489753e-01	-9.928529e-01	
9.667969e-02	-7.650019e-01	-9.960464e-01	
9.765625e-02	-7.805677e-01	-9.983026e-01	
9.863281e-02	-7.956632e-01	-9.996191e-01	
9.960938e-02	-8.102795e-01	-9.999949e-01	
1.005859e-01	-8.244077e-01	-9.994294e-01	
1.015625e-01	-8.380394e-01	-9.979234e-01	
1.025391e-01	-8.511662e-01	-9.954781e-01	
1.035156e-01	-8.637802e-01	-9.920959e-01	
1.044922e-01	-8.758740e-01	-9.877800e-01	
1.054688e-01	-8.874402e-01	-9.825344e-01	
1.064453e-01	-8.984718e-01	-9.763640e-01	
1.074219e-01	-9.089622e-01	-9.692748e-01	
1.083984e-01	-9.189050e-01	-9.612733e-01	
1.093750e-01	-9.282944e-01	-9.523670e-01	
1.103516e-01	-9.371246e-01	-9.425644e-01	
1.113281e-01	-9.453902e-01	-9.318747e-01	
1.123047e-01	-9.530864e-01	-9.203080e-01	
1.132812e-01	-9.602085e-01	-9.078751e-01	
1.142578e-01	-9.667522e-01	-8.945877e-01	
1.152344e-01	-9.727136e-01	-8.804583e-01	
1.162109e-01	-9.780890e-01	-8.655003e-01	
1.171875e-01	-9.828753e-01	-8.497277e-01	
1.181641e-01	-9.870695e-01	-8.331553e-01	
1.191406e-01	-9.906691e-01	-8.157988e-01	
1.201172e-01	-9.936720e-01	-7.976745e-01	
1.210938e-01	-9.960764e-01	-7.787995e-01	
1.220703e-01	-9.978807e-01	-7.591914e-01	
1.230469e-01	-9.990839e-01	-7.388688e-01	
1.240234e-01	-9.996854e-01	-7.178509e-01	
1.250000e-01	-9.996846e-01	-6.961572e-01	
1.259766e-01	-9.990817e-01	-6.738084e-01	
1.269531e-01	-9.978770e-01	-6.508254e-01	
1.279297e-01	-9.960712e-01	-6.272299e-01	
1.289062e-01	-9.936653e-01	-6.030440e-01	
1.298828e-01	-9.906610e-01	-5.782906e-01	
1.308594e-01	-9.870599e-01	-5.529929e-01	
1.318359e-01	-9.828642e-01	-5.271747e-01	
1.328125e-01	-9.780765e-01	-5.008603e-01	
1.337891e-01	-9.726997e-01	-4.740746e-01	
1.347656e-01	-9.667369e-01	-4.468426e-01	
1.357422e-01	-9.601918e-01	-4.191901e-01	
1.367188e-01	-9.530683e-01	-3.911431e-01	
1.376953e-01	-9.453707e-01	-3.627279e-01	
1.386719e-01	-9.371037e-01	-3.339713e-01	
1.396484e-01	-9.282722e-01	-3.049004e-01	
1.406250e-01	-9.188815e-01	-2.755426e-01	
1.416016e-01	-9.089373e-01	-2.459254e-01	
1.425781e-01	-8.984457e-01	-2.160767e-01	
1.435547e-01	-8.874128e-01	-1.860247e-01	
1.445312e-01	-8.758454e-01	-1.557975e-01	
1.455078e-01	-8.637505e-01	-1.254238e-01	
1.464844e-01	-8.511352e-01	-9.493195e-02	
1.474609e-01	-8.380073e-01	-6.435078e-02	
1.484375e-01	-8.243745e-01	-3.370904e-02	
1.494141e-01	-8.102452e-01	-3.035568e-03	
1.503906e-01	-7.956279e-01	2.764076e-02	
1.513672e-01	-7.805313e-01	5.829109e-02	
1.523438e-01	-7.649645e-01	8.888655e-02	
1.533203e-01	-7.489370e-01	1.193984e-01	
1.542969e-01	-7.324584e-01	1.497978e-01	
1.552734e-01	-7.155385e-01	1.800563e-01	
1.562500e-01	-6.981876e-01	2.101453e-01	
1.572266e-01	-6.804162e-01	2.400365e-01	
1.582031e-01	-6.622350e-01	2.697018e-01	
1.591797e-01	-6.436548e-01	2.991133e-01	
1.601562e-01	-6.246869e-01	3.282433e-01	
1.611328e-01	-6.053428e-01	3.570643e-01	
1.621094e-01	-5.856340e-01	3.855493e-01	
1.630859e-01	-5.655725e-01	4.136714e-01	
1.640625e-01	-5.451703e-01	4.414042e-01	
1.650391e-01	-5.244397e-01	4.687215e-01	
1.660156e-01	-5.033932e-01	4.955977e-01	
1.669922e-01	-4.820435e-01	5.220075e-01	
1.679688e-01	-4.604035e-01	5.479260e-01	
1.689453e-01	-4.384861e-01	5.733288e-01	
1.699219e-01	-4.163046e-01	5.981920e-01	
1.708984e-01	-3.938724e-01	6.224921e-01	
1.718750e-01	-3.712029e-01	6.462064e-01	
1.728516e-01	-3.483099e-01	6.693126e-01	
1.738281e-01	-3.252070e-01	6.917888e-01	
1.748047e-01	-3.019083e-01	7.136138e-01	
1.757812e-01	-2.784277e-01	7.347673e-01	
1.767578e-01	-2.547794e-01	7.552292e-01	
1.777344e-01	-2.309777e-01	7.749803e-01	
1.787109e-01	-2.070368e-01	7.940021e-01	
1.796875e-01	-1.829713e-01	8.122765e-01	
1.806641e-01	-1.587955e-01	8.297864e-01	
1.816406e-01	-1.345241e-01	8.465154e-01	
1.826172e-01	-1.101717e-01	8.624477e-01	
1.835938e-01	-8.575292e-02	8.775682e-01	
1.845703e-01	-6.128252e-02	8.918628e-01	
1.855469e-01	-3.677522e-02	9.053180e-01	
1.865234e-01	-1.224578e-02	9.179211e-01	
1.875000e-01	1.229102e-02	9.296603e-01	
1.884766e-01	3.682040e-02	9.405245e-01	
1.894531e-01	6.132758e-02	9.505036e-01	
1.904297e-01	8.579781e-02	9.595880e-01	
1.914062e-01	1.102163e-01	9.677693e-01	
1.923828e-01	1.345685e-01	9.750397e-01	
1.933594e-01	1.588395e-01	9.813925e-01	
1.943359e-01	1.830149e-01	9.868216e-01	
1.953125e-01	2.070800e-01	9.913219e-01	
1.962891e-01	2.310203e-01	9.948893e-01	
1.972656e-01	2.548215e-01	9.975202e-01	
1.982422e-01	2.784691e-01	9.992123e-01	
1.992188e-01	3.019490e-01	9.999639e-01	
2.001953e-01	3.252470e-01	9.997745e-01	
2.011719e-01	3.483491e-01	9.986440e-01	
2.021484e-01	3.712413e-01	9.965736e-01	
2.031250e-01	3.939099e-01	9.935653e-01	
2.041016e-01	4.163412e-01	9.896219e-01	
2.050781e-01	4.385217e-01	9.847470e-01	
2.060547e-01	4.604380e-01	9.789453e-01	
2.070312e-01	4.820770e-01	9.722222e-01	
2.080078e-01	5.034255e-01	9.645841e-01	
2.089844e-01	5.244708e-01	9.560382e-01	
2.099609e-01	5.452001e-01	9.465924e-01	
2.109375e-01	5.656011e-01	9.362557e-01	
2.119141e-01	5.856613e-01	9.250379e-01	
2.128906e-01	6.053687e-01	9.129493e-01	
2.138672e-01	6.247114e-01	9.000016e-01	
2.148438e-01	6.436779e-01	8.862067e-01	
2.158203e-01	6.622566e-01	8.715778e-01	
2.167969e-01	6.804363e-01	8.561285e-01	
2.177734e-01	6.982062e-01	8.398735e-01	
2.187500e-01	7.155555e-01	8.228280e-01	
2.197266e-01	7.324737e-01	8.050080e-01	
2.207031e-01	7.489507e-01	7.864304e-01	
2.216797e-01	7.649765e-01	7.671126e-01	
2.226562e-01	7.805416e-01	7.470727e-01	
2.236328e-01	7.956365e-01	7.263298e-01	
2.246094e-01	8.102520e-01	7.049032e-01	
2.255859e-01	8.243795e-01	6.828131e-01	
2.265625e-01	8.380104e-01	6.600804e-01	
2.275391e-01	8.511366e-01	6.367264e-01	
2.285156e-01	8.637500e-01	6.127732e-01	
2.294922e-01	8.758431e-01	5.882431e-01	
2.304688e-01	8.874086e-01	5.631595e-01	
2.314453e-01	8.984395e-01	5.375457e-01	
2.324219e-01	9.089293e-01	5.114260e-01	
2.333984e-01	9.188715e-01	4.848250e-01	
2.343750e-01	9.282602e-01	4.577676e-01	
2.353516e-01	9.370898e-01	4.302794e-01	
2.363281e-01	9.453549e-01	4.023861e-01	
2.373047e-01	9.530505e-01	3.741141e-01	
2.382812e-01	9.601721e-01	3.454900e-01	
2.392578e-01	9.667152e-01	3.165407e-01	
2.402344e-01	9.726760e-01	2.872935e-01	
2.412109e-01	9.780510e-01	2.577758e-01	
2.421875e-01	9.828367e-01	2.280155e-01	
2.431641e-01	9.870304e-01	1.980405e-01	
2.441406e-01	9.906296e-01	1.678792e-01	
2.451172e-01	9.936320e-01	1.375598e-01	
2.460938e-01	9.960359e-01	1.071109e-01	
2.470703e-01	9.978398e-01	7.656113e-02	
2.480469e-01	9.990427e-01	4.593931e-02	
2.490234e-01	9.996437e-01	1.527422e-02	
2.500000e-01	9.996426e-01	-1.540528e-02	
2.509766e-01	9.990393e-01	-4.607031e-02	
2.519531e-01	9.978343e-01	-7.669201e-02	
2.529297e-01	9.960282e-01	-1.072416e-01	
2.539062e-01	9.936220e-01	-1.376902e-01	
2.548828e-01	9.906174e-01	-1.680093e-01	
2.558594e-01	9.870161e-01	-1.981703e-01	
2.568359e-01	9.828202e-01	-2.281448e-01	
2.578125e-01	9.780322e-01	-2.579047e-01	
2.587891e-01	9.726552e-01	-2.874218e-01	
2.597656e-01	9.666922e-01	-3.166685e-01	
2.607422e-01	9.601470e-01	-3.456171e-01	
2.617188e-01	9.530233e-01	-3.742405e-01	
2.626953e-01	9.453256e-01	-4.025117e-01	
2.636719e-01	9.370585e-01	-4.304041e-01	
2.646484e-01	9.282269e-01	-4.578915e-01	
2.656250e-01	9.188362e-01	-4.849479e-01	
2.666016e-01	9.088920e-01	-5.115480e-01	
2.675781e-01	8.984003e-01	-5.376666e-01	
2.685547e-01	8.873674e-01	-5.632793e-01	
2.695312e-01	8.758001e-01	-5.883618e-01	
2.705078e-01	8.637051e-01	-6.128906e-01	
2.714844e-01	8.510899e-01	-6.368426e-01	
2.724609e-01	8.379621e-01	-6.601953e-01	
2.734375e-01	8.243294e-01	-6.829266e-01	
2.744141e-01	8.102003e-01	-7.050153e-01	
2.753906e-01	7.955830e-01	-7.264404e-01	
2.763672e-01	7.804866e-01	-7.471818e-01	
2.773438e-01	7.649200e-01	-7.672201e-01	
2.783203e-01	7.488927e-01	-7.865363e-01	
2.792969e-01	7.324142e-01	-8.051123e-01	
2.802734e-01	7.154946e-01	-8.229305e-01	
2.812500e-01	6.981439e-01	-8.399743e-01	
2.822266e-01	6.803728e-01	-8.562276e-01	
2.832031e-01	6.621918e-01	-8.716750e-01	
2.841797e-01	6.436119e-01	-8.863021e-01	
2.851562e-01	6.246443e-01	-9.000950e-01	
2.861328e-01	6.053005e-01	-9.130409e-01	
2.871094e-01	5.855920e-01	-9.251274e-01	
2.880859e-01	5.655309e-01	-9.363433e-01	
2.890625e-01	5.451290e-01	-9.466779e-01	
2.900391e-01	5.243988e-01	-9.561216e-01	
2.910156e-01	5.033527e-01	-9.646655e-01	
2.919922e-01	4.820034e-01	-9.723014e-01	
2.929688e-01	4.603638e-01	-9.790223e-01	
2.939453e-01	4.384468e-01	-9.848218e-01	
2.949219e-01	4.162658e-01	-9.896945e-01	
2.958984e-01	3.938340e-01	-9.936357e-01	
2.968750e-01	3.711650e-01	-9.966417e-01	
2.978516e-01	3.482724e-01	-9.987098e-01	
2.988281e-01	3.251700e-01	-9.998379e-01	
2.998047e-01	3.018717e-01	-1.000025e+00	
3.007812e-01	2.783916e-01	-9.992711e-01	
3.017578e-01	2.547438e-01	-9.975766e-01	
3.027344e-01	2.309426e-01	-9.949433e-01	
3.037109e-01	2.070022e-01	-9.913736e-01	
3.046875e-01	1.829371e-01	-9.868709e-01	
3.056641e-01	1.587619e-01	-9.814393e-01	
3.066406e-01	1.344910e-01	-9.750842e-01	
3.076172e-01	1.101391e-01	-9.678113e-01	
3.085938e-01	8.572087e-02	-9.596275e-01	
3.095703e-01	6.125099e-02	-9.505406e-01	
3.105469e-01	3.674421e-02	-9.405592e-01	
3.115234e-01	1.221529e-02	-9.296925e-01	
3.125000e-01	-1.232098e-02	-9.179508e-01	
3.134766e-01	-3.684984e-02	-9.053453e-01	
3.144531e-01	-6.135650e-02	-8.918876e-01	
3.154297e-01	-8.582621e-02	-8.775906e-01	
3.164062e-01	-1.102442e-01	-8.624676e-01	
3.173828e-01	-1.345958e-01	-8.465329e-01	
3.183594e-01	-1.588664e-01	-8.298015e-01	
3.193359e-01	-1.830412e-01	-8.122892e-01	
3.203125e-01	-2.071058e-01	-7.940124e-01	
3.212891e-01	-2.310457e-01	-7.749882e-01	
3.222656e-01	-2.548463e-01	-7.552348e-01	
3.232422e-01	-2.784935e-01	-7.347705e-01	
3.242188e-01	-3.019729e-01	-7.136147e-01	
3.251953e-01	-3.252705e-01	-6.917873e-01	
3.261719e-01	-3.483721e-01	-6.693088e-01	
3.271484e-01	-3.712638e-01	-6.462004e-01	
3.281250e-01	-3.939320e-01	-6.224838e-01	
3.291016e-01	-4.163628e-01	-5.981814e-01	
3.300781e-01	-4.385429e-01	-5.733160e-01	
3.310547e-01	-4.604588e-01	-5.479111e-01	
3.320312e-01	-4.820973e-01	-5.219904e-01	
3.330078e-01	-5.034455e-01	-4.955786e-01	
3.339844e-01	-5.244904e-01	-4.687003e-01	
3.349609e-01	-5.452194e-01	-4.413809e-01	
3.359375e-01	-5.656200e-01	-4.136460e-01	
3.369141e-01	-5.856799e-01	-3.855219e-01	
3.378906e-01	-6.053869e-01	-3.570350e-01	
3.388672e-01	-6.247294e-01	-3.282121e-01	
3.398438e-01	-6.436955e-01	-2.990802e-01	
3.408203e-01	-6.622739e-01	-2.696669e-01	
3.417969e-01	-6.804534e-01	-2.399998e-01	
3.427734e-01	-6.982230e-01	-2.101068e-01	
3.437500e-01	-7.155721e-01	-1.800161e-01	
3.447266e-01	-7.324901e-01	-1.497560e-01	
3.457031e-01	-7.489669e-01	-1.193549e-01	
3.466797e-01	-7.649926e-01	-8.884152e-02	
3.476562e-01	-7.805575e-01	-5.824452e-02	
3.486328e-01	-7.956522e-01	-2.759272e-02	
3.496094e-01	-8.102677e-01	3.085040e-03	
3.505859e-01	-8.243951e-01	3.375989e-02	
3.515625e-01	-8.380259e-01	6.440296e-02	
3.525391e-01	-8.511520e-01	9.498541e-02	
3.535156e-01	-8.637653e-01	1.254784e-01	
3.544922e-01	-8.758584e-01	1.558534e-01	
3.554688e-01	-8.874239e-01	1.860816e-01	
3.564453e-01	-8.984549e-01	2.161347e-01	
3.574219e-01	-9.089447e-01	2.459844e-01	
3.583984e-01	-9.188870e-01	2.756026e-01	
3.593750e-01	-9.282758e-01	3.049613e-01	
3.603516e-01	-9.371055e-01	3.340331e-01	
3.613281e-01	-9.453707e-01	3.627904e-01	
3.623047e-01	-9.530664e-01	3.912063e-01	
3.632812e-01	-9.601881e-01	4.192540e-01	
3.642578e-01	-9.667315e-01	4.469072e-01	
3.652344e-01	-9.726925e-01	4.741396e-01	
3.662109e-01	-9.780676e-01	5.009259e-01	
3.671875e-01	-9.828536e-01	5.272407e-01	
3.681641e-01	-9.870476e-01	5.530592e-01	
3.691406e-01	-9.906471e-01	5.783572e-01	
3.701172e-01	-9.936498e-01	6.031109e-01	
3.710938e-01	-9.960540e-01	6.272970e-01	
3.720703e-01	-9.978583e-01	6.508926e-01	
3.730469e-01	-9.990615e-01	6.738757e-01	
3.740234e-01	-9.996629e-01	6.962245e-01	
3.750000e-01	-9.996622e-01	7.179181e-01	
3.759766e-01	-9.990594e-01	7.389359e-01	
3.769531e-01	-9.978548e-01	7.592583e-01	
3.779297e-01	-9.960491e-01	7.788661e-01	
3.789062e-01	-9.936435e-01	7.977409e-01	
3.798828e-01	-9.906393e-01	8.158648e-01	
3.808594e-01	-9.870385e-01	8.332209e-01	
3.818359e-01	-9.828431e-01	8.497927e-01	
3.828125e-01	-9.780558e-01	8.655648e-01	
3.837891e-01	-9.726793e-01	8.805222e-01	
3.847656e-01	-9.667169e-01	8.946509e-01	
3.857422e-01	-9.601722e-01	9.079375e-01	
3.867188e-01	-9.530492e-01	9.203697e-01	
3.876953e-01	-9.453521e-01	9.319356e-01	
3.886719e-01	-9.370857e-01	9.426244e-01	
3.896484e-01	-9.282547e-01	9.524260e-01	
3.906250e-01	-9.188647e-01	9.613312e-01	
3.916016e-01	-9.089212e-01	9.693317e-01	
3.925781e-01	-8.984302e-01	9.764198e-01	
3.935547e-01	-8.873980e-01	9.825889e-01	
3.945312e-01	-8.758314e-01	9.878333e-01	
3.955078e-01	-8.637372e-01	9.921479e-01	
3.964844e-01	-8.511227e-01	9.955288e-01	
3.974609e-01	-8.379956e-01	9.979726e-01	
3.984375e-01	-8.243638e-01	9.994772e-01	
3.994141e-01	-8.102354e-01	1.000041e+00	
4.003906e-01	-7.956189e-01	9.996639e-01	
4.013672e-01	-7.805233e-01	9.983457e-01	
4.023438e-01	-7.649575e-01	9.960879e-01	
4.033203e-01	-7.489309e-01	9.928927e-01	
4.042969e-01	-7.324533e-01	9.887629e-01	
4.052734e-01	-7.155345e-01	9.837025e-01	
4.062500e-01	-6.981847e-01	9.777163e-01	
4.072266e-01	-6.804143e-01	9.708099e-01	
4.082031e-01	-6.622342e-01	9.629898e-01	
4.091797e-01	-6.436551e-01	9.542633e-01	
4.101562e-01	-6.246884e-01	9.446387e-01	
4.111328e-01	-6.053454e-01	9.341250e-01	
4.121094e-01	-5.856378e-01	9.227322e-01	
4.130859e-01	-5.655774e-01	9.104708e-01	
4.140625e-01	-5.451764e-01	8.973526e-01	
4.150391e-01	-5.244471e-01	8.833898e-01	
4.160156e-01	-5.034018e-01	8.685955e-01	
4.169922e-01	-4.820534e-01	8.529838e-01	
4.179688e-01	-4.604146e-01	8.365692e-01	
4.189453e-01	-4.384984e-01	8.193672e-01	
4.199219e-01	-4.163182e-01	8.013941e-01	
4.208984e-01	-3.938873e-01	7.826667e-01	
4.218750e-01	-3.712191e-01	7.632026e-01	
4.228516e-01	-3.483273e-01	7.430203e-01	
4.238281e-01	-3.252257e-01	7.221386e-01	
4.248047e-01	-3.019282e-01	7.005772e-01	
4.257812e-01	-2.784489e-01	6.783565e-01	
4.267578e-01	-2.548019e-01	6.554973e-01	
4.277344e-01	-2.310014e-01	6.320211e-01	
4.287109e-01	-2.070619e-01	6.079501e-01	
4.296875e-01	-1.829976e-01	5.833068e-01	
4.306641e-01	-1.588231e-01	5.581146e-01	
4.316406e-01	-1.345529e-01	5.323970e-01	
4.326172e-01	-1.102018e-01	5.061783e-01	
4.335938e-01	-8.578424e-02	4.794833e-01	
4.345703e-01	-6.131507e-02	4.523369e-01	
4.355469e-01	-3.680899e-02	4.247647e-01	
4.365234e-01	-1.228075e-02	3.967928e-01	
4.375000e-01	1.225485e-02	3.684474e-01	
4.384766e-01	3.678305e-02	3.397552e-01	
4.394531e-01	6.128908e-02	3.107432e-01	
4.404297e-01	8.575816e-02	2.814387e-01	
4.414062e-01	1.101756e-01	2.518692e-01	
4.423828e-01	1.345266e-01	2.220627e-01	
4.433594e-01	1.587965e-01	1.920472e-01	
4.443359e-01	1.829708e-01	1.618509e-01	
4.453125e-01	2.070349e-01	1.315022e-01	
4.462891e-01	2.309742e-01	1.010298e-01	
4.472656e-01	2.547743e-01	7.046217e-02	
4.482422e-01	2.784210e-01	3.982822e-02	
4.492188e-01	3.019000e-01	9.156758e-03	
4.501953e-01	3.251970e-01	-2.152336e-02	
4.511719e-01	3.482982e-01	-5.218326e-02	
4.521484e-01	3.711895e-01	-8.279409e-02	
4.531250e-01	3.938573e-01	-1.133270e-01	
4.541016e-01	4.162877e-01	-1.437533e-01	
4.550781e-01	4.384674e-01	-1.740444e-01	
4.560547e-01	4.603830e-01	-2.041717e-01	
4.570312e-01	4.820212e-01	-2.341069e-01	
4.580078e-01	5.033691e-01	-2.638218e-01	
4.589844e-01	5.244137e-01	-2.932884e-01	
4.599609e-01	5.451424e-01	-3.224790e-01	
4.609375e-01	5.655427e-01	-3.513662e-01	
4.619141e-01	5.856024e-01	-3.799227e-01	
4.628906e-01	6.053092e-01	-4.081217e-01	
4.638672e-01	6.246515e-01	-4.359366e-01	
4.648438e-01	6.436175e-01	-4.633413e-01	
4.658203e-01	6.621957e-01	-4.903100e-01	
4.667969e-01	6.803751e-01	-5.168172e-01	
4.677734e-01	6.981446e-01	-5.428380e-01	
4.687500e-01	7.154935e-01	-5.683480e-01	
4.697266e-01	7.324115e-01	-5.933232e-01	
4.707031e-01	7.488883e-01	-6.177400e-01	
4.716797e-01	7.649139e-01	-6.415754e-01	
4.726562e-01	7.804788e-01	-6.648070e-01	
4.736328e-01	7.955735e-01	-6.874130e-01	
4.746094e-01	8.101890e-01	-7.093721e-01	
4.755859e-01	8.243164e-01	-7.306636e-01	
4.765625e-01	8.379473e-01	-7.512675e-01	
4.775391e-01	8.510734e-01	-7.711643e-01	
4.785156e-01	8.636869e-01	-7.903354e-01	
4.794922e-01	8.757801e-01	-8.087627e-01	
4.804688e-01	8.873457e-01	-8.264289e-01	
4.814453e-01	8.983768e-01	-8.433173e-01	
4.824219e-01	9.088668e-01	-8.594121e-01	
4.833984e-01	9.188093e-01	-8.746981e-01	
4.843750e-01	9.281983e-01	-8.891609e-01	
4.853516e-01	9.370281e-01	-9.027869e-01	
4.863281e-01	9.452936e-01	-9.155633e-01	
4.873047e-01	9.529896e-01	-9.274780e-01	
4.882812e-01	9.601115e-01	-9.385199e-01	
4.892578e-01	9.666551e-01	-9.486785e-01	
4.902344e-01	9.726164e-01	-9.579443e-01	
4.912109e-01	9.779919e-01	-9.663086e-01	
4.921875e-01	9.827782e-01	-9.737635e-01	
4.931641e-01	9.869725e-01	-9.803020e-01	
4.941406e-01	9.905723e-01	-9.859179e-01	
4.951172e-01	9.935753e-01	-9.906059e-01	
4.960938e-01	9.959799e-01	-9.943617e-01	
4.970703e-01	9.977845e-01	-9.971816e-01	
4.980469e-01	9.989881e-01	-9.990631e-01	
4.990234e-01	9.995899e-01	-1.000004e+00	
5.000000e-01	9.995896e-01	-1.000005e+00	
5.009766e-01	9.989871e-01	-9.990636e-01	
5.019531e-01	9.977829e-01	-9.971824e-01	
5.029297e-01	9.959776e-01	-9.943628e-01	
5.039062e-01	9.935724e-01	-9.906073e-01	
5.048828e-01	9.905687e-01	-9.859196e-01	
5.058594e-01	9.869683e-01	-9.803040e-01	
5.068359e-01	9.827733e-01	-9.737659e-01	
5.078125e-01	9.779864e-01	-9.663113e-01	
5.087891e-01	9.726103e-01	-9.579474e-01	
5.097656e-01	9.666484e-01	-9.486819e-01	
5.107422e-01	9.601041e-01	-9.385235e-01	
5.117188e-01	9.529816e-01	-9.274820e-01	
5.126953e-01	9.452849e-01	-9.155676e-01	
5.136719e-01	9.370189e-01	-9.027915e-01	
5.146484e-01	9.281884e-01	-8.891658e-01	
5.156250e-01	9.187988e-01	-8.747033e-01	
5.166016e-01	9.088557e-01	-8.594176e-01	
5.175781e-01	8.983651e-01	-8.433232e-01	
5.185547e-01	8.873334e-01	-8.264351e-01	
5.195312e-01	8.757672e-01	-8.087692e-01	
5.205078e-01	8.636734e-01	-7.903422e-01	
5.214844e-01	8.510593e-01	-7.711714e-01	
5.224609e-01	8.379326e-01	-7.512748e-01	
5.234375e-01	8.243012e-01	-7.306713e-01	
5.244141e-01	8.101732e-01	-7.093801e-01	
5.253906e-01	7.955571e-01	-6.874213e-01	
5.263672e-01	7.804618e-01	-6.648156e-01	
5.273438e-01	7.648964e-01	-6.415843e-01	
5.283203e-01	7.488702e-01	-6.177492e-01	
5.292969e-01	7.323929e-01	-5.933327e-01	
5.302734e-01	7.154744e-01	-5.683578e-01	
5.312500e-01	6.981250e-01	-5.428481e-01	
5.322266e-01	6.803549e-01	-5.168276e-01	
5.332031e-01	6.621751e-01	-4.903206e-01	
5.341797e-01	6.435963e-01	-4.633523e-01	
5.351562e-01	6.246299e-01	-4.359479e-01	
5.361328e-01	6.052871e-01	-4.081332e-01	
5.371094e-01	5.855798e-01	-3.799345e-01	
5.380859e-01	5.655197e-01	-3.513783e-01	
5.390625e-01	5.451189e-01	-3.224914e-01	
5.400391e-01	5.243897e-01	-2.933010e-01	
5.410156e-01	5.033446e-01	-2.638347e-01	
5.419922e-01	4.819964e-01	-2.341201e-01	
5.429688e-01	4.603577e-01	-2.041852e-01	
5.439453e-01	4.384418e-01	-1.740581e-01	
5.449219e-01	4.162617e-01	-1.437674e-01	
5.458984e-01	3.938308e-01	-1.133413e-01	
5.468750e-01	3.711627e-01	-8.280862e-02	
5.478516e-01	3.482710e-01	-5.219806e-02	
5.488281e-01	3.251694e-01	-2.153842e-02	
5.498047e-01	3.018720e-01	9.141442e-03	
5.507812e-01	2.783927e-01	3.981265e-02	
5.517578e-01	2.547457e-01	7.044634e-02	
5.527344e-01	2.309452e-01	1.010137e-01	
5.537109e-01	2.070056e-01	1.314859e-01	
5.546875e-01	1.829412e-01	1.618343e-01	
5.556641e-01	1.587667e-01	1.920304e-01	
5.566406e-01	1.344964e-01	2.220457e-01	
5.576172e-01	1.101451e-01	2.518519e-01	
5.585938e-01	8.572747e-02	2.814211e-01	
5.595703e-01	6.125813e-02	3.107254e-01	
5.605469e-01	3.675187e-02	3.397372e-01	
5.615234e-01	1.222343e-02	3.684292e-01	
5.625000e-01	-1.231240e-02	3.967743e-01	
5.634766e-01	-3.684084e-02	4.247460e-01	
5.644531e-01	-6.134713e-02	4.523180e-01	
5.654297e-01	-8.581649e-02	4.794641e-01	
5.664062e-01	-1.102342e-01	5.061590e-01	
5.673828e-01	-1.345855e-01	5.323774e-01	
5.683594e-01	-1.588558e-01	5.580948e-01	
5.693359e-01	-1.830305e-01	5.832868e-01	
5.703125e-01	-2.070949e-01	6.079298e-01	
5.712891e-01	-2.310346e-01	6.320006e-01	
5.722656e-01	-2.548352e-01	6.554766e-01	
5.732422e-01	-2.784823e-01	6.783356e-01	
5.742188e-01	-3.019617e-01	7.005562e-01	
5.751953e-01	-3.252593e-01	7.221173e-01	
5.761719e-01	-3.483610e-01	7.429988e-01	
5.771484e-01	-3.712528e-01	7.631810e-01	
5.781250e-01	-3.939211e-01	7.826448e-01	
5.791016e-01	-4.163521e-01	8.013720e-01	
5.800781e-01	-4.385324e-01	8.193450e-01	
5.810547e-01	-4.604485e-01	8.365467e-01	
5.820312e-01	-4.820874e-01	8.529611e-01	
5.830078e-01	-5.034358e-01	8.685727e-01	
5.839844e-01	-5.244811e-01	8.833668e-01	
5.849609e-01	-5.452105e-01	8.973294e-01	
5.859375e-01	-5.656115e-01	9.104475e-01	
5.869141e-01	-5.856718e-01	9.227087e-01	
5.878906e-01	-6.053794e-01	9.341013e-01	
5.888672e-01	-6.247223e-01	9.446149e-01	
5.898438e-01	-6.436890e-01	9.542393e-01	
5.908203e-01	-6.622680e-01	9.629656e-01	
5.917969e-01	-6.804482e-01	9.707855e-01	
5.927734e-01	-6.982184e-01	9.776918e-01	
5.937500e-01	-7.155682e-01	9.836778e-01	
5.947266e-01	-7.324869e-01	9.887380e-01	
5.957031e-01	-7.489645e-01	9.928676e-01	
5.966797e-01	-7.649909e-01	9.960627e-01	
5.976562e-01	-7.805566e-01	9.983204e-01	
5.986328e-01	-7.956522e-01	9.996384e-01	
5.996094e-01	-8.102685e-01	1.000015e+00	
6.005859e-01	-8.243968e-01	9.994514e-01	
6.015625e-01	-8.380285e-01	9.979467e-01	
6.025391e-01	-8.511555e-01	9.955026e-01	
6.035156e-01	-8.637699e-01	9.921216e-01	
6.044922e-01	-8.758639e-01	9.878069e-01	
6.054688e-01	-8.874304e-01	9.825624e-01	
6.064453e-01	-8.984624e-01	9.763931e-01	
6.074219e-01	-9.089533e-01	9.693048e-01	
6.083984e-01	-9.188967e-01	9.613042e-01	
6.093750e-01	-9.282865e-01	9.523988e-01	
6.103516e-01	-9.371173e-01	9.425971e-01	
6.113281e-01	-9.453837e-01	9.319082e-01	
6.123047e-01	-9.530806e-01	9.203421e-01	
6.132812e-01	-9.602034e-01	9.079098e-01	
6.142578e-01	-9.667479e-01	8.946230e-01	
6.152344e-01	-9.727101e-01	8.804942e-01	
6.162109e-01	-9.780864e-01	8.655367e-01	
6.171875e-01	-9.828736e-01	8.497645e-01	
6.181641e-01	-9.870688e-01	8.331925e-01	
6.191406e-01	-9.906695e-01	8.158363e-01	
6.201172e-01	-9.936735e-01	7.977122e-01	
6.210938e-01	-9.960789e-01	7.788373e-01	
6.220703e-01	-9.978844e-01	7.592294e-01	
6.230469e-01	-9.990888e-01	7.389068e-01	
6.240234e-01	-9.996915e-01	7.178888e-01	
6.250000e-01	-9.996920e-01	6.961952e-01	
6.259766e-01	-9.990904e-01	6.738462e-01	
6.269531e-01	-9.978871e-01	6.508630e-01	
6.279297e-01	-9.960826e-01	6.272672e-01	
6.289062e-01	-9.936782e-01	6.030810e-01	
6.298828e-01	-9.906753e-01	5.783272e-01	
6.308594e-01	-9.870757e-01	5.530290e-01	
6.318359e-01	-9.828815e-01	5.272104e-01	
6.328125e-01	-9.780954e-01	5.008955e-01	
6.337891e-01	-9.727201e-01	4.741091e-01	
6.347656e-01	-9.667589e-01	4.468765e-01	
6.357422e-01	-9.602154e-01	4.192232e-01	
6.367188e-01	-9.530935e-01	3.911754e-01	
6.376953e-01	-9.453976e-01	3.627593e-01	
6.386719e-01	-9.371323e-01	3.340018e-01	
6.396484e-01	-9.283025e-01	3.049300e-01	
6.406250e-01	-9.189135e-01	2.755711e-01	
6.416016e-01	-9.089711e-01	2.459528e-01	
6.425781e-01	-8.984812e-01	2.161030e-01	
6.435547e-01	-8.874501e-01	1.860497e-01	
6.445312e-01	-8.758844e-01	1.558213e-01	
6.455078e-01	-8.637912e-01	1.254462e-01	
6.464844e-01	-8.511778e-01	9.495306e-02	
6.474609e-01	-8.380516e-01	6.437047e-02	
6.484375e-01	-8.244207e-01	3.372726e-02	
6.494141e-01	-8.102932e-01	3.052266e-03	
6.503906e-01	-7.956776e-01	-2.762564e-02	
6.513672e-01	-7.805828e-01	-5.827759e-02	
6.523438e-01	-7.650179e-01	-8.887472e-02	
6.533203e-01	-7.489921e-01	-1.193883e-01	
6.542969e-01	-7.325152e-01	-1.497895e-01	
6.552734e-01	-7.155972e-01	-1.800497e-01	
6.562500e-01	-6.982481e-01	-2.101406e-01	
6.572266e-01	-6.804784e-01	-2.400337e-01	
6.582031e-01	-6.622989e-01	-2.697010e-01	
6.591797e-01	-6.437204e-01	-2.991145e-01	
6.601562e-01	-6.247543e-01	-3.282465e-01	
6.611328e-01	-6.054118e-01	-3.570696e-01	
6.621094e-01	-5.857047e-01	-3.855567e-01	
6.630859e-01	-5.656449e-01	-4.136809e-01	
6.640625e-01	-5.452443e-01	-4.414159e-01	
6.650391e-01	-5.245154e-01	-4.687355e-01	
6.660156e-01	-5.034705e-01	-4.956139e-01	
6.669922e-01	-4.821224e-01	-5.220260e-01	
6.679688e-01	-4.604838e-01	-5.479468e-01	
6.689453e-01	-4.385680e-01	-5.733519e-01	
6.699219e-01	-4.163880e-01	-5.982174e-01	
6.708984e-01	-3.939572e-01	-6.225200e-01	
6.718750e-01	-3.712892e-01	-6.462368e-01	
6.728516e-01	-3.483975e-01	-6.693453e-01	
6.738281e-01	-3.252960e-01	-6.918240e-01	
6.748047e-01	-3.019986e-01	-7.136516e-01	
6.757812e-01	-2.785192e-01	-7.348075e-01	
6.767578e-01	-2.548722e-01	-7.552720e-01	
6.777344e-01	-2.310717e-01	-7.750257e-01	
6.787109e-01	-2.071320e-01	-7.940500e-01	
6.796875e-01	-1.830675e-01	-8.123270e-01	
6.806641e-01	-1.588928e-01	-8.298395e-01	
6.816406e-01	-1.346225e-01	-8.465711e-01	
6.826172e-01	-1.102710e-01	-8.625060e-01	
6.835938e-01	-8.585322e-02	-8.776291e-01	
6.845703e-01	-6.138371e-02	-8.919263e-01	
6.855469e-01	-3.687725e-02	-9.053842e-01	
6.865234e-01	-1.234861e-02	-9.179899e-01	
6.875000e-01	1.218744e-02	-9.297318e-01	
6.884766e-01	3.671612e-02	-9.405987e-01	
6.894531e-01	6.122265e-02	-9.505803e-01	
6.904297e-01	8.569228e-02	-9.596674e-01	
6.914062e-01	1.101103e-01	-9.678514e-01	
6.923828e-01	1.344619e-01	-9.751244e-01	
6.933594e-01	1.587325e-01	-9.814798e-01	
6.943359e-01	1.829074e-01	-9.869116e-01	
6.953125e-01	2.069722e-01	-9.914145e-01	
6.962891e-01	2.309123e-01	-9.949844e-01	
6.972656e-01	2.547132e-01	-9.976179e-01	
6.982422e-01	2.783607e-01	-9.993126e-01	
6.992188e-01	3.018404e-01	-1.000067e+00	
7.001953e-01	3.251384e-01	-9.998799e-01	
7.011719e-01	3.482404e-01	-9.987519e-01	
7.021484e-01	3.711327e-01	-9.966841e-01	
7.031250e-01	3.938013e-01	-9.936783e-01	
7.041016e-01	4.162327e-01	-9.897373e-01	
7.050781e-01	4.384134e-01	-9.848648e-01	
7.060547e-01	4.603300e-01	-9.790656e-01	
7.070312e-01	4.819692e-01	-9.723449e-01	
7.080078e-01	5.033181e-01	-9.647091e-01	
7.089844e-01	5.243638e-01	-9.561655e-01	
7.099609e-01	5.450936e-01	-9.467221e-01	
7.109375e-01	5.654950e-01	-9.363876e-01	
7.119141e-01	5.855558e-01	-9.251720e-01	
7.128906e-01	6.052638e-01	-9.130857e-01	
7.138672e-01	6.246072e-01	-9.001401e-01	
7.148438e-01	6.435743e-01	-8.863474e-01	
7.158203e-01	6.621537e-01	-8.717205e-01	
7.167969e-01	6.803343e-01	-8.562733e-01	
7.177734e-01	6.981050e-01	-8.400203e-01	
7.187500e-01	7.154551e-01	-8.229767e-01	
7.197266e-01	7.323743e-01	-8.051587e-01	
7.207031e-01	7.488523e-01	-7.865830e-01	
7.216797e-01	7.648791e-01	-7.672670e-01	
7.226562e-01	7.804452e-01	-7.472290e-01	
7.236328e-01	7.955412e-01	-7.264877e-01	
7.246094e-01	8.101579e-01	-7.050628e-01	
7.255859e-01	8.242866e-01	-6.829745e-01	
7.265625e-01	8.379187e-01	-6.602433e-01	
7.275391e-01	8.510461e-01	-6.368909e-01	
7.285156e-01	8.636608e-01	-6.129391e-01	
7.294922e-01	8.757552e-01	-5.884106e-01	
7.304688e-01	8.873220e-01	-5.633283e-01	
7.314453e-01	8.983544e-01	-5.377159e-01	
7.324219e-01	9.088455e-01	-5.115975e-01	
7.333984e-01	9.187892e-01	-4.849977e-01	
7.343750e-01	9.281794e-01	-4.579415e-01	
7.353516e-01	9.370105e-01	-4.304543e-01	
7.363281e-01	9.452771e-01	-4.025622e-01	
7.373047e-01	9.529742e-01	-3.742912e-01	
7.382812e-01	9.600973e-01	-3.456680e-01	
7.392578e-01	9.666421e-01	-3.167196e-01	
7.402344e-01	9.726045e-01	-2.874732e-01	
7.412109e-01	9.779810e-01	-2.579563e-01	
7.421875e-01	9.827684e-01	-2.281967e-01	
7.431641e-01	9.869638e-01	-1.982224e-01	
7.441406e-01	9.905646e-01	-1.680616e-01	
7.451172e-01	9.935687e-01	-1.377428e-01	
7.460938e-01	9.959743e-01	-1.072944e-01	
7.470703e-01	9.977798e-01	-7.674504e-02	
7.480469e-01	9.989844e-01	-4.612357e-02	
7.490234e-01	9.995871e-01	-1.545877e-02	
7.500000e-01	9.995877e-01	1.522049e-02	
7.509766e-01	9.989861e-01	4.588535e-02	
7.519531e-01	9.977828e-01	7.650695e-02	
7.529297e-01	9.959783e-01	1.070565e-01	
7.539062e-01	9.935739e-01	1.375051e-01	
7.548828e-01	9.905710e-01	1.678243e-01	
7.558594e-01	9.869713e-01	1.979854e-01	
7.568359e-01	9.827770e-01	2.279602e-01	
7.578125e-01	9.779908e-01	2.577202e-01	
7.587891e-01	9.726154e-01	2.872377e-01	
7.597656e-01	9.666540e-01	3.164847e-01	
7.607422e-01	9.601104e-01	3.454338e-01	
7.617188e-01	9.529884e-01	3.740577e-01	
7.626953e-01	9.452922e-01	4.023295e-01	
7.636719e-01	9.370267e-01	4.302225e-01	
7.646484e-01	9.281966e-01	4.577105e-01	
7.656250e-01	9.188074e-01	4.847677e-01	
7.666016e-01	9.088647e-01	5.113685e-01	
7.675781e-01	8.983745e-01	5.374880e-01	
7.685547e-01	8.873431e-01	5.631015e-01	
7.695312e-01	8.757771e-01	5.881850e-01	
7.705078e-01	8.636836e-01	6.127148e-01	
7.714844e-01	8.510697e-01	6.366679e-01	
7.724609e-01	8.379432e-01	6.600217e-01	
7.734375e-01	8.243119e-01	6.827542e-01	
7.744141e-01	8.101839e-01	7.048441e-01	
7.753906e-01	7.955679e-01	7.262705e-01	
7.763672e-01	7.804727e-01	7.470132e-01	
7.773438e-01	7.649072e-01	7.670529e-01	
7.783203e-01	7.488810e-01	7.863705e-01	
7.792969e-01	7.324036e-01	8.049479e-01	
7.802734e-01	7.154850e-01	8.227677e-01	
7.812500e-01	6.981353e-01	8.398131e-01	
7.822266e-01	6.803651e-01	8.560679e-01	
7.832031e-01	6.621850e-01	8.715170e-01	
7.841797e-01	6.436060e-01	8.861458e-01	
7.851562e-01	6.246392e-01	8.999404e-01	
7.861328e-01	6.052961e-01	9.128880e-01	
7.871094e-01	5.855884e-01	9.249764e-01	
7.880859e-01	5.655279e-01	9.361941e-01	
7.890625e-01	5.451266e-01	9.465306e-01	
7.900391e-01	5.243970e-01	9.559762e-01	
7.910156e-01	5.033514e-01	9.645220e-01	
7.919922e-01	4.820026e-01	9.721599e-01	
7.929688e-01	4.603634e-01	9.788828e-01	
7.939453e-01	4.384468e-01	9.846844e-01	
7.949219e-01	4.162661e-01	9.895591e-01	
7.958984e-01	3.938345e-01	9.935024e-01	
7.968750e-01	3.711657e-01	9.965106e-01	
7.978516e-01	3.482733e-01	9.985808e-01	
7.988281e-01	3.251710e-01	9.997111e-01	
7.998047e-01	3.018728e-01	9.999005e-01	
8.007812e-01	2.783927e-01	9.991487e-01	
8.017578e-01	2.547448e-01	9.974565e-01	
8.027344e-01	2.309435e-01	9.948254e-01	
8.037109e-01	2.070030e-01	9.912579e-01	
8.046875e-01	1.829377e-01	9.867575e-01	
8.056641e-01	1.587622e-01	9.813283e-01	
8.066406e-01	1.344910e-01	9.749754e-01	
8.076172e-01	1.101388e-01	9.677048e-01	
8.085938e-01	8.572015e-02	9.595234e-01	
8.095703e-01	6.124981e-02	9.504389e-01	
8.105469e-01	3.674252e-02	9.404597e-01	
8.115234e-01	1.221305e-02	9.295954e-01	
8.125000e-01	-1.232383e-02	9.178561e-01	
8.134766e-01	-3.685333e-02	9.052528e-01	
8.144531e-01	-6.136070e-02	8.917976e-01	
8.154297e-01	-8.583115e-02	8.775029e-01	
8.164062e-01	-1.102500e-01	8.623822e-01	
8.173828e-01	-1.346024e-01	8.464499e-01	
8.183594e-01	-1.588738e-01	8.297208e-01	
8.193359e-01	-1.830496e-01	8.122108e-01	
8.203125e-01	-2.071152e-01	7.939363e-01	
8.212891e-01	-2.310560e-01	7.749145e-01	
8.222656e-01	-2.548577e-01	7.551633e-01	
8.232422e-01	-2.785060e-01	7.347013e-01	
8.242188e-01	-3.019866e-01	7.135478e-01	
8.251953e-01	-3.252853e-01	6.917226e-01	
8.261719e-01	-3.483881e-01	6.692464e-01	
8.271484e-01	-3.712811e-01	6.461402e-01	
8.281250e-01	-3.939505e-01	6.224258e-01	
8.291016e-01	-4.163826e-01	5.981256e-01	
8.300781e-01	-4.385640e-01	5.732623e-01	
8.310547e-01	-4.604813e-01	5.478595e-01	
8.320312e-01	-4.821213e-01	5.219409e-01	
8.330078e-01	-5.034708e-01	4.955311e-01	
8.339844e-01	-5.245172e-01	4.686549e-01	
8.349609e-01	-5.452477e-01	4.413375e-01	
8.359375e-01	-5.656497e-01	4.136046e-01	
8.369141e-01	-5.857111e-01	3.854825e-01	
8.378906e-01	-6.054198e-01	3.569975e-01	
8.388672e-01	-6.247638e-01	3.281764e-01	
8.398438e-01	-6.437315e-01	2.990464e-01	
8.408203e-01	-6.623115e-01	2.696349e-01	
8.417969e-01	-6.804926e-01	2.399695e-01	
8.427734e-01	-6.982638e-01	2.100783e-01	
8.437500e-01	-7.156145e-01	1.799892e-01	
8.447266e-01	-7.325342e-01	1.497307e-01	
8.457031e-01	-7.490126e-01	1.193313e-01	
8.466797e-01	-7.650400e-01	8.881944e-02	
8.476562e-01	-7.806065e-01	5.822396e-02	
8.486328e-01	-7.957029e-01	2.757362e-02	
8.496094e-01	-8.103200e-01	-3.102728e-03	
8.505859e-01	-8.244491e-01	-3.377621e-02	
8.515625e-01	-8.380816e-01	-6.441796e-02	
8.525391e-01	-8.512093e-01	-9.499914e-02	
8.535156e-01	-8.638243e-01	-1.254910e-01	
8.544922e-01	-8.759190e-01	-1.558647e-01	
8.554688e-01	-8.874862e-01	-1.860919e-01	
8.564453e-01	-8.985188e-01	-2.161439e-01	
8.574219e-01	-9.090102e-01	-2.459926e-01	
8.583984e-01	-9.189541e-01	-2.756098e-01	
8.593750e-01	-9.283445e-01	-3.049677e-01	
8.603516e-01	-9.371758e-01	-3.340386e-01	
8.613281e-01	-9.454425e-01	-3.627951e-01	
8.623047e-01	-9.531399e-01	-3.912103e-01	
8.632812e-01	-9.602631e-01	-4.192573e-01	
8.642578e-01	-9.668079e-01	-4.469098e-01	
8.652344e-01	-9.727704e-01	-4.741418e-01	
8.662109e-01	-9.781470e-01	-5.009275e-01	
8.671875e-01	-9.829344e-01	-5.272419e-01	
8.681641e-01	-9.871298e-01	-5.530600e-01	
8.691406e-01	-9.907306e-01	-5.783577e-01	
8.701172e-01	-9.937347e-01	-6.031112e-01	
8.710938e-01	-9.961402e-01	-6.272970e-01	
8.720703e-01	-9.979458e-01	-6.508925e-01	
8.730469e-01	-9.991502e-01	-6.738755e-01	
8.740234e-01	-9.997528e-01	-6.962243e-01	
8.750000e-01	-9.997533e-01	-7.179179e-01	
8.759766e-01	-9.991516e-01	-7.389359e-01	
8.769531e-01	-9.979480e-01	-7.592584e-01	
8.779297e-01	-9.961434e-01	-7.788665e-01	
8.789062e-01	-9.937388e-01	-7.977415e-01	
8.798828e-01	-9.907356e-01	-8.158658e-01	
8.808594e-01	-9.871357e-01	-8.332223e-01	
8.818359e-01	-9.829412e-01	-8.497946e-01	
8.828125e-01	-9.781547e-01	-8.655672e-01	
8.837891e-01	-9.727790e-01	-8.805252e-01	
8.847656e-01	-9.668173e-01	-8.946545e-01	
8.857422e-01	-9.602734e-01	-9.079419e-01	
8.867188e-01	-9.531510e-01	-9.203748e-01	
8.876953e-01	-9.454545e-01	-9.319415e-01	
8.886719e-01	-9.371886e-01	-9.426312e-01	
8.896484e-01	-9.283581e-01	-9.524337e-01	
8.906250e-01	-9.189685e-01	-9.613400e-01	
8.916016e-01	-9.090254e-01	-9.693414e-01	
8.925781e-01	-8.985347e-01	-9.764307e-01	
8.935547e-01	-8.875029e-01	-9.826010e-01	
8.945312e-01	-8.759365e-01	-9.878466e-01	
8.955078e-01	-8.638425e-01	-9.921625e-01	
8.964844e-01	-8.512281e-01	-9.955446e-01	
8.974609e-01	-8.381011e-01	-9.979899e-01	
8.984375e-01	-8.244693e-01	-9.994959e-01	
8.994141e-01	-8.103408e-01	-1.000061e+00	
9.003906e-01	-7.957243e-01	-9.996856e-01	
9.013672e-01	-7.806285e-01	-9.983690e-01	
9.023438e-01	-7.650625e-01	-9.961128e-01	
9.033203e-01	-7.490357e-01	-9.929192e-01	
9.042969e-01	-7.325578e-01	-9.887912e-01	
9.052734e-01	-7.156386e-01	-9.837326e-01	
9.062500e-01	-6.982884e-01	-9.777482e-01	
9.072266e-01	-6.805176e-01	-9.708437e-01	
9.082031e-01	-6.623369e-01	-9.630254e-01	
9.091797e-01	-6.437573e-01	-9.543009e-01	
9.101562e-01	-6.247900e-01	-9.446783e-01	
9.111328e-01	-6.054463e-01	-9.341666e-01	
9.121094e-01	-5.857380e-01	-9.227758e-01	
9.130859e-01	-5.656769e-01	-9.105166e-01	
9.140625e-01	-5.452750e-01	-8.974005e-01	
9.150391e-01	-5.245448e-01	-8.834398e-01	
9.160156e-01	-5.034986e-01	-8.686478e-01	
9.169922e-01	-4.821492e-01	-8.530382e-01	
9.179688e-01	-4.605094e-01	-8.366259e-01	
9.189453e-01	-4.385922e-01	-8.194262e-01	
9.199219e-01	-4.164109e-01	-8.014554e-01	
9.208984e-01	-3.939788e-01	-7.827304e-01	
9.218750e-01	-3.713094e-01	-7.632687e-01	
9.228516e-01	-3.484164e-01	-7.430887e-01	
9.238281e-01	-3.253135e-01	-7.222095e-01	
9.248047e-01	-3.020148e-01	-7.006505e-01	
9.257812e-01	-2.785341e-01	-6.784323e-01	
9.267578e-01	-2.548857e-01	-6.555755e-01	
9.277344e-01	-2.310838e-01	-6.321018e-01	
9.287109e-01	-2.071428e-01	-6.080333e-01	
9.296875e-01	-1.830770e-01	-5.833926e-01	
9.306641e-01	-1.589010e-01	-5.582029e-01	
9.316406e-01	-1.346293e-01	-5.324879e-01	
9.326172e-01	-1.102765e-01	-5.062718e-01	
9.335938e-01	-8.585737e-02	-4.795793e-01	
9.345703e-01	-6.138655e-02	-4.524355e-01	
9.355469e-01	-3.687880e-02	-4.248659e-01	
9.365234e-01	-1.234887e-02	-3.968965e-01	
9.375000e-01	1.218846e-02	-3.685537e-01	
9.384766e-01	3.671840e-02	-3.398641e-01	
9.394531e-01	6.122618e-02	-3.108547e-01	
9.404297e-01	8.569705e-02	-2.815527e-01	
9.414062e-01	1.101162e-01	-2.519859e-01	
9.423828e-01	1.344691e-01	-2.221820e-01	
9.433594e-01	1.587409e-01	-1.921690e-01	
9.443359e-01	1.829170e-01	-1.619753e-01	
9.453125e-01	2.069829e-01	-1.316291e-01	
9.462891e-01	2.309241e-01	-1.011592e-01	
9.472656e-01	2.547261e-01	-7.059413e-02	
9.482422e-01	2.783746e-01	-3.996270e-02	
9.492188e-01	3.018555e-01	-9.293726e-03	
9.501953e-01	3.251544e-01	2.138392e-02	
9.511719e-01	3.482575e-01	5.204136e-02	
9.521484e-01	3.711507e-01	8.264974e-02	
9.531250e-01	3.938203e-01	1.131803e-01	
9.541016e-01	4.162527e-01	1.436042e-01	
9.550781e-01	4.384342e-01	1.738929e-01	
9.560547e-01	4.603517e-01	2.040178e-01	
9.570312e-01	4.819917e-01	2.339507e-01	
9.580078e-01	5.033414e-01	2.636633e-01	
9.589844e-01	5.243879e-01	2.931276e-01	
9.599609e-01	5.451184e-01	3.223160e-01	
9.609375e-01	5.655206e-01	3.512010e-01	
9.619141e-01	5.855820e-01	3.797554e-01	
9.628906e-01	6.052907e-01	4.079522e-01	
9.638672e-01	6.246347e-01	4.357651e-01	
9.648438e-01	6.436024e-01	4.631677e-01	
9.658203e-01	6.621824e-01	4.901343e-01	
9.667969e-01	6.803634e-01	5.166395e-01	
9.677734e-01	6.981346e-01	5.426585e-01	
9.687500e-01	7.154852e-01	5.681666e-01	
9.697266e-01	7.324048e-01	5.931398e-01	
9.707031e-01	7.488831e-01	6.175548e-01	
9.716797e-01	7.649103e-01	6.413885e-01	
9.726562e-01	7.804768e-01	6.646184e-01	
9.736328e-01	7.955730e-01	6.872227e-01	
9.746094e-01	8.101899e-01	7.091802e-01	
9.755859e-01	8.243188e-01	7.304701e-01	
9.765625e-01	8.379511e-01	7.510724e-01	
9.775391e-01	8.510786e-01	7.709678e-01	
9.785156e-01	8.636934e-01	7.901374e-01	
9.794922e-01	8.757878e-01	8.085634e-01	
9.804688e-01	8.873547e-01	8.262282e-01	
9.814453e-01	8.983870e-01	8.431154e-01	
9.824219e-01	9.088781e-01	8.592089e-01	
9.833984e-01	9.188217e-01	8.744938e-01	
9.843750e-01	9.282118e-01	8.889555e-01	
9.853516e-01	9.370427e-01	9.025804e-01	
9.863281e-01	9.453092e-01	9.153558e-01	
9.873047e-01	9.530061e-01	9.272696e-01	
9.882812e-01	9.601290e-01	9.383106e-01	
9.892578e-01	9.666734e-01	9.484684e-01	
9.902344e-01	9.726355e-01	9.577335e-01	
9.912109e-01	9.780117e-01	9.660970e-01	
9.921875e-01	9.827987e-01	9.735513e-01	
9.931641e-01	9.869937e-01	9.800892e-01	
9.941406e-01	9.905941e-01	9.857045e-01	
9.951172e-01	9.935977e-01	9.903921e-01	
9.960938e-01	9.960028e-01	9.941475e-01	
9.970703e-01	9.978079e-01	9.969671e-01	
9.980469e-01	9.990119e-01	9.988483e-01	
9.990234e-01	9.996141e-01	9.997894e-01	
