Position [m]	T (fluid)  	T (solid)
0.000000e+00	9.792698e-01	9.392157e-01	
1.562500e-02	9.792698e-01	9.392157e-01	
1.562500e-02	9.223084e-01	8.524136e-01	
3.125000e-02	9.223084e-01	8.524136e-01	
3.125000e-02	8.300264e-01	6.868588e-01	
4.687500e-02	8.300264e-01	6.868588e-01	
4.687500e-02	7.059448e-01	4.572243e-01	
6.250000e-02	7.059448e-01	4.572243e-01	
6.250000e-02	5.548115e-01	1.835952e-01	
7.812500e-02	5.548115e-01	1.835952e-01	
7.812500e-02	3.824181e-01	-1.102183e-01	
9.375000e-02	3.824181e-01	-1.102183e-01	
9.375000e-02	1.953770e-01	-3.986955e-01	
1.093750e-01	1.953770e-01	-3.986955e-01	
1.093750e-01	8.665675e-04	-6.567753e-01	
1.250000e-01	8.665675e-04	-6.567753e-01	
1.250000e-01	-1.936454e-01	-8.619928e-01	
1.406250e-01	-1.936454e-01	-8.619928e-01	
1.406250e-01	-3.806888e-01	-9.963992e-01	
1.562500e-01	-3.806888e-01	-9.963992e-01	
1.562500e-01	-5.530792e-01	-1.048098e+00	
1.718750e-01	-5.530792e-01	-1.048098e+00	
1.718750e-01	-7.041939e-01	-1.012267e+00	
1.875000e-01	-7.041939e-01	-1.012267e+00	
1.875000e-01	-8.282271e-01	-8.915741e-01	
2.031250e-01	-8.282271e-01	-8.915741e-01	
2.031250e-01	-9.204135e-01	-6.959512e-01	
2.187500e-01	-9.204135e-01	-6.959512e-01	
2.187500e-01	-9.772113e-01	-4.417514e-01	
2.343750e-01	-9.772113e-01	-4.417514e-01	
2.343750e-01	-9.964389e-01	-1.503503e-01	
2.500000e-01	-9.964389e-01	-1.503503e-01	
2.500000e-01	-9.773588e-01	1.536800e-01	
2.656250e-01	-9.773588e-01	1.536800e-01	
2.656250e-01	-9.207060e-01	4.446720e-01	
2.812500e-01	-9.207060e-01	4.446720e-01	
2.812500e-01	-8.286599e-01	6.980566e-01	
2.968750e-01	-8.286599e-01	6.980566e-01	
2.968750e-01	-7.047601e-01	8.924639e-01	
3.125000e-01	-7.047601e-01	8.924639e-01	
3.125000e-01	-5.537708e-01	1.011548e+00	
3.281250e-01	-5.537708e-01	1.011548e+00	
3.281250e-01	-3.814974e-01	1.045383e+00	
3.437500e-01	-3.814974e-01	1.045383e+00	
3.437500e-01	-1.945630e-01	9.913041e-01	
3.593750e-01	-1.945630e-01	9.913041e-01	
3.593750e-01	-1.539934e-04	8.541320e-01	
3.750000e-01	-1.539934e-04	8.541320e-01	
3.750000e-01	1.942566e-01	6.457503e-01	
3.906250e-01	1.942566e-01	6.457503e-01	
3.906250e-01	3.811961e-01	3.840817e-01	
4.062500e-01	3.811961e-01	3.840817e-01	
4.062500e-01	5.534795e-01	9.154529e-02	
4.218750e-01	5.534795e-01	9.154529e-02	
4.218750e-01	7.044861e-01	-2.068687e-01	
4.375000e-01	7.044861e-01	-2.068687e-01	
4.375000e-01	8.284133e-01	-4.857427e-01	
4.531250e-01	8.284133e-01	-4.857427e-01	
4.531250e-01	9.204997e-01	-7.214096e-01	
4.687500e-01	9.204997e-01	-7.214096e-01	
4.687500e-01	9.772084e-01	-8.939770e-01	
4.843750e-01	9.772084e-01	-8.939770e-01	
4.843750e-01	9.963621e-01	-9.890245e-01	
5.000000e-01	9.963621e-01	-9.890245e-01	
5.000000e-01	9.772271e-01	-9.988283e-01	
5.156250e-01	9.772271e-01	-9.988283e-01	
5.156250e-01	9.205412e-01	-9.230086e-01	
5.312500e-01	9.205412e-01	-9.230086e-01	
5.312500e-01	8.284847e-01	-7.685435e-01	
5.468750e-01	8.284847e-01	-7.685435e-01	
5.468750e-01	7.045971e-01	-5.491510e-01	
5.625000e-01	7.045971e-01	-5.491510e-01	
5.625000e-01	5.536407e-01	-2.840913e-01	
5.781250e-01	5.536407e-01	-2.840913e-01	
5.781250e-01	3.814171e-01	3.506838e-03	
5.937500e-01	3.814171e-01	3.506838e-03	
5.937500e-01	1.945448e-01	2.886493e-01	
6.093750e-01	1.945448e-01	2.886493e-01	
6.093750e-01	2.046325e-04	5.466390e-01	
6.250000e-01	2.046325e-04	5.466390e-01	
6.250000e-01	-1.941363e-01	7.552082e-01	
6.406250e-01	-1.941363e-01	7.552082e-01	
6.406250e-01	-3.810110e-01	8.964393e-01	
6.562500e-01	-3.810110e-01	8.964393e-01	
6.562500e-01	-5.532400e-01	9.583068e-01	
6.718750e-01	-5.532400e-01	9.583068e-01	
6.718750e-01	-7.042062e-01	9.357090e-01	
6.875000e-01	-7.042062e-01	9.357090e-01	
6.875000e-01	-8.281097e-01	8.308995e-01	
7.031250e-01	-8.281097e-01	8.308995e-01	
7.031250e-01	-9.201902e-01	6.532833e-01	
7.187500e-01	-9.201902e-01	6.532833e-01	
7.187500e-01	-9.769094e-01	4.185941e-01	
7.343750e-01	-9.769094e-01	4.185941e-01	
7.343750e-01	-9.960875e-01	1.475244e-01	
7.500000e-01	-9.960875e-01	1.475244e-01	
7.500000e-01	-9.769862e-01	-1.360717e-01	
7.656250e-01	-9.769862e-01	-1.360717e-01	
7.656250e-01	-9.203373e-01	-4.072492e-01	
7.812500e-01	-9.203373e-01	-4.072492e-01	
7.812500e-01	-8.283146e-01	-6.421365e-01	
7.968750e-01	-8.283146e-01	-6.421365e-01	
7.968750e-01	-7.044503e-01	-8.200061e-01	
8.125000e-01	-7.044503e-01	-8.200061e-01	
8.125000e-01	-5.534989e-01	-9.250724e-01	
8.281250e-01	-5.534989e-01	-9.250724e-01	
8.281250e-01	-3.812555e-01	-9.478623e-01	
8.437500e-01	-3.812555e-01	-9.478623e-01	
8.437500e-01	-1.943321e-01	-8.860378e-01	
8.593750e-01	-1.943321e-01	-8.860378e-01	
8.593750e-01	9.591917e-05	-7.446009e-01	
8.750000e-01	9.591917e-05	-7.446009e-01	
8.750000e-01	1.945655e-01	-5.354624e-01	
8.906250e-01	1.945655e-01	-5.354624e-01	
8.906250e-01	3.816133e-01	-2.764095e-01	
9.062500e-01	3.816133e-01	-2.764095e-01	
9.062500e-01	5.540622e-01	1.043635e-02	
9.218750e-01	5.540622e-01	1.043635e-02	
9.218750e-01	7.052977e-01	3.005419e-01	
9.375000e-01	7.052977e-01	3.005419e-01	
9.375000e-01	8.295229e-01	5.690972e-01	
9.531250e-01	8.295229e-01	5.690972e-01	
9.531250e-01	9.219847e-01	7.931810e-01	
9.687500e-01	9.219847e-01	7.931810e-01	
9.687500e-01	9.792092e-01	9.537703e-01	
9.843750e-01	9.792092e-01	9.537703e-01	
9.843750e-01	1.000000e+00	1.037417e+00	
1.000000e+00	1.000000e+00	1.037417e+00	
