Position [m]	T (fluid)  	T (solid)
0.000000e+00	9.996251e-01	9.995902e-01	
1.953125e-03	9.994738e-01	9.989879e-01	
3.906250e-03	9.991720e-01	9.977836e-01	
5.859375e-03	9.987197e-01	9.959781e-01	
7.812500e-03	9.981170e-01	9.935725e-01	
9.765625e-03	9.973640e-01	9.905683e-01	
1.171875e-02	9.964608e-01	9.869671e-01	
1.367188e-02	9.954074e-01	9.827713e-01	
1.562500e-02	9.942042e-01	9.779833e-01	
1.757812e-02	9.928512e-01	9.726059e-01	
1.953125e-02	9.913487e-01	9.666426e-01	
2.148438e-02	9.896969e-01	9.600968e-01	
2.343750e-02	9.878960e-01	9.529725e-01	
2.539062e-02	9.859463e-01	9.452739e-01	
2.734375e-02	9.838481e-01	9.370058e-01	
2.929688e-02	9.816017e-01	9.281730e-01	
3.125000e-02	9.792074e-01	9.187810e-01	
3.320312e-02	9.766657e-01	9.088354e-01	
3.515625e-02	9.739769e-01	8.983421e-01	
3.710938e-02	9.711413e-01	8.873075e-01	
3.906250e-02	9.681595e-01	8.757383e-01	
4.101562e-02	9.650319e-01	8.636414e-01	
4.296875e-02	9.617589e-01	8.510240e-01	
4.492188e-02	9.583410e-01	8.378938e-01	
4.687500e-02	9.547788e-01	8.242588e-01	
4.882812e-02	9.510728e-01	8.101271e-01	
5.078125e-02	9.472235e-01	7.955071e-01	
5.273438e-02	9.432315e-01	7.804079e-01	
5.468750e-02	9.390975e-01	7.648383e-01	
5.664062e-02	9.348220e-01	7.488079e-01	
5.859375e-02	9.304057e-01	7.323262e-01	
6.054688e-02	9.258493e-01	7.154032e-01	
6.250000e-02	9.211534e-01	6.980492e-01	
6.445312e-02	9.163187e-01	6.802744e-01	
6.640625e-02	9.113460e-01	6.620897e-01	
6.835938e-02	9.062361e-01	6.435060e-01	
7.031250e-02	9.009896e-01	6.245345e-01	
7.226562e-02	8.956074e-01	6.051867e-01	
7.421875e-02	8.900903e-01	5.854741e-01	
7.617188e-02	8.844392e-01	5.654087e-01	
7.812500e-02	8.786548e-01	5.450025e-01	
8.007812e-02	8.727381e-01	5.242679e-01	
8.203125e-02	8.666899e-01	5.032172e-01	
8.398438e-02	8.605112e-01	4.818633e-01	
8.593750e-02	8.542028e-01	4.602190e-01	
8.789062e-02	8.477658e-01	4.382972e-01	
8.984375e-02	8.412011e-01	4.161113e-01	
9.179688e-02	8.345096e-01	3.936746e-01	
9.375000e-02	8.276925e-01	3.710005e-01	
9.570312e-02	8.207507e-01	3.481028e-01	
9.765625e-02	8.136853e-01	3.249953e-01	
9.960938e-02	8.064973e-01	3.016918e-01	
1.015625e-01	7.991878e-01	2.782064e-01	
1.035156e-01	7.917579e-01	2.545533e-01	
1.054688e-01	7.842088e-01	2.307467e-01	
1.074219e-01	7.765415e-01	2.068009e-01	
1.093750e-01	7.687573e-01	1.827304e-01	
1.113281e-01	7.608573e-01	1.585496e-01	
1.132812e-01	7.528427e-01	1.342732e-01	
1.152344e-01	7.447146e-01	1.099157e-01	
1.171875e-01	7.364744e-01	8.549183e-02	
1.191406e-01	7.281233e-01	6.101632e-02	
1.210938e-01	7.196625e-01	3.650389e-02	
1.230469e-01	7.110932e-01	1.196931e-02	
1.250000e-01	7.024169e-01	-1.257264e-02	
1.269531e-01	6.936348e-01	-3.710717e-02	
1.289062e-01	6.847481e-01	-6.161952e-02	
1.308594e-01	6.757584e-01	-8.609491e-02	
1.328125e-01	6.666668e-01	-1.105186e-01	
1.347656e-01	6.574748e-01	-1.348759e-01	
1.367188e-01	6.481838e-01	-1.591520e-01	
1.386719e-01	6.387952e-01	-1.833325e-01	
1.406250e-01	6.293103e-01	-2.074027e-01	
1.425781e-01	6.197307e-01	-2.313481e-01	
1.445312e-01	6.100577e-01	-2.551543e-01	
1.464844e-01	6.002928e-01	-2.788070e-01	
1.484375e-01	5.904374e-01	-3.022919e-01	
1.503906e-01	5.804932e-01	-3.255949e-01	
1.523438e-01	5.704615e-01	-3.487018e-01	
1.542969e-01	5.603438e-01	-3.715989e-01	
1.562500e-01	5.501418e-01	-3.942723e-01	
1.582031e-01	5.398569e-01	-4.167083e-01	
1.601562e-01	5.294907e-01	-4.388935e-01	
1.621094e-01	5.190447e-01	-4.608145e-01	
1.640625e-01	5.085206e-01	-4.824580e-01	
1.660156e-01	4.979198e-01	-5.038110e-01	
1.679688e-01	4.872440e-01	-5.248608e-01	
1.699219e-01	4.764949e-01	-5.455945e-01	
1.718750e-01	4.656740e-01	-5.659997e-01	
1.738281e-01	4.547829e-01	-5.860641e-01	
1.757812e-01	4.438233e-01	-6.057756e-01	
1.777344e-01	4.327969e-01	-6.251224e-01	
1.796875e-01	4.217052e-01	-6.440927e-01	
1.816406e-01	4.105501e-01	-6.626752e-01	
1.835938e-01	3.993331e-01	-6.808587e-01	
1.855469e-01	3.880560e-01	-6.986322e-01	
1.875000e-01	3.767204e-01	-7.159850e-01	
1.894531e-01	3.653280e-01	-7.329066e-01	
1.914062e-01	3.538807e-01	-7.493870e-01	
1.933594e-01	3.423800e-01	-7.654160e-01	
1.953125e-01	3.308277e-01	-7.809841e-01	
1.972656e-01	3.192257e-01	-7.960819e-01	
1.992188e-01	3.075755e-01	-8.107003e-01	
2.011719e-01	2.958790e-01	-8.248305e-01	
2.031250e-01	2.841379e-01	-8.384640e-01	
2.050781e-01	2.723540e-01	-8.515925e-01	
2.070312e-01	2.605291e-01	-8.642082e-01	
2.089844e-01	2.486650e-01	-8.763035e-01	
2.109375e-01	2.367634e-01	-8.878710e-01	
2.128906e-01	2.248261e-01	-8.989039e-01	
2.148438e-01	2.128549e-01	-9.093954e-01	
2.167969e-01	2.008517e-01	-9.193392e-01	
2.187500e-01	1.888183e-01	-9.287293e-01	
2.207031e-01	1.767563e-01	-9.375602e-01	
2.226562e-01	1.646678e-01	-9.458264e-01	
2.246094e-01	1.525544e-01	-9.535230e-01	
2.265625e-01	1.404181e-01	-9.606454e-01	
2.285156e-01	1.282606e-01	-9.671892e-01	
2.304688e-01	1.160838e-01	-9.731505e-01	
2.324219e-01	1.038895e-01	-9.785258e-01	
2.343750e-01	9.167951e-02	-9.833117e-01	
2.363281e-01	7.945573e-02	-9.875055e-01	
2.382812e-01	6.721997e-02	-9.911045e-01	
2.402344e-01	5.497407e-02	-9.941066e-01	
2.421875e-01	4.271989e-02	-9.965100e-01	
2.441406e-01	3.045927e-02	-9.983132e-01	
2.460938e-01	1.819405e-02	-9.995153e-01	
2.480469e-01	5.926078e-03	-1.000115e+00	
2.500000e-01	-6.342794e-03	-1.000113e+00	
2.519531e-01	-1.861072e-02	-9.995084e-01	
2.539062e-01	-3.087585e-02	-9.983018e-01	
2.558594e-01	-4.313635e-02	-9.964940e-01	
2.578125e-01	-5.539035e-02	-9.940860e-01	
2.597656e-01	-6.763603e-02	-9.910794e-01	
2.617188e-01	-7.987152e-02	-9.874758e-01	
2.636719e-01	-9.209500e-02	-9.832775e-01	
2.656250e-01	-1.043046e-01	-9.784871e-01	
2.675781e-01	-1.164985e-01	-9.731073e-01	
2.695312e-01	-1.286749e-01	-9.671414e-01	
2.714844e-01	-1.408320e-01	-9.605931e-01	
2.734375e-01	-1.529678e-01	-9.534662e-01	
2.753906e-01	-1.650806e-01	-9.457651e-01	
2.773438e-01	-1.771685e-01	-9.374944e-01	
2.792969e-01	-1.892298e-01	-9.286590e-01	
2.812500e-01	-2.012626e-01	-9.192644e-01	
2.832031e-01	-2.132651e-01	-9.093161e-01	
2.851562e-01	-2.252354e-01	-8.988201e-01	
2.871094e-01	-2.371719e-01	-8.877829e-01	
2.890625e-01	-2.490727e-01	-8.762109e-01	
2.910156e-01	-2.609360e-01	-8.641112e-01	
2.929688e-01	-2.727599e-01	-8.514911e-01	
2.949219e-01	-2.845429e-01	-8.383582e-01	
2.968750e-01	-2.962829e-01	-8.247204e-01	
2.988281e-01	-3.079784e-01	-8.105858e-01	
3.007812e-01	-3.196275e-01	-7.959631e-01	
3.027344e-01	-3.312285e-01	-7.808609e-01	
3.046875e-01	-3.427796e-01	-7.652885e-01	
3.066406e-01	-3.542791e-01	-7.492552e-01	
3.085938e-01	-3.657253e-01	-7.327707e-01	
3.105469e-01	-3.771164e-01	-7.158448e-01	
3.125000e-01	-3.884507e-01	-6.984878e-01	
3.144531e-01	-3.997265e-01	-6.807101e-01	
3.164062e-01	-4.109422e-01	-6.625224e-01	
3.183594e-01	-4.220960e-01	-6.439357e-01	
3.203125e-01	-4.331862e-01	-6.249613e-01	
3.222656e-01	-4.442112e-01	-6.056104e-01	
3.242188e-01	-4.551693e-01	-5.858948e-01	
3.261719e-01	-4.660589e-01	-5.658263e-01	
3.281250e-01	-4.768784e-01	-5.454171e-01	
3.300781e-01	-4.876260e-01	-5.246794e-01	
3.320312e-01	-4.983002e-01	-5.036257e-01	
3.339844e-01	-5.088994e-01	-4.822687e-01	
3.359375e-01	-5.194219e-01	-4.606213e-01	
3.378906e-01	-5.298663e-01	-4.386964e-01	
3.398438e-01	-5.402309e-01	-4.165074e-01	
3.417969e-01	-5.505141e-01	-3.940675e-01	
3.437500e-01	-5.607145e-01	-3.713903e-01	
3.457031e-01	-5.708304e-01	-3.484895e-01	
3.476562e-01	-5.808604e-01	-3.253788e-01	
3.496094e-01	-5.908029e-01	-3.020721e-01	
3.515625e-01	-6.006565e-01	-2.785836e-01	
3.535156e-01	-6.104196e-01	-2.549273e-01	
3.554688e-01	-6.200909e-01	-2.311175e-01	
3.574219e-01	-6.296687e-01	-2.071685e-01	
3.593750e-01	-6.391518e-01	-1.830948e-01	
3.613281e-01	-6.485386e-01	-1.589108e-01	
3.632812e-01	-6.578278e-01	-1.346311e-01	
3.652344e-01	-6.670180e-01	-1.102705e-01	
3.671875e-01	-6.761077e-01	-8.584338e-02	
3.691406e-01	-6.850956e-01	-6.136465e-02	
3.710938e-01	-6.939804e-01	-3.684900e-02	
3.730469e-01	-7.027606e-01	-1.231119e-02	
3.750000e-01	-7.114351e-01	1.223399e-02	
3.769531e-01	-7.200025e-01	3.677176e-02	
3.789062e-01	-7.284614e-01	6.128734e-02	
3.808594e-01	-7.368107e-01	8.576596e-02	
3.828125e-01	-7.450490e-01	1.101929e-01	
3.847656e-01	-7.531752e-01	1.345534e-01	
3.867188e-01	-7.611880e-01	1.588328e-01	
3.886719e-01	-7.690861e-01	1.830165e-01	
3.906250e-01	-7.768685e-01	2.070899e-01	
3.925781e-01	-7.845339e-01	2.310386e-01	
3.945312e-01	-7.920812e-01	2.548480e-01	
3.964844e-01	-7.995092e-01	2.785039e-01	
3.984375e-01	-8.068168e-01	3.019920e-01	
4.003906e-01	-8.140030e-01	3.252982e-01	
4.023438e-01	-8.210666e-01	3.484084e-01	
4.042969e-01	-8.280066e-01	3.713087e-01	
4.062500e-01	-8.348220e-01	3.939853e-01	
4.082031e-01	-8.415116e-01	4.164245e-01	
4.101562e-01	-8.480745e-01	4.386129e-01	
4.121094e-01	-8.545098e-01	4.605370e-01	
4.140625e-01	-8.608164e-01	4.821837e-01	
4.160156e-01	-8.669934e-01	5.035399e-01	
4.179688e-01	-8.730399e-01	5.245928e-01	
4.199219e-01	-8.789549e-01	5.453296e-01	
4.218750e-01	-8.847376e-01	5.657380e-01	
4.238281e-01	-8.903871e-01	5.858055e-01	
4.257812e-01	-8.959025e-01	6.055202e-01	
4.277344e-01	-9.012830e-01	6.248700e-01	
4.296875e-01	-9.065279e-01	6.438435e-01	
4.316406e-01	-9.116362e-01	6.624291e-01	
4.335938e-01	-9.166073e-01	6.806156e-01	
4.355469e-01	-9.214404e-01	6.983922e-01	
4.375000e-01	-9.261348e-01	7.157481e-01	
4.394531e-01	-9.306897e-01	7.326727e-01	
4.414062e-01	-9.351045e-01	7.491561e-01	
4.433594e-01	-9.393786e-01	7.651881e-01	
4.453125e-01	-9.435111e-01	7.807592e-01	
4.472656e-01	-9.475017e-01	7.958600e-01	
4.492188e-01	-9.513496e-01	8.104814e-01	
4.511719e-01	-9.550542e-01	8.246145e-01	
4.531250e-01	-9.586151e-01	8.382509e-01	
4.550781e-01	-9.620316e-01	8.513824e-01	
4.570312e-01	-9.653033e-01	8.640010e-01	
4.589844e-01	-9.684297e-01	8.760991e-01	
4.609375e-01	-9.714102e-01	8.876695e-01	
4.628906e-01	-9.742445e-01	8.987052e-01	
4.648438e-01	-9.769321e-01	9.091995e-01	
4.667969e-01	-9.794727e-01	9.191461e-01	
4.687500e-01	-9.818658e-01	9.285390e-01	
4.707031e-01	-9.841110e-01	9.373726e-01	
4.726562e-01	-9.862081e-01	9.456416e-01	
4.746094e-01	-9.881567e-01	9.533409e-01	
4.765625e-01	-9.899565e-01	9.604660e-01	
4.785156e-01	-9.916073e-01	9.670125e-01	
4.804688e-01	-9.931088e-01	9.729764e-01	
4.824219e-01	-9.944607e-01	9.783543e-01	
4.843750e-01	-9.956630e-01	9.831429e-01	
4.863281e-01	-9.967153e-01	9.873392e-01	
4.882812e-01	-9.976176e-01	9.909407e-01	
4.902344e-01	-9.983697e-01	9.939454e-01	
4.921875e-01	-9.989715e-01	9.963513e-01	
4.941406e-01	-9.994228e-01	9.981570e-01	
4.960938e-01	-9.997237e-01	9.993615e-01	
4.980469e-01	-9.998741e-01	9.999640e-01	
5.000000e-01	-9.998740e-01	9.999641e-01	
5.019531e-01	-9.997233e-01	9.993618e-01	
5.039062e-01	-9.994221e-01	9.981576e-01	
5.058594e-01	-9.989704e-01	9.963521e-01	
5.078125e-01	-9.983683e-01	9.939464e-01	
5.097656e-01	-9.976159e-01	9.909420e-01	
5.117188e-01	-9.967134e-01	9.873407e-01	
5.136719e-01	-9.956607e-01	9.831446e-01	
5.156250e-01	-9.944582e-01	9.783563e-01	
5.175781e-01	-9.931059e-01	9.729787e-01	
5.195312e-01	-9.916041e-01	9.670149e-01	
5.214844e-01	-9.899530e-01	9.604687e-01	
5.234375e-01	-9.881529e-01	9.533439e-01	
5.253906e-01	-9.862040e-01	9.456448e-01	
5.273438e-01	-9.841066e-01	9.373761e-01	
5.292969e-01	-9.818611e-01	9.285427e-01	
5.312500e-01	-9.794677e-01	9.191500e-01	
5.332031e-01	-9.769269e-01	9.092036e-01	
5.351562e-01	-9.742390e-01	8.987095e-01	
5.371094e-01	-9.714044e-01	8.876740e-01	
5.390625e-01	-9.684235e-01	8.761039e-01	
5.410156e-01	-9.652969e-01	8.640060e-01	
5.429688e-01	-9.620249e-01	8.513876e-01	
5.449219e-01	-9.586081e-01	8.382564e-01	
5.468750e-01	-9.550469e-01	8.246202e-01	
5.488281e-01	-9.513420e-01	8.104873e-01	
5.507812e-01	-9.474938e-01	7.958661e-01	
5.527344e-01	-9.435030e-01	7.807656e-01	
5.546875e-01	-9.393701e-01	7.651947e-01	
5.566406e-01	-9.350958e-01	7.491629e-01	
5.585938e-01	-9.306807e-01	7.326798e-01	
5.605469e-01	-9.261255e-01	7.157553e-01	
5.625000e-01	-9.214309e-01	6.983996e-01	
5.644531e-01	-9.165975e-01	6.806233e-01	
5.664062e-01	-9.116261e-01	6.624370e-01	
5.683594e-01	-9.065175e-01	6.438516e-01	
5.703125e-01	-9.012724e-01	6.248783e-01	
5.722656e-01	-8.958916e-01	6.055287e-01	
5.742188e-01	-8.903759e-01	5.858142e-01	
5.761719e-01	-8.847262e-01	5.657469e-01	
5.781250e-01	-8.789432e-01	5.453388e-01	
5.800781e-01	-8.730280e-01	5.246021e-01	
5.820312e-01	-8.669812e-01	5.035494e-01	
5.839844e-01	-8.608040e-01	4.821934e-01	
5.859375e-01	-8.544971e-01	4.605469e-01	
5.878906e-01	-8.480616e-01	4.386230e-01	
5.898438e-01	-8.414985e-01	4.164348e-01	
5.917969e-01	-8.348086e-01	3.939957e-01	
5.937500e-01	-8.279930e-01	3.713193e-01	
5.957031e-01	-8.210528e-01	3.484193e-01	
5.976562e-01	-8.139889e-01	3.253093e-01	
5.996094e-01	-8.068025e-01	3.020033e-01	
6.015625e-01	-7.994947e-01	2.785154e-01	
6.035156e-01	-7.920664e-01	2.548596e-01	
6.054688e-01	-7.845189e-01	2.310504e-01	
6.074219e-01	-7.768533e-01	2.071019e-01	
6.093750e-01	-7.690707e-01	1.830286e-01	
6.113281e-01	-7.611723e-01	1.588451e-01	
6.132812e-01	-7.531594e-01	1.345659e-01	
6.152344e-01	-7.450330e-01	1.102055e-01	
6.171875e-01	-7.367945e-01	8.577877e-02	
6.191406e-01	-7.284450e-01	6.130031e-02	
6.210938e-01	-7.199858e-01	3.678489e-02	
6.230469e-01	-7.114183e-01	1.224728e-02	
6.250000e-01	-7.027436e-01	-1.229774e-02	
6.269531e-01	-6.939632e-01	-3.683540e-02	
6.289062e-01	-6.850782e-01	-6.135090e-02	
6.308594e-01	-6.760901e-01	-8.582948e-02	
6.328125e-01	-6.670002e-01	-1.102564e-01	
6.347656e-01	-6.578099e-01	-1.346170e-01	
6.367188e-01	-6.485205e-01	-1.588965e-01	
6.386719e-01	-6.391335e-01	-1.830803e-01	
6.406250e-01	-6.296503e-01	-2.071539e-01	
6.425781e-01	-6.200723e-01	-2.311027e-01	
6.445312e-01	-6.104009e-01	-2.549124e-01	
6.464844e-01	-6.006376e-01	-2.785686e-01	
6.484375e-01	-5.907839e-01	-3.020570e-01	
6.503906e-01	-5.808412e-01	-3.253635e-01	
6.523438e-01	-5.708111e-01	-3.484741e-01	
6.542969e-01	-5.606950e-01	-3.713748e-01	
6.562500e-01	-5.504945e-01	-3.940519e-01	
6.582031e-01	-5.402112e-01	-4.164917e-01	
6.601562e-01	-5.298465e-01	-4.386806e-01	
6.621094e-01	-5.194020e-01	-4.606053e-01	
6.640625e-01	-5.088793e-01	-4.822526e-01	
6.660156e-01	-4.982800e-01	-5.036095e-01	
6.679688e-01	-4.876057e-01	-5.246631e-01	
6.699219e-01	-4.768579e-01	-5.454007e-01	
6.718750e-01	-4.660384e-01	-5.658098e-01	
6.738281e-01	-4.551487e-01	-5.858782e-01	
6.757812e-01	-4.441905e-01	-6.055937e-01	
6.777344e-01	-4.331654e-01	-6.249445e-01	
6.796875e-01	-4.220750e-01	-6.439189e-01	
6.816406e-01	-4.109212e-01	-6.625055e-01	
6.835938e-01	-3.997054e-01	-6.806930e-01	
6.855469e-01	-3.884295e-01	-6.984707e-01	
6.875000e-01	-3.770951e-01	-7.158276e-01	
6.894531e-01	-3.657039e-01	-7.327534e-01	
6.914062e-01	-3.542577e-01	-7.492379e-01	
6.933594e-01	-3.427581e-01	-7.652712e-01	
6.953125e-01	-3.312069e-01	-7.808435e-01	
6.972656e-01	-3.196059e-01	-7.959456e-01	
6.992188e-01	-3.079567e-01	-8.105682e-01	
7.011719e-01	-2.962612e-01	-8.247027e-01	
7.031250e-01	-2.845211e-01	-8.383405e-01	
7.050781e-01	-2.727381e-01	-8.514734e-01	
7.070312e-01	-2.609141e-01	-8.640934e-01	
7.089844e-01	-2.490507e-01	-8.761931e-01	
7.109375e-01	-2.371499e-01	-8.877650e-01	
7.128906e-01	-2.252134e-01	-8.988022e-01	
7.148438e-01	-2.132430e-01	-9.092981e-01	
7.167969e-01	-2.012405e-01	-9.192464e-01	
7.187500e-01	-1.892077e-01	-9.286410e-01	
7.207031e-01	-1.771464e-01	-9.374763e-01	
7.226562e-01	-1.650584e-01	-9.457470e-01	
7.246094e-01	-1.529456e-01	-9.534481e-01	
7.265625e-01	-1.408098e-01	-9.605749e-01	
7.285156e-01	-1.286528e-01	-9.671232e-01	
7.304688e-01	-1.164764e-01	-9.730891e-01	
7.324219e-01	-1.042825e-01	-9.784688e-01	
7.343750e-01	-9.207284e-02	-9.832593e-01	
7.363281e-01	-7.984937e-02	-9.874576e-01	
7.382812e-01	-6.761388e-02	-9.910611e-01	
7.402344e-01	-5.536821e-02	-9.940678e-01	
7.421875e-01	-4.311422e-02	-9.964757e-01	
7.441406e-01	-3.085375e-02	-9.982835e-01	
7.460938e-01	-1.858863e-02	-9.994901e-01	
7.480469e-01	-6.320730e-03	-1.000095e+00	
7.500000e-01	5.948115e-03	-1.000097e+00	
7.519531e-01	1.821606e-02	-9.994970e-01	
7.539062e-01	3.048124e-02	-9.982950e-01	
7.558594e-01	4.274183e-02	-9.964917e-01	
7.578125e-01	5.499597e-02	-9.940883e-01	
7.597656e-01	6.724183e-02	-9.910862e-01	
7.617188e-01	7.947754e-02	-9.874873e-01	
7.636719e-01	9.170128e-02	-9.832935e-01	
7.656250e-01	1.039112e-01	-9.785076e-01	
7.675781e-01	1.161055e-01	-9.731324e-01	
7.695312e-01	1.282822e-01	-9.671711e-01	
7.714844e-01	1.404397e-01	-9.606273e-01	
7.734375e-01	1.525759e-01	-9.535050e-01	
7.753906e-01	1.646892e-01	-9.458084e-01	
7.773438e-01	1.767777e-01	-9.375422e-01	
7.792969e-01	1.888396e-01	-9.287114e-01	
7.812500e-01	2.008730e-01	-9.193213e-01	
7.832031e-01	2.128761e-01	-9.093775e-01	
7.851562e-01	2.248472e-01	-8.988861e-01	
7.871094e-01	2.367844e-01	-8.878533e-01	
7.890625e-01	2.486859e-01	-8.762858e-01	
7.910156e-01	2.605500e-01	-8.641906e-01	
7.929688e-01	2.723748e-01	-8.515749e-01	
7.949219e-01	2.841586e-01	-8.384464e-01	
7.968750e-01	2.958995e-01	-8.248130e-01	
7.988281e-01	3.075960e-01	-8.106829e-01	
8.007812e-01	3.192460e-01	-7.960645e-01	
8.027344e-01	3.308480e-01	-7.809668e-01	
8.046875e-01	3.424002e-01	-7.653987e-01	
8.066406e-01	3.539007e-01	-7.493698e-01	
8.085938e-01	3.653480e-01	-7.328895e-01	
8.105469e-01	3.767402e-01	-7.159680e-01	
8.125000e-01	3.880757e-01	-6.986152e-01	
8.144531e-01	3.993528e-01	-6.808418e-01	
8.164062e-01	4.105696e-01	-6.626584e-01	
8.183594e-01	4.217247e-01	-6.440760e-01	
8.203125e-01	4.328162e-01	-6.251057e-01	
8.222656e-01	4.438425e-01	-6.057590e-01	
8.242188e-01	4.548019e-01	-5.860476e-01	
8.261719e-01	4.656929e-01	-5.659832e-01	
8.281250e-01	4.765137e-01	-5.455781e-01	
8.300781e-01	4.872627e-01	-5.248445e-01	
8.320312e-01	4.979383e-01	-5.037949e-01	
8.339844e-01	5.085390e-01	-4.824419e-01	
8.359375e-01	5.190630e-01	-4.607985e-01	
8.378906e-01	5.295088e-01	-4.388776e-01	
8.398438e-01	5.398749e-01	-4.166925e-01	
8.417969e-01	5.501597e-01	-3.942566e-01	
8.437500e-01	5.603616e-01	-3.715833e-01	
8.457031e-01	5.704791e-01	-3.486863e-01	
8.476562e-01	5.805106e-01	-3.255794e-01	
8.496094e-01	5.904547e-01	-3.022766e-01	
8.515625e-01	6.003099e-01	-2.787918e-01	
8.535156e-01	6.100747e-01	-2.551392e-01	
8.554688e-01	6.197475e-01	-2.313331e-01	
8.574219e-01	6.293270e-01	-2.073878e-01	
8.593750e-01	6.388117e-01	-1.833177e-01	
8.613281e-01	6.482002e-01	-1.591374e-01	
8.632812e-01	6.574911e-01	-1.348613e-01	
8.652344e-01	6.666829e-01	-1.105041e-01	
8.671875e-01	6.757743e-01	-8.608056e-02	
8.691406e-01	6.847639e-01	-6.160528e-02	
8.710938e-01	6.936503e-01	-3.709305e-02	
8.730469e-01	7.024323e-01	-1.255863e-02	
8.750000e-01	7.111085e-01	1.198321e-02	
8.769531e-01	7.196775e-01	3.651767e-02	
8.789062e-01	7.281382e-01	6.102999e-02	
8.808594e-01	7.364891e-01	8.550538e-02	
8.828125e-01	7.447292e-01	1.099291e-01	
8.847656e-01	7.528570e-01	1.342865e-01	
8.867188e-01	7.608715e-01	1.585628e-01	
8.886719e-01	7.687713e-01	1.827434e-01	
8.906250e-01	7.765553e-01	2.068138e-01	
8.925781e-01	7.842224e-01	2.307595e-01	
8.945312e-01	7.917714e-01	2.545660e-01	
8.964844e-01	7.992010e-01	2.782190e-01	
8.984375e-01	8.065103e-01	3.017043e-01	
9.003906e-01	8.136981e-01	3.250076e-01	
9.023438e-01	8.207634e-01	3.481151e-01	
9.042969e-01	8.277050e-01	3.710126e-01	
9.062500e-01	8.345219e-01	3.936866e-01	
9.082031e-01	8.412131e-01	4.161232e-01	
9.101562e-01	8.477776e-01	4.383090e-01	
9.121094e-01	8.542144e-01	4.602306e-01	
9.140625e-01	8.605226e-01	4.818748e-01	
9.160156e-01	8.667011e-01	5.032286e-01	
9.179688e-01	8.727490e-01	5.242791e-01	
9.199219e-01	8.786655e-01	5.450136e-01	
9.218750e-01	8.844497e-01	5.654197e-01	
9.238281e-01	8.901006e-01	5.854850e-01	
9.257812e-01	8.956174e-01	6.051974e-01	
9.277344e-01	9.009994e-01	6.245452e-01	
9.296875e-01	9.062456e-01	6.435165e-01	
9.316406e-01	9.113553e-01	6.621001e-01	
9.335938e-01	9.163277e-01	6.802847e-01	
9.355469e-01	9.211621e-01	6.980593e-01	
9.375000e-01	9.258577e-01	7.154133e-01	
9.394531e-01	9.304139e-01	7.323361e-01	
9.414062e-01	9.348299e-01	7.488177e-01	
9.433594e-01	9.391051e-01	7.648480e-01	
9.453125e-01	9.432389e-01	7.804174e-01	
9.472656e-01	9.472305e-01	7.955166e-01	
9.492188e-01	9.510795e-01	8.101364e-01	
9.511719e-01	9.547852e-01	8.242680e-01	
9.531250e-01	9.583471e-01	8.379030e-01	
9.550781e-01	9.617646e-01	8.510330e-01	
9.570312e-01	9.650373e-01	8.636503e-01	
9.589844e-01	9.681646e-01	8.757471e-01	
9.609375e-01	9.711460e-01	8.873163e-01	
9.628906e-01	9.739812e-01	8.983507e-01	
9.648438e-01	9.766696e-01	9.088439e-01	
9.667969e-01	9.792110e-01	9.187895e-01	
9.687500e-01	9.816048e-01	9.281814e-01	
9.707031e-01	9.838508e-01	9.370140e-01	
9.726562e-01	9.859485e-01	9.452821e-01	
9.746094e-01	9.878978e-01	9.529806e-01	
9.765625e-01	9.896982e-01	9.601048e-01	
9.785156e-01	9.913496e-01	9.666506e-01	
9.804688e-01	9.928516e-01	9.726139e-01	
9.824219e-01	9.942041e-01	9.779911e-01	
9.843750e-01	9.954068e-01	9.827791e-01	
9.863281e-01	9.964596e-01	9.869749e-01	
9.882812e-01	9.973622e-01	9.905760e-01	
9.902344e-01	9.981146e-01	9.935802e-01	
9.921875e-01	9.987167e-01	9.959858e-01	
9.941406e-01	9.991684e-01	9.977912e-01	
9.960938e-01	9.994695e-01	9.989955e-01	
9.980469e-01	9.996201e-01	9.995978e-01	
