Position [m]	T (fluid)  	T (solid)
0.000000e+00	9.929711e-01	9.015276e-01	
6.250000e-02	9.929711e-01	9.015276e-01	
6.250000e-02	3.936751e-01	-1.708238e-01	
1.250000e-01	3.936751e-01	-1.708238e-01	
1.250000e-01	-4.099403e-01	-9.927306e-01	
1.875000e-01	-4.099403e-01	-9.927306e-01	
1.875000e-01	-9.126822e-01	-5.507442e-01	
2.500000e-01	-9.126822e-01	-5.507442e-01	
2.500000e-01	-8.371304e-01	6.091285e-01	
3.125000e-01	-8.371304e-01	6.091285e-01	
3.125000e-01	-2.748085e-01	1.056044e+00	
3.750000e-01	-2.748085e-01	1.056044e+00	
3.750000e-01	4.260815e-01	2.405099e-01	
4.375000e-01	4.260815e-01	2.405099e-01	
4.375000e-01	8.881512e-01	-8.282211e-01	
5.000000e-01	8.881512e-01	-8.282211e-01	
5.000000e-01	8.852387e-01	-8.292814e-01	
5.625000e-01	8.852387e-01	-8.292814e-01	
5.625000e-01	4.202521e-01	2.385360e-01	
6.250000e-01	4.202521e-01	2.385360e-01	
6.250000e-01	-2.776962e-01	1.055669e+00	
6.875000e-01	-2.776962e-01	1.055669e+00	
6.875000e-01	-8.337517e-01	6.119890e-01	
7.500000e-01	-8.337517e-01	6.119890e-01	
7.500000e-01	-9.046020e-01	-5.449856e-01	
8.125000e-01	-9.046020e-01	-5.449856e-01	
8.125000e-01	-4.009588e-01	-9.855867e-01	
8.750000e-01	-4.009588e-01	-9.855867e-01	
8.750000e-01	4.014788e-01	-1.634920e-01	
9.375000e-01	4.014788e-01	-1.634920e-01	
9.375000e-01	9.999996e-01	9.087398e-01	
1.000000e+00	9.999996e-01	9.087398e-01	
