Position [m]	T (fluid)  	T (solid)
0.000000e+00	1.000044e+00	9.997730e-01	
3.906250e-03	9.994410e-01	9.973644e-01	
7.812500e-03	9.982361e-01	9.925532e-01	
1.171875e-02	9.964297e-01	9.853508e-01	
1.562500e-02	9.940228e-01	9.757746e-01	
1.953125e-02	9.910169e-01	9.638478e-01	
2.343750e-02	9.874138e-01	9.495989e-01	
2.734375e-02	9.832157e-01	9.330624e-01	
3.125000e-02	9.784252e-01	9.142781e-01	
3.515625e-02	9.730450e-01	8.932912e-01	
3.906250e-02	9.670785e-01	8.701523e-01	
4.296875e-02	9.605293e-01	8.449171e-01	
4.687500e-02	9.534013e-01	8.176465e-01	
5.078125e-02	9.456987e-01	7.884061e-01	
5.468750e-02	9.374264e-01	7.572664e-01	
5.859375e-02	9.285892e-01	7.243024e-01	
6.250000e-02	9.191924e-01	6.895935e-01	
6.640625e-02	9.092418e-01	6.532233e-01	
7.031250e-02	8.987434e-01	6.152794e-01	
7.421875e-02	8.877034e-01	5.758533e-01	
7.812500e-02	8.761286e-01	5.350399e-01	
8.203125e-02	8.640259e-01	4.929376e-01	
8.593750e-02	8.514026e-01	4.496478e-01	
8.984375e-02	8.382664e-01	4.052747e-01	
9.375000e-02	8.246251e-01	3.599253e-01	
9.765625e-02	8.104870e-01	3.137088e-01	
1.015625e-01	7.958606e-01	2.667366e-01	
1.054688e-01	7.807548e-01	2.191218e-01	
1.093750e-01	7.651786e-01	1.709791e-01	
1.132812e-01	7.491415e-01	1.224246e-01	
1.171875e-01	7.326530e-01	7.357506e-02	
1.210938e-01	7.157233e-01	2.454833e-02	
1.250000e-01	6.983624e-01	-2.453753e-02	
1.289062e-01	6.805808e-01	-7.356427e-02	
1.328125e-01	6.623893e-01	-1.224138e-01	
1.367188e-01	6.437988e-01	-1.709684e-01	
1.406250e-01	6.248206e-01	-2.191111e-01	
1.445312e-01	6.054660e-01	-2.667259e-01	
1.484375e-01	5.857468e-01	-3.136982e-01	
1.523438e-01	5.656749e-01	-3.599148e-01	
1.562500e-01	5.452623e-01	-4.052642e-01	
1.601562e-01	5.245213e-01	-4.496374e-01	
1.640625e-01	5.034645e-01	-4.929273e-01	
1.679688e-01	4.821045e-01	-5.350297e-01	
1.718750e-01	4.604543e-01	-5.758432e-01	
1.757812e-01	4.385268e-01	-6.152694e-01	
1.796875e-01	4.163354e-01	-6.532134e-01	
1.835938e-01	3.938933e-01	-6.895837e-01	
1.875000e-01	3.712141e-01	-7.242928e-01	
1.914062e-01	3.483115e-01	-7.572569e-01	
1.953125e-01	3.251992e-01	-7.883968e-01	
1.992188e-01	3.018913e-01	-8.176374e-01	
2.031250e-01	2.784017e-01	-8.449081e-01	
2.070312e-01	2.547446e-01	-8.701435e-01	
2.109375e-01	2.309342e-01	-8.932825e-01	
2.148438e-01	2.069850e-01	-9.142696e-01	
2.187500e-01	1.829113e-01	-9.330542e-01	
2.226562e-01	1.587277e-01	-9.495909e-01	
2.265625e-01	1.344486e-01	-9.638399e-01	
2.304688e-01	1.100888e-01	-9.757670e-01	
2.343750e-01	8.566297e-02	-9.853434e-01	
2.382812e-01	6.118574e-02	-9.925461e-01	
2.421875e-01	3.667189e-02	-9.973576e-01	
2.460938e-01	1.213619e-02	-9.997663e-01	
2.500000e-01	-1.240659e-02	-9.997666e-01	
2.539062e-01	-3.694164e-02	-9.973583e-01	
2.578125e-01	-6.145421e-02	-9.925473e-01	
2.617188e-01	-8.592952e-02	-9.853452e-01	
2.656250e-01	-1.103528e-01	-9.757693e-01	
2.695312e-01	-1.347094e-01	-9.638427e-01	
2.734375e-01	-1.589847e-01	-9.495942e-01	
2.773438e-01	-1.831639e-01	-9.330579e-01	
2.812500e-01	-2.072326e-01	-9.142739e-01	
2.851562e-01	-2.311762e-01	-8.932873e-01	
2.890625e-01	-2.549804e-01	-8.701488e-01	
2.929688e-01	-2.786308e-01	-8.449139e-01	
2.968750e-01	-3.021131e-01	-8.176436e-01	
3.007812e-01	-3.254133e-01	-7.884035e-01	
3.046875e-01	-3.485172e-01	-7.572642e-01	
3.085938e-01	-3.714111e-01	-7.243005e-01	
3.125000e-01	-3.940810e-01	-6.895919e-01	
3.164062e-01	-4.165134e-01	-6.532220e-01	
3.203125e-01	-4.386947e-01	-6.152785e-01	
3.242188e-01	-4.606117e-01	-5.758527e-01	
3.281250e-01	-4.822510e-01	-5.350397e-01	
3.320312e-01	-5.035998e-01	-4.929377e-01	
3.359375e-01	-5.246450e-01	-4.496483e-01	
3.398438e-01	-5.453742e-01	-4.052755e-01	
3.437500e-01	-5.657747e-01	-3.599265e-01	
3.476562e-01	-5.858343e-01	-3.137104e-01	
3.515625e-01	-6.055410e-01	-2.667385e-01	
3.554688e-01	-6.248829e-01	-2.191241e-01	
3.593750e-01	-6.438483e-01	-1.709817e-01	
3.632812e-01	-6.624258e-01	-1.224275e-01	
3.671875e-01	-6.806043e-01	-7.357839e-02	
3.710938e-01	-6.983728e-01	-2.455202e-02	
3.750000e-01	-7.157206e-01	2.453348e-02	
3.789062e-01	-7.326373e-01	7.355986e-02	
3.828125e-01	-7.491127e-01	1.224090e-01	
3.867188e-01	-7.651369e-01	1.709632e-01	
3.906250e-01	-7.807003e-01	2.191056e-01	
3.945312e-01	-7.957934e-01	2.667201e-01	
3.984375e-01	-8.104073e-01	3.136920e-01	
4.023438e-01	-8.245330e-01	3.599082e-01	
4.062500e-01	-8.381622e-01	4.052573e-01	
4.101562e-01	-8.512866e-01	4.496301e-01	
4.140625e-01	-8.638984e-01	4.929197e-01	
4.179688e-01	-8.759898e-01	5.350217e-01	
4.218750e-01	-8.875538e-01	5.758349e-01	
4.257812e-01	-8.985832e-01	6.152607e-01	
4.296875e-01	-9.090716e-01	6.532044e-01	
4.335938e-01	-9.190125e-01	6.895744e-01	
4.375000e-01	-9.284000e-01	7.242831e-01	
4.414062e-01	-9.372284e-01	7.572469e-01	
4.453125e-01	-9.454924e-01	7.883865e-01	
4.492188e-01	-9.531872e-01	8.176267e-01	
4.531250e-01	-9.603079e-01	8.448972e-01	
4.570312e-01	-9.668504e-01	8.701322e-01	
4.609375e-01	-9.728108e-01	8.932709e-01	
4.648438e-01	-9.781853e-01	9.142577e-01	
4.687500e-01	-9.829709e-01	9.330419e-01	
4.726562e-01	-9.871646e-01	9.495784e-01	
4.765625e-01	-9.907638e-01	9.638271e-01	
4.804688e-01	-9.937665e-01	9.757540e-01	
4.843750e-01	-9.961709e-01	9.853301e-01	
4.882812e-01	-9.979754e-01	9.925324e-01	
4.921875e-01	-9.991790e-01	9.973436e-01	
4.960938e-01	-9.997810e-01	9.997521e-01	
5.000000e-01	-9.997810e-01	9.997521e-01	
5.039062e-01	-9.991790e-01	9.973436e-01	
5.078125e-01	-9.979754e-01	9.925324e-01	
5.117188e-01	-9.961709e-01	9.853300e-01	
5.156250e-01	-9.937666e-01	9.757539e-01	
5.195312e-01	-9.907639e-01	9.638271e-01	
5.234375e-01	-9.871646e-01	9.495783e-01	
5.273438e-01	-9.829709e-01	9.330419e-01	
5.312500e-01	-9.781854e-01	9.142576e-01	
5.351562e-01	-9.728108e-01	8.932709e-01	
5.390625e-01	-9.668505e-01	8.701321e-01	
5.429688e-01	-9.603080e-01	8.448971e-01	
5.468750e-01	-9.531873e-01	8.176266e-01	
5.507812e-01	-9.454926e-01	7.883863e-01	
5.546875e-01	-9.372285e-01	7.572468e-01	
5.585938e-01	-9.284001e-01	7.242830e-01	
5.625000e-01	-9.190126e-01	6.895742e-01	
5.664062e-01	-9.090717e-01	6.532042e-01	
5.703125e-01	-8.985834e-01	6.152606e-01	
5.742188e-01	-8.875540e-01	5.758347e-01	
5.781250e-01	-8.759900e-01	5.350216e-01	
5.820312e-01	-8.638985e-01	4.929195e-01	
5.859375e-01	-8.512868e-01	4.496299e-01	
5.898438e-01	-8.381624e-01	4.052571e-01	
5.937500e-01	-8.245332e-01	3.599080e-01	
5.976562e-01	-8.104075e-01	3.136918e-01	
6.015625e-01	-7.957936e-01	2.667199e-01	
6.054688e-01	-7.807005e-01	2.191054e-01	
6.093750e-01	-7.651372e-01	1.709630e-01	
6.132812e-01	-7.491130e-01	1.224088e-01	
6.171875e-01	-7.326376e-01	7.355960e-02	
6.210938e-01	-7.157209e-01	2.453321e-02	
6.250000e-01	-6.983731e-01	-2.455230e-02	
6.289062e-01	-6.806046e-01	-7.357868e-02	
6.328125e-01	-6.624261e-01	-1.224278e-01	
6.367188e-01	-6.438486e-01	-1.709820e-01	
6.406250e-01	-6.248832e-01	-2.191244e-01	
6.445312e-01	-6.055413e-01	-2.667388e-01	
6.484375e-01	-5.858347e-01	-3.137107e-01	
6.523438e-01	-5.657750e-01	-3.599268e-01	
6.562500e-01	-5.453745e-01	-4.052759e-01	
6.601562e-01	-5.246454e-01	-4.496486e-01	
6.640625e-01	-5.036001e-01	-4.929381e-01	
6.679688e-01	-4.822514e-01	-5.350401e-01	
6.718750e-01	-4.606121e-01	-5.758531e-01	
6.757812e-01	-4.386951e-01	-6.152789e-01	
6.796875e-01	-4.165138e-01	-6.532224e-01	
6.835938e-01	-3.940814e-01	-6.895923e-01	
6.875000e-01	-3.714115e-01	-7.243009e-01	
6.914062e-01	-3.485176e-01	-7.572646e-01	
6.953125e-01	-3.254137e-01	-7.884040e-01	
6.992188e-01	-3.021136e-01	-8.176440e-01	
7.031250e-01	-2.786312e-01	-8.449143e-01	
7.070312e-01	-2.549809e-01	-8.701492e-01	
7.109375e-01	-2.311767e-01	-8.932878e-01	
7.148438e-01	-2.072331e-01	-9.142744e-01	
7.187500e-01	-1.831644e-01	-9.330584e-01	
7.226562e-01	-1.589852e-01	-9.495946e-01	
7.265625e-01	-1.347099e-01	-9.638432e-01	
7.304688e-01	-1.103533e-01	-9.757698e-01	
7.343750e-01	-8.593002e-02	-9.853457e-01	
7.382812e-01	-6.145472e-02	-9.925478e-01	
7.421875e-01	-3.694216e-02	-9.973588e-01	
7.460938e-01	-1.240711e-02	-9.997671e-01	
7.500000e-01	1.213566e-02	-9.997668e-01	
7.539062e-01	3.667135e-02	-9.973581e-01	
7.578125e-01	6.118519e-02	-9.925466e-01	
7.617188e-01	8.566242e-02	-9.853440e-01	
7.656250e-01	1.100883e-01	-9.757676e-01	
7.695312e-01	1.344481e-01	-9.638405e-01	
7.734375e-01	1.587271e-01	-9.495914e-01	
7.773438e-01	1.829107e-01	-9.330547e-01	
7.812500e-01	2.069844e-01	-9.142702e-01	
7.851562e-01	2.309336e-01	-8.932831e-01	
7.890625e-01	2.547440e-01	-8.701441e-01	
7.929688e-01	2.784011e-01	-8.449087e-01	
7.968750e-01	3.018907e-01	-8.176379e-01	
8.007812e-01	3.251986e-01	-7.883974e-01	
8.046875e-01	3.483109e-01	-7.572575e-01	
8.085938e-01	3.712135e-01	-7.242934e-01	
8.125000e-01	3.938927e-01	-6.895843e-01	
8.164062e-01	4.163347e-01	-6.532140e-01	
8.203125e-01	4.385262e-01	-6.152700e-01	
8.242188e-01	4.604537e-01	-5.758438e-01	
8.281250e-01	4.821039e-01	-5.350304e-01	
8.320312e-01	5.034638e-01	-4.929279e-01	
8.359375e-01	5.245206e-01	-4.496380e-01	
8.398438e-01	5.452616e-01	-4.052649e-01	
8.437500e-01	5.656742e-01	-3.599154e-01	
8.476562e-01	5.857462e-01	-3.136989e-01	
8.515625e-01	6.054654e-01	-2.667266e-01	
8.554688e-01	6.248199e-01	-2.191118e-01	
8.593750e-01	6.437981e-01	-1.709691e-01	
8.632812e-01	6.623886e-01	-1.224145e-01	
8.671875e-01	6.805801e-01	-7.356495e-02	
8.710938e-01	6.983617e-01	-2.453821e-02	
8.750000e-01	7.157226e-01	2.454764e-02	
8.789062e-01	7.326523e-01	7.357437e-02	
8.828125e-01	7.491408e-01	1.224239e-01	
8.867188e-01	7.651779e-01	1.709784e-01	
8.906250e-01	7.807541e-01	2.191211e-01	
8.945312e-01	7.958599e-01	2.667359e-01	
8.984375e-01	8.104863e-01	3.137081e-01	
9.023438e-01	8.246244e-01	3.599246e-01	
9.062500e-01	8.382657e-01	4.052740e-01	
9.101562e-01	8.514019e-01	4.496471e-01	
9.140625e-01	8.640252e-01	4.929369e-01	
9.179688e-01	8.761279e-01	5.350392e-01	
9.218750e-01	8.877027e-01	5.758526e-01	
9.257812e-01	8.987427e-01	6.152787e-01	
9.296875e-01	9.092411e-01	6.532225e-01	
9.335938e-01	9.191917e-01	6.895927e-01	
9.375000e-01	9.285884e-01	7.243017e-01	
9.414062e-01	9.374256e-01	7.572657e-01	
9.453125e-01	9.456980e-01	7.884054e-01	
9.492188e-01	9.534005e-01	8.176458e-01	
9.531250e-01	9.605285e-01	8.449164e-01	
9.570312e-01	9.670778e-01	8.701515e-01	
9.609375e-01	9.730443e-01	8.932904e-01	
9.648438e-01	9.784244e-01	9.142773e-01	
9.687500e-01	9.832150e-01	9.330616e-01	
9.726562e-01	9.874131e-01	9.495982e-01	
9.765625e-01	9.910161e-01	9.638470e-01	
9.804688e-01	9.940220e-01	9.757739e-01	
9.843750e-01	9.964289e-01	9.853501e-01	
9.882812e-01	9.982353e-01	9.925524e-01	
9.921875e-01	9.994402e-01	9.973637e-01	
9.960938e-01	1.000043e+00	9.997722e-01	
