Position [m]	T (fluid)  	T (solid)
0.000000e+00	1.000013e+00	9.999447e-01	
1.953125e-03	9.998620e-01	9.993424e-01	
3.906250e-03	9.995608e-01	9.981381e-01	
5.859375e-03	9.991090e-01	9.963326e-01	
7.812500e-03	9.985068e-01	9.939269e-01	
9.765625e-03	9.977542e-01	9.909225e-01	
1.171875e-02	9.968513e-01	9.873212e-01	
1.367188e-02	9.957983e-01	9.831252e-01	
1.562500e-02	9.945953e-01	9.783370e-01	
1.757812e-02	9.932425e-01	9.729595e-01	
1.953125e-02	9.917401e-01	9.669959e-01	
2.148438e-02	9.900883e-01	9.604498e-01	
2.343750e-02	9.882874e-01	9.533252e-01	
2.539062e-02	9.863377e-01	9.456264e-01	
2.734375e-02	9.842394e-01	9.373579e-01	
2.929688e-02	9.819929e-01	9.285248e-01	
3.125000e-02	9.795985e-01	9.191324e-01	
3.320312e-02	9.770565e-01	9.091864e-01	
3.515625e-02	9.743674e-01	8.986927e-01	
3.710938e-02	9.715316e-01	8.876576e-01	
3.906250e-02	9.685494e-01	8.760879e-01	
4.101562e-02	9.654213e-01	8.639905e-01	
4.296875e-02	9.621479e-01	8.513726e-01	
4.492188e-02	9.587295e-01	8.382418e-01	
4.687500e-02	9.551667e-01	8.246062e-01	
4.882812e-02	9.514601e-01	8.104738e-01	
5.078125e-02	9.476102e-01	7.958533e-01	
5.273438e-02	9.436176e-01	7.807533e-01	
5.468750e-02	9.394828e-01	7.651831e-01	
5.664062e-02	9.352066e-01	7.491519e-01	
5.859375e-02	9.307895e-01	7.326695e-01	
6.054688e-02	9.262322e-01	7.157458e-01	
6.250000e-02	9.215354e-01	6.983909e-01	
6.445312e-02	9.166998e-01	6.806153e-01	
6.640625e-02	9.117262e-01	6.624298e-01	
6.835938e-02	9.066153e-01	6.438452e-01	
7.031250e-02	9.013678e-01	6.248728e-01	
7.226562e-02	8.959845e-01	6.055240e-01	
7.421875e-02	8.904663e-01	5.858105e-01	
7.617188e-02	8.848140e-01	5.657441e-01	
7.812500e-02	8.790285e-01	5.453369e-01	
8.007812e-02	8.731106e-01	5.246012e-01	
8.203125e-02	8.670611e-01	5.035495e-01	
8.398438e-02	8.608811e-01	4.821945e-01	
8.593750e-02	8.545714e-01	4.605491e-01	
8.789062e-02	8.481331e-01	4.386262e-01	
8.984375e-02	8.415670e-01	4.164391e-01	
9.179688e-02	8.348741e-01	3.940012e-01	
9.375000e-02	8.280555e-01	3.713260e-01	
9.570312e-02	8.211122e-01	3.484270e-01	
9.765625e-02	8.140453e-01	3.253182e-01	
9.960938e-02	8.068557e-01	3.020135e-01	
1.015625e-01	7.995447e-01	2.785268e-01	
1.035156e-01	7.921132e-01	2.548723e-01	
1.054688e-01	7.845624e-01	2.310643e-01	
1.074219e-01	7.768935e-01	2.071172e-01	
1.093750e-01	7.691075e-01	1.830452e-01	
1.113281e-01	7.612058e-01	1.588631e-01	
1.132812e-01	7.531894e-01	1.345852e-01	
1.152344e-01	7.450596e-01	1.102262e-01	
1.171875e-01	7.368175e-01	8.580089e-02	
1.191406e-01	7.284645e-01	6.132387e-02	
1.210938e-01	7.200018e-01	3.680991e-02	
1.230469e-01	7.114307e-01	1.227377e-02	
1.250000e-01	7.027525e-01	-1.226975e-02	
1.269531e-01	6.939684e-01	-3.680589e-02	
1.289062e-01	6.850797e-01	-6.131985e-02	
1.308594e-01	6.760880e-01	-8.579688e-02	
1.328125e-01	6.669944e-01	-1.102222e-01	
1.347656e-01	6.578003e-01	-1.345812e-01	
1.367188e-01	6.485072e-01	-1.588591e-01	
1.386719e-01	6.391165e-01	-1.830413e-01	
1.406250e-01	6.296295e-01	-2.071132e-01	
1.425781e-01	6.200476e-01	-2.310604e-01	
1.445312e-01	6.103724e-01	-2.548684e-01	
1.464844e-01	6.006053e-01	-2.785228e-01	
1.484375e-01	5.907478e-01	-3.020095e-01	
1.503906e-01	5.808012e-01	-3.253143e-01	
1.523438e-01	5.707673e-01	-3.484231e-01	
1.542969e-01	5.606473e-01	-3.713221e-01	
1.562500e-01	5.504430e-01	-3.939973e-01	
1.582031e-01	5.401557e-01	-4.164353e-01	
1.601562e-01	5.297871e-01	-4.386224e-01	
1.621094e-01	5.193388e-01	-4.605453e-01	
1.640625e-01	5.088122e-01	-4.821908e-01	
1.660156e-01	4.982090e-01	-5.035458e-01	
1.679688e-01	4.875308e-01	-5.245975e-01	
1.699219e-01	4.767792e-01	-5.453332e-01	
1.718750e-01	4.659558e-01	-5.657404e-01	
1.738281e-01	4.550622e-01	-5.858068e-01	
1.757812e-01	4.441001e-01	-6.055204e-01	
1.777344e-01	4.330711e-01	-6.248692e-01	
1.796875e-01	4.219770e-01	-6.438416e-01	
1.816406e-01	4.108192e-01	-6.624262e-01	
1.835938e-01	3.995997e-01	-6.806118e-01	
1.855469e-01	3.883199e-01	-6.983874e-01	
1.875000e-01	3.769817e-01	-7.157424e-01	
1.894531e-01	3.655867e-01	-7.326661e-01	
1.914062e-01	3.541367e-01	-7.491486e-01	
1.933594e-01	3.426334e-01	-7.651798e-01	
1.953125e-01	3.310784e-01	-7.807501e-01	
1.972656e-01	3.194737e-01	-7.958501e-01	
1.992188e-01	3.078208e-01	-8.104707e-01	
2.011719e-01	2.961216e-01	-8.246031e-01	
2.031250e-01	2.843778e-01	-8.382387e-01	
2.050781e-01	2.725912e-01	-8.513695e-01	
2.070312e-01	2.607635e-01	-8.639874e-01	
2.089844e-01	2.488966e-01	-8.760849e-01	
2.109375e-01	2.369922e-01	-8.876547e-01	
2.128906e-01	2.250521e-01	-8.986898e-01	
2.148438e-01	2.130782e-01	-9.091836e-01	
2.167969e-01	2.010722e-01	-9.191297e-01	
2.187500e-01	1.890359e-01	-9.285221e-01	
2.207031e-01	1.769712e-01	-9.373553e-01	
2.226562e-01	1.648798e-01	-9.456238e-01	
2.246094e-01	1.527636e-01	-9.533227e-01	
2.265625e-01	1.406244e-01	-9.604473e-01	
2.285156e-01	1.284641e-01	-9.669935e-01	
2.304688e-01	1.162844e-01	-9.729571e-01	
2.324219e-01	1.040872e-01	-9.783347e-01	
2.343750e-01	9.187438e-02	-9.831229e-01	
2.363281e-01	7.964773e-02	-9.873190e-01	
2.382812e-01	6.740909e-02	-9.909204e-01	
2.402344e-01	5.516031e-02	-9.939248e-01	
2.421875e-01	4.290325e-02	-9.963306e-01	
2.441406e-01	3.063974e-02	-9.981362e-01	
2.460938e-01	1.837162e-02	-9.993405e-01	
2.480469e-01	6.100759e-03	-9.999429e-01	
2.500000e-01	-6.171009e-03	-9.999430e-01	
2.519531e-01	-1.844183e-02	-9.993407e-01	
2.539062e-01	-3.070986e-02	-9.981365e-01	
2.558594e-01	-4.297326e-02	-9.963310e-01	
2.578125e-01	-5.523016e-02	-9.939254e-01	
2.597656e-01	-6.747874e-02	-9.909211e-01	
2.617188e-01	-7.971713e-02	-9.873199e-01	
2.636719e-01	-9.194351e-02	-9.831239e-01	
2.656250e-01	-1.041560e-01	-9.783358e-01	
2.675781e-01	-1.163528e-01	-9.729584e-01	
2.695312e-01	-1.285321e-01	-9.669949e-01	
2.714844e-01	-1.406920e-01	-9.604489e-01	
2.734375e-01	-1.528307e-01	-9.533243e-01	
2.753906e-01	-1.649464e-01	-9.456256e-01	
2.773438e-01	-1.770372e-01	-9.373572e-01	
2.792969e-01	-1.891014e-01	-9.285242e-01	
2.812500e-01	-2.011370e-01	-9.191319e-01	
2.832031e-01	-2.131424e-01	-9.091859e-01	
2.851562e-01	-2.251156e-01	-8.986923e-01	
2.871094e-01	-2.370550e-01	-8.876573e-01	
2.890625e-01	-2.489586e-01	-8.760876e-01	
2.910156e-01	-2.608247e-01	-8.639903e-01	
2.929688e-01	-2.726515e-01	-8.513725e-01	
2.949219e-01	-2.844372e-01	-8.382418e-01	
2.968750e-01	-2.961801e-01	-8.246063e-01	
2.988281e-01	-3.078784e-01	-8.104740e-01	
3.007812e-01	-3.195303e-01	-7.958535e-01	
3.027344e-01	-3.311341e-01	-7.807537e-01	
3.046875e-01	-3.426880e-01	-7.651835e-01	
3.066406e-01	-3.541903e-01	-7.491524e-01	
3.085938e-01	-3.656392e-01	-7.326701e-01	
3.105469e-01	-3.770330e-01	-7.157464e-01	
3.125000e-01	-3.883701e-01	-6.983916e-01	
3.144531e-01	-3.996487e-01	-6.806162e-01	
3.164062e-01	-4.108670e-01	-6.624307e-01	
3.183594e-01	-4.220235e-01	-6.438462e-01	
3.203125e-01	-4.331164e-01	-6.248739e-01	
3.222656e-01	-4.441441e-01	-6.055252e-01	
3.242188e-01	-4.551049e-01	-5.858118e-01	
3.261719e-01	-4.659971e-01	-5.657454e-01	
3.281250e-01	-4.768192e-01	-5.453384e-01	
3.300781e-01	-4.875694e-01	-5.246028e-01	
3.320312e-01	-4.982462e-01	-5.035512e-01	
3.339844e-01	-5.088480e-01	-4.821963e-01	
3.359375e-01	-5.193731e-01	-4.605509e-01	
3.378906e-01	-5.298200e-01	-4.386281e-01	
3.398438e-01	-5.401871e-01	-4.164412e-01	
3.417969e-01	-5.504729e-01	-3.940033e-01	
3.437500e-01	-5.606757e-01	-3.713282e-01	
3.457031e-01	-5.707941e-01	-3.484293e-01	
3.476562e-01	-5.808266e-01	-3.253206e-01	
3.496094e-01	-5.907715e-01	-3.020159e-01	
3.515625e-01	-6.006275e-01	-2.785293e-01	
3.535156e-01	-6.103931e-01	-2.548750e-01	
3.554688e-01	-6.200667e-01	-2.310671e-01	
3.574219e-01	-6.296469e-01	-2.071200e-01	
3.593750e-01	-6.391323e-01	-1.830482e-01	
3.613281e-01	-6.485215e-01	-1.588661e-01	
3.632812e-01	-6.578129e-01	-1.345883e-01	
3.652344e-01	-6.670054e-01	-1.102295e-01	
3.671875e-01	-6.760973e-01	-8.580422e-02	
3.691406e-01	-6.850875e-01	-6.132730e-02	
3.710938e-01	-6.939745e-01	-3.681343e-02	
3.730469e-01	-7.027569e-01	-1.227739e-02	
3.750000e-01	-7.114336e-01	1.226604e-02	
3.769531e-01	-7.200030e-01	3.680208e-02	
3.789062e-01	-7.284641e-01	6.131595e-02	
3.808594e-01	-7.368155e-01	8.579288e-02	
3.828125e-01	-7.450559e-01	1.102181e-01	
3.847656e-01	-7.531841e-01	1.345770e-01	
3.867188e-01	-7.611989e-01	1.588548e-01	
3.886719e-01	-7.690990e-01	1.830369e-01	
3.906250e-01	-7.768833e-01	2.071087e-01	
3.925781e-01	-7.845507e-01	2.310558e-01	
3.945312e-01	-7.920999e-01	2.548637e-01	
3.964844e-01	-7.995298e-01	2.785181e-01	
3.984375e-01	-8.068393e-01	3.020047e-01	
4.003906e-01	-8.140273e-01	3.253094e-01	
4.023438e-01	-8.210927e-01	3.484181e-01	
4.042969e-01	-8.280344e-01	3.713169e-01	
4.062500e-01	-8.348515e-01	3.939921e-01	
4.082031e-01	-8.415429e-01	4.164300e-01	
4.101562e-01	-8.481075e-01	4.386170e-01	
4.121094e-01	-8.545444e-01	4.605398e-01	
4.140625e-01	-8.608527e-01	4.821852e-01	
4.160156e-01	-8.670312e-01	5.035401e-01	
4.179688e-01	-8.730793e-01	5.245917e-01	
4.199219e-01	-8.789958e-01	5.453273e-01	
4.218750e-01	-8.847800e-01	5.657344e-01	
4.238281e-01	-8.904310e-01	5.858008e-01	
4.257812e-01	-8.959479e-01	6.055142e-01	
4.277344e-01	-9.013298e-01	6.248630e-01	
4.296875e-01	-9.065760e-01	6.438353e-01	
4.316406e-01	-9.116858e-01	6.624198e-01	
4.335938e-01	-9.166582e-01	6.806053e-01	
4.355469e-01	-9.214926e-01	6.983808e-01	
4.375000e-01	-9.261882e-01	7.157357e-01	
4.394531e-01	-9.307443e-01	7.326594e-01	
4.414062e-01	-9.351603e-01	7.491417e-01	
4.433594e-01	-9.394355e-01	7.651728e-01	
4.453125e-01	-9.435692e-01	7.807430e-01	
4.472656e-01	-9.475609e-01	7.958429e-01	
4.492188e-01	-9.514098e-01	8.104634e-01	
4.511719e-01	-9.551155e-01	8.245958e-01	
4.531250e-01	-9.586774e-01	8.382314e-01	
4.550781e-01	-9.620949e-01	8.513620e-01	
4.570312e-01	-9.653675e-01	8.639799e-01	
4.589844e-01	-9.684947e-01	8.760773e-01	
4.609375e-01	-9.714761e-01	8.876470e-01	
4.628906e-01	-9.743113e-01	8.986820e-01	
4.648438e-01	-9.769997e-01	9.091757e-01	
4.667969e-01	-9.795410e-01	9.191217e-01	
4.687500e-01	-9.819348e-01	9.285141e-01	
4.707031e-01	-9.841807e-01	9.373471e-01	
4.726562e-01	-9.862784e-01	9.456156e-01	
4.746094e-01	-9.882276e-01	9.533144e-01	
4.765625e-01	-9.900280e-01	9.604390e-01	
4.785156e-01	-9.916794e-01	9.669850e-01	
4.804688e-01	-9.931814e-01	9.729486e-01	
4.824219e-01	-9.945338e-01	9.783261e-01	
4.843750e-01	-9.957365e-01	9.831143e-01	
4.863281e-01	-9.967893e-01	9.873103e-01	
4.882812e-01	-9.976919e-01	9.909115e-01	
4.902344e-01	-9.984443e-01	9.939159e-01	
4.921875e-01	-9.990464e-01	9.963216e-01	
4.941406e-01	-9.994980e-01	9.981271e-01	
4.960938e-01	-9.997992e-01	9.993314e-01	
4.980469e-01	-9.999497e-01	9.999337e-01	
5.000000e-01	-9.999497e-01	9.999337e-01	
5.019531e-01	-9.997992e-01	9.993314e-01	
5.039062e-01	-9.994980e-01	9.981271e-01	
5.058594e-01	-9.990464e-01	9.963216e-01	
5.078125e-01	-9.984444e-01	9.939159e-01	
5.097656e-01	-9.976919e-01	9.909115e-01	
5.117188e-01	-9.967893e-01	9.873102e-01	
5.136719e-01	-9.957366e-01	9.831142e-01	
5.156250e-01	-9.945339e-01	9.783260e-01	
5.175781e-01	-9.931814e-01	9.729485e-01	
5.195312e-01	-9.916794e-01	9.669850e-01	
5.214844e-01	-9.900281e-01	9.604389e-01	
5.234375e-01	-9.882277e-01	9.533143e-01	
5.253906e-01	-9.862785e-01	9.456155e-01	
5.273438e-01	-9.841808e-01	9.373470e-01	
5.292969e-01	-9.819349e-01	9.285140e-01	
5.312500e-01	-9.795411e-01	9.191216e-01	
5.332031e-01	-9.769998e-01	9.091756e-01	
5.351562e-01	-9.743114e-01	8.986819e-01	
5.371094e-01	-9.714763e-01	8.876469e-01	
5.390625e-01	-9.684949e-01	8.760772e-01	
5.410156e-01	-9.653676e-01	8.639798e-01	
5.429688e-01	-9.620950e-01	8.513619e-01	
5.449219e-01	-9.586775e-01	8.382312e-01	
5.468750e-01	-9.551157e-01	8.245956e-01	
5.488281e-01	-9.514100e-01	8.104633e-01	
5.507812e-01	-9.475611e-01	7.958428e-01	
5.527344e-01	-9.435694e-01	7.807429e-01	
5.546875e-01	-9.394357e-01	7.651727e-01	
5.566406e-01	-9.351605e-01	7.491415e-01	
5.585938e-01	-9.307445e-01	7.326592e-01	
5.605469e-01	-9.261884e-01	7.157355e-01	
5.625000e-01	-9.214928e-01	6.983806e-01	
5.644531e-01	-9.166584e-01	6.806051e-01	
5.664062e-01	-9.116860e-01	6.624196e-01	
5.683594e-01	-9.065763e-01	6.438351e-01	
5.703125e-01	-9.013301e-01	6.248628e-01	
5.722656e-01	-8.959481e-01	6.055140e-01	
5.742188e-01	-8.904312e-01	5.858005e-01	
5.761719e-01	-8.847803e-01	5.657342e-01	
5.781250e-01	-8.789961e-01	5.453270e-01	
5.800781e-01	-8.730795e-01	5.245914e-01	
5.820312e-01	-8.670315e-01	5.035398e-01	
5.839844e-01	-8.608529e-01	4.821849e-01	
5.859375e-01	-8.545447e-01	4.605395e-01	
5.878906e-01	-8.481078e-01	4.386167e-01	
5.898438e-01	-8.415432e-01	4.164297e-01	
5.917969e-01	-8.348518e-01	3.939918e-01	
5.937500e-01	-8.280348e-01	3.713166e-01	
5.957031e-01	-8.210930e-01	3.484178e-01	
5.976562e-01	-8.140276e-01	3.253090e-01	
5.996094e-01	-8.068396e-01	3.020044e-01	
6.015625e-01	-7.995301e-01	2.785177e-01	
6.035156e-01	-7.921002e-01	2.548634e-01	
6.054688e-01	-7.845510e-01	2.310555e-01	
6.074219e-01	-7.768837e-01	2.071084e-01	
6.093750e-01	-7.690994e-01	1.830365e-01	
6.113281e-01	-7.611992e-01	1.588544e-01	
6.132812e-01	-7.531845e-01	1.345766e-01	
6.152344e-01	-7.450563e-01	1.102178e-01	
6.171875e-01	-7.368159e-01	8.579250e-02	
6.191406e-01	-7.284645e-01	6.131557e-02	
6.210938e-01	-7.200034e-01	3.680169e-02	
6.230469e-01	-7.114340e-01	1.226565e-02	
6.250000e-01	-7.027573e-01	-1.227779e-02	
6.269531e-01	-6.939749e-01	-3.681384e-02	
6.289062e-01	-6.850879e-01	-6.132771e-02	
6.308594e-01	-6.760978e-01	-8.580464e-02	
6.328125e-01	-6.670058e-01	-1.102299e-01	
6.347656e-01	-6.578134e-01	-1.345888e-01	
6.367188e-01	-6.485219e-01	-1.588665e-01	
6.386719e-01	-6.391328e-01	-1.830486e-01	
6.406250e-01	-6.296474e-01	-2.071205e-01	
6.425781e-01	-6.200671e-01	-2.310676e-01	
6.445312e-01	-6.103935e-01	-2.548754e-01	
6.464844e-01	-6.006280e-01	-2.785298e-01	
6.484375e-01	-5.907720e-01	-3.020164e-01	
6.503906e-01	-5.808270e-01	-3.253211e-01	
6.523438e-01	-5.707946e-01	-3.484298e-01	
6.542969e-01	-5.606762e-01	-3.713286e-01	
6.562500e-01	-5.504734e-01	-3.940038e-01	
6.582031e-01	-5.401876e-01	-4.164417e-01	
6.601562e-01	-5.298205e-01	-4.386286e-01	
6.621094e-01	-5.193736e-01	-4.605514e-01	
6.640625e-01	-5.088485e-01	-4.821968e-01	
6.660156e-01	-4.982467e-01	-5.035517e-01	
6.679688e-01	-4.875699e-01	-5.246033e-01	
6.699219e-01	-4.768197e-01	-5.453389e-01	
6.718750e-01	-4.659977e-01	-5.657460e-01	
6.738281e-01	-4.551054e-01	-5.858123e-01	
6.757812e-01	-4.441447e-01	-6.055258e-01	
6.777344e-01	-4.331170e-01	-6.248745e-01	
6.796875e-01	-4.220241e-01	-6.438468e-01	
6.816406e-01	-4.108676e-01	-6.624313e-01	
6.835938e-01	-3.996492e-01	-6.806167e-01	
6.855469e-01	-3.883707e-01	-6.983922e-01	
6.875000e-01	-3.770336e-01	-7.157470e-01	
6.894531e-01	-3.656398e-01	-7.326707e-01	
6.914062e-01	-3.541909e-01	-7.491530e-01	
6.933594e-01	-3.426886e-01	-7.651841e-01	
6.953125e-01	-3.311347e-01	-7.807543e-01	
6.972656e-01	-3.195309e-01	-7.958541e-01	
6.992188e-01	-3.078790e-01	-8.104746e-01	
7.011719e-01	-2.961808e-01	-8.246069e-01	
7.031250e-01	-2.844379e-01	-8.382425e-01	
7.050781e-01	-2.726521e-01	-8.513731e-01	
7.070312e-01	-2.608253e-01	-8.639909e-01	
7.089844e-01	-2.489592e-01	-8.760883e-01	
7.109375e-01	-2.370556e-01	-8.876579e-01	
7.128906e-01	-2.251163e-01	-8.986929e-01	
7.148438e-01	-2.131431e-01	-9.091865e-01	
7.167969e-01	-2.011377e-01	-9.191325e-01	
7.187500e-01	-1.891021e-01	-9.285248e-01	
7.207031e-01	-1.770379e-01	-9.373579e-01	
7.226562e-01	-1.649471e-01	-9.456262e-01	
7.246094e-01	-1.528314e-01	-9.533250e-01	
7.265625e-01	-1.406927e-01	-9.604496e-01	
7.285156e-01	-1.285328e-01	-9.669956e-01	
7.304688e-01	-1.163536e-01	-9.729591e-01	
7.324219e-01	-1.041567e-01	-9.783365e-01	
7.343750e-01	-9.194423e-02	-9.831247e-01	
7.363281e-01	-7.971786e-02	-9.873206e-01	
7.382812e-01	-6.747946e-02	-9.909218e-01	
7.402344e-01	-5.523089e-02	-9.939261e-01	
7.421875e-01	-4.297399e-02	-9.963317e-01	
7.441406e-01	-3.071061e-02	-9.981372e-01	
7.460938e-01	-1.844258e-02	-9.993414e-01	
7.480469e-01	-6.171759e-03	-9.999437e-01	
7.500000e-01	6.100005e-03	-9.999436e-01	
7.519531e-01	1.837086e-02	-9.993413e-01	
7.539062e-01	3.063897e-02	-9.981369e-01	
7.558594e-01	4.290248e-02	-9.963313e-01	
7.578125e-01	5.515954e-02	-9.939256e-01	
7.597656e-01	6.740831e-02	-9.909211e-01	
7.617188e-01	7.964694e-02	-9.873198e-01	
7.636719e-01	9.187360e-02	-9.831237e-01	
7.656250e-01	1.040864e-01	-9.783355e-01	
7.675781e-01	1.162836e-01	-9.729579e-01	
7.695312e-01	1.284633e-01	-9.669943e-01	
7.714844e-01	1.406236e-01	-9.604481e-01	
7.734375e-01	1.527628e-01	-9.533235e-01	
7.753906e-01	1.648790e-01	-9.456246e-01	
7.773438e-01	1.769703e-01	-9.373561e-01	
7.792969e-01	1.890351e-01	-9.285229e-01	
7.812500e-01	2.010714e-01	-9.191305e-01	
7.832031e-01	2.130774e-01	-9.091844e-01	
7.851562e-01	2.250513e-01	-8.986906e-01	
7.871094e-01	2.369914e-01	-8.876556e-01	
7.890625e-01	2.488957e-01	-8.760858e-01	
7.910156e-01	2.607627e-01	-8.639883e-01	
7.929688e-01	2.725903e-01	-8.513703e-01	
7.949219e-01	2.843769e-01	-8.382396e-01	
7.968750e-01	2.961207e-01	-8.246039e-01	
7.988281e-01	3.078199e-01	-8.104715e-01	
8.007812e-01	3.194728e-01	-7.958509e-01	
8.027344e-01	3.310776e-01	-7.807509e-01	
8.046875e-01	3.426325e-01	-7.651806e-01	
8.066406e-01	3.541358e-01	-7.491495e-01	
8.085938e-01	3.655859e-01	-7.326670e-01	
8.105469e-01	3.769808e-01	-7.157432e-01	
8.125000e-01	3.883190e-01	-6.983883e-01	
8.144531e-01	3.995988e-01	-6.806127e-01	
8.164062e-01	4.108184e-01	-6.624271e-01	
8.183594e-01	4.219761e-01	-6.438425e-01	
8.203125e-01	4.330702e-01	-6.248701e-01	
8.222656e-01	4.440992e-01	-6.055213e-01	
8.242188e-01	4.550613e-01	-5.858077e-01	
8.261719e-01	4.659549e-01	-5.657413e-01	
8.281250e-01	4.767783e-01	-5.453341e-01	
8.300781e-01	4.875299e-01	-5.245984e-01	
8.320312e-01	4.982081e-01	-5.035467e-01	
8.339844e-01	5.088113e-01	-4.821917e-01	
8.359375e-01	5.193379e-01	-4.605462e-01	
8.378906e-01	5.297862e-01	-4.386233e-01	
8.398438e-01	5.401548e-01	-4.164362e-01	
8.417969e-01	5.504420e-01	-3.939983e-01	
8.437500e-01	5.606464e-01	-3.713230e-01	
8.457031e-01	5.707663e-01	-3.484241e-01	
8.476562e-01	5.808003e-01	-3.253152e-01	
8.496094e-01	5.907468e-01	-3.020105e-01	
8.515625e-01	6.006044e-01	-2.785238e-01	
8.535156e-01	6.103715e-01	-2.548693e-01	
8.554688e-01	6.200467e-01	-2.310613e-01	
8.574219e-01	6.296285e-01	-2.071141e-01	
8.593750e-01	6.391155e-01	-1.830422e-01	
8.613281e-01	6.485063e-01	-1.588600e-01	
8.632812e-01	6.577994e-01	-1.345821e-01	
8.652344e-01	6.669934e-01	-1.102232e-01	
8.671875e-01	6.760870e-01	-8.579784e-02	
8.691406e-01	6.850788e-01	-6.132081e-02	
8.710938e-01	6.939674e-01	-3.680685e-02	
8.730469e-01	7.027515e-01	-1.227072e-02	
8.750000e-01	7.114297e-01	1.227281e-02	
8.769531e-01	7.200009e-01	3.680894e-02	
8.789062e-01	7.284636e-01	6.132290e-02	
8.808594e-01	7.368165e-01	8.579992e-02	
8.828125e-01	7.450586e-01	1.102253e-01	
8.847656e-01	7.531884e-01	1.345842e-01	
8.867188e-01	7.612048e-01	1.588621e-01	
8.886719e-01	7.691065e-01	1.830443e-01	
8.906250e-01	7.768925e-01	2.071162e-01	
8.925781e-01	7.845614e-01	2.310633e-01	
8.945312e-01	7.921122e-01	2.548713e-01	
8.964844e-01	7.995436e-01	2.785258e-01	
8.984375e-01	8.068547e-01	3.020125e-01	
9.003906e-01	8.140443e-01	3.253172e-01	
9.023438e-01	8.211112e-01	3.484260e-01	
9.042969e-01	8.280545e-01	3.713250e-01	
9.062500e-01	8.348731e-01	3.940002e-01	
9.082031e-01	8.415659e-01	4.164381e-01	
9.101562e-01	8.481320e-01	4.386252e-01	
9.121094e-01	8.545704e-01	4.605481e-01	
9.140625e-01	8.608801e-01	4.821935e-01	
9.160156e-01	8.670601e-01	5.035485e-01	
9.179688e-01	8.731095e-01	5.246002e-01	
9.199219e-01	8.790275e-01	5.453359e-01	
9.218750e-01	8.848130e-01	5.657431e-01	
9.238281e-01	8.904653e-01	5.858095e-01	
9.257812e-01	8.959835e-01	6.055230e-01	
9.277344e-01	9.013667e-01	6.248718e-01	
9.296875e-01	9.066142e-01	6.438442e-01	
9.316406e-01	9.117252e-01	6.624287e-01	
9.335938e-01	9.166988e-01	6.806143e-01	
9.355469e-01	9.215344e-01	6.983899e-01	
9.375000e-01	9.262311e-01	7.157447e-01	
9.394531e-01	9.307884e-01	7.326685e-01	
9.414062e-01	9.352055e-01	7.491509e-01	
9.433594e-01	9.394818e-01	7.651821e-01	
9.453125e-01	9.436165e-01	7.807523e-01	
9.472656e-01	9.476091e-01	7.958523e-01	
9.492188e-01	9.514591e-01	8.104728e-01	
9.511719e-01	9.551657e-01	8.246052e-01	
9.531250e-01	9.587284e-01	8.382408e-01	
9.550781e-01	9.621468e-01	8.513715e-01	
9.570312e-01	9.654203e-01	8.639894e-01	
9.589844e-01	9.685483e-01	8.760869e-01	
9.609375e-01	9.715305e-01	8.876566e-01	
9.628906e-01	9.743664e-01	8.986916e-01	
9.648438e-01	9.770555e-01	9.091853e-01	
9.667969e-01	9.795974e-01	9.191314e-01	
9.687500e-01	9.819918e-01	9.285238e-01	
9.707031e-01	9.842383e-01	9.373569e-01	
9.726562e-01	9.863366e-01	9.456253e-01	
9.746094e-01	9.882864e-01	9.533242e-01	
9.765625e-01	9.900872e-01	9.604488e-01	
9.785156e-01	9.917390e-01	9.669949e-01	
9.804688e-01	9.932414e-01	9.729584e-01	
9.824219e-01	9.945942e-01	9.783360e-01	
9.843750e-01	9.957972e-01	9.831242e-01	
9.863281e-01	9.968502e-01	9.873202e-01	
9.882812e-01	9.977531e-01	9.909214e-01	
9.902344e-01	9.985057e-01	9.939258e-01	
9.921875e-01	9.991079e-01	9.963315e-01	
9.941406e-01	9.995597e-01	9.981370e-01	
9.960938e-01	9.998609e-01	9.993413e-01	
9.980469e-01	1.000012e+00	9.999437e-01	
