Position [m]	T (fluid)  	T (solid)
0.000000e+00	9.968179e-01	9.912637e-01	
1.562500e-02	9.968179e-01	9.912637e-01	
1.562500e-02	8.463279e-01	7.602184e-01	
3.125000e-02	8.463279e-01	7.602184e-01	
3.125000e-02	5.684558e-01	3.526872e-01	
4.687500e-02	5.684558e-01	3.526872e-01	
4.687500e-02	2.057583e-01	-1.350966e-01	
6.250000e-02	2.057583e-01	-1.350966e-01	
6.250000e-02	-1.862445e-01	-5.879500e-01	
7.812500e-02	-1.862445e-01	-5.879500e-01	
7.812500e-02	-5.475908e-01	-8.989388e-01	
9.375000e-02	-5.475908e-01	-8.989388e-01	
9.375000e-02	-8.230694e-01	-9.946279e-01	
1.093750e-01	-8.230694e-01	-9.946279e-01	
1.093750e-01	-9.706709e-01	-8.524215e-01	
1.250000e-01	-9.706709e-01	-8.524215e-01	
1.250000e-01	-9.679972e-01	-5.058972e-01	
1.406250e-01	-9.679972e-01	-5.058972e-01	
1.406250e-01	-8.156530e-01	-3.687631e-02	
1.562500e-01	-8.156530e-01	-3.687631e-02	
1.562500e-01	-5.371053e-01	4.438990e-01	
1.718750e-01	-5.371053e-01	4.438990e-01	
1.718750e-01	-1.750441e-01	8.229161e-01	
1.875000e-01	-1.750441e-01	8.229161e-01	
1.875000e-01	2.151849e-01	1.010697e+00	
2.031250e-01	2.151849e-01	1.010697e+00	
2.031250e-01	5.740610e-01	9.629239e-01	
2.187500e-01	5.740610e-01	9.629239e-01	
2.187500e-01	8.469784e-01	6.909069e-01	
2.343750e-01	8.469784e-01	6.909069e-01	
2.343750e-01	9.925532e-01	2.589056e-01	
2.500000e-01	9.925532e-01	2.589056e-01	
2.500000e-01	9.888869e-01	-2.310453e-01	
2.656250e-01	9.888869e-01	-2.310453e-01	
2.656250e-01	8.368390e-01	-6.632335e-01	
2.812500e-01	8.368390e-01	-6.632335e-01	
2.812500e-01	5.598268e-01	-9.355950e-01	
2.968750e-01	5.598268e-01	-9.355950e-01	
2.968750e-01	2.001982e-01	-9.838157e-01	
3.125000e-01	2.001982e-01	-9.838157e-01	
3.125000e-01	-1.872553e-01	-7.965169e-01	
3.281250e-01	-1.872553e-01	-7.965169e-01	
3.281250e-01	-5.436483e-01	-4.179399e-01	
3.437500e-01	-5.436483e-01	-4.179399e-01	
3.437500e-01	-8.149407e-01	6.250515e-02	
3.593750e-01	-8.149407e-01	6.250515e-02	
3.593750e-01	-9.601122e-01	5.313566e-01	
3.750000e-01	-9.601122e-01	5.313566e-01	
3.750000e-01	-9.573389e-01	8.778979e-01	
3.906250e-01	-9.573389e-01	8.778979e-01	
3.906250e-01	-8.072490e-01	1.020304e+00	
4.062500e-01	-8.072490e-01	1.020304e+00	
4.062500e-01	-5.327767e-01	9.249669e-01	
4.218750e-01	-5.327767e-01	9.249669e-01	
4.218750e-01	-1.756495e-01	6.144267e-01	
4.375000e-01	-1.756495e-01	6.144267e-01	
4.375000e-01	2.099526e-01	1.620501e-01	
4.531250e-01	2.099526e-01	1.620501e-01	
4.531250e-01	5.656021e-01	-3.253010e-01	
4.687500e-01	5.656021e-01	-3.253010e-01	
4.687500e-01	8.374556e-01	-7.325075e-01	
4.843750e-01	8.374556e-01	-7.325075e-01	
4.843750e-01	9.843809e-01	-9.633829e-01	
5.000000e-01	9.843809e-01	-9.633829e-01	
5.000000e-01	9.841611e-01	-9.633892e-01	
5.156250e-01	9.841611e-01	-9.633892e-01	
5.156250e-01	8.368424e-01	-7.325177e-01	
5.312500e-01	8.368424e-01	-7.325177e-01	
5.312500e-01	5.647257e-01	-3.252905e-01	
5.468750e-01	5.647257e-01	-3.252905e-01	
5.468750e-01	2.090033e-01	1.621173e-01	
5.625000e-01	2.090033e-01	1.621173e-01	
5.625000e-01	-1.764551e-01	6.145922e-01	
5.781250e-01	-1.764551e-01	6.145922e-01	
5.781250e-01	-5.332349e-01	9.252701e-01	
5.937500e-01	-5.332349e-01	9.252701e-01	
5.937500e-01	-8.072040e-01	1.020776e+00	
6.093750e-01	-8.072040e-01	1.020776e+00	
6.093750e-01	-9.567094e-01	8.785559e-01	
6.250000e-01	-9.567094e-01	8.785559e-01	
6.250000e-01	-9.589033e-01	5.322019e-01	
6.406250e-01	-9.589033e-01	5.322019e-01	
6.406250e-01	-8.132401e-01	6.352293e-02	
6.562500e-01	-8.132401e-01	6.352293e-02	
6.562500e-01	-5.416083e-01	-4.167775e-01	
6.718750e-01	-5.416083e-01	-4.167775e-01	
6.718750e-01	-1.850639e-01	-7.952456e-01	
6.875000e-01	-1.850639e-01	-7.952456e-01	
6.875000e-01	2.023513e-01	-9.824728e-01	
7.031250e-01	2.023513e-01	-9.824728e-01	
7.031250e-01	5.617822e-01	-9.342137e-01	
7.187500e-01	5.617822e-01	-9.342137e-01	
7.187500e-01	8.384928e-01	-6.618371e-01	
7.343750e-01	8.384928e-01	-6.618371e-01	
7.343750e-01	9.902047e-01	-2.296443e-01	
7.500000e-01	9.902047e-01	-2.296443e-01	
7.500000e-01	9.935709e-01	2.603146e-01	
7.656250e-01	9.935709e-01	2.603146e-01	
7.656250e-01	8.477915e-01	6.923398e-01	
7.812500e-01	8.477915e-01	6.923398e-01	
7.812500e-01	5.748045e-01	9.644060e-01	
7.968750e-01	5.748045e-01	9.644060e-01	
7.968750e-01	2.160083e-01	1.012258e+00	
8.125000e-01	2.160083e-01	1.012258e+00	
8.125000e-01	-1.740009e-01	8.245868e-01	
8.281250e-01	-1.740009e-01	8.245868e-01	
8.281250e-01	-5.357328e-01	4.457045e-01	
8.437500e-01	-5.357328e-01	4.457045e-01	
8.437500e-01	-8.138853e-01	-3.491829e-02	
8.593750e-01	-8.138853e-01	-3.491829e-02	
8.593750e-01	-9.658164e-01	-5.037790e-01	
8.750000e-01	-9.658164e-01	-5.037790e-01	
8.750000e-01	-9.681042e-01	-8.501455e-01	
8.906250e-01	-9.681042e-01	-8.501455e-01	
8.906250e-01	-8.201795e-01	-9.922061e-01	
9.062500e-01	-8.201795e-01	-9.922061e-01	
9.062500e-01	-5.444628e-01	-8.963902e-01	
9.218750e-01	-5.444628e-01	-8.963902e-01	
9.218750e-01	-1.829718e-01	-5.852982e-01	
9.375000e-01	-1.829718e-01	-5.852982e-01	
9.375000e-01	2.090875e-01	-1.323669e-01	
9.531250e-01	2.090875e-01	-1.323669e-01	
9.531250e-01	5.717695e-01	3.554705e-01	
9.687500e-01	5.717695e-01	3.554705e-01	
9.687500e-01	8.495796e-01	7.630336e-01	
9.843750e-01	8.495796e-01	7.630336e-01	
9.843750e-01	9.999941e-01	9.940930e-01	
1.000000e+00	9.999941e-01	9.940930e-01	
