Position [m]	T (fluid)  	T (solid)
0.000000e+00	9.986116e-01	9.922837e-01	
1.562500e-02	9.986116e-01	9.922837e-01	
1.562500e-02	9.600469e-01	9.068551e-01	
3.125000e-02	9.600469e-01	9.068551e-01	
3.125000e-02	8.844159e-01	7.433541e-01	
4.687500e-02	8.844159e-01	7.433541e-01	
4.687500e-02	7.746560e-01	5.158592e-01	
6.250000e-02	7.746560e-01	5.158592e-01	
6.250000e-02	6.350285e-01	2.439592e-01	
7.812500e-02	6.350285e-01	2.439592e-01	
7.812500e-02	4.709508e-01	-4.893368e-02	
9.375000e-02	4.709508e-01	-4.893368e-02	
9.375000e-02	2.887842e-01	-3.376000e-01	
1.093750e-01	2.887842e-01	-3.376000e-01	
1.093750e-01	9.558392e-02	-5.971847e-01	
1.250000e-01	9.558392e-02	-5.971847e-01	
1.250000e-01	-1.011760e-01	-8.053378e-01	
1.406250e-01	-1.011760e-01	-8.053378e-01	
1.406250e-01	-2.938948e-01	-9.441383e-01	
1.562500e-01	-2.938948e-01	-9.441383e-01	
1.562500e-01	-4.751398e-01	-1.001638e+00	
1.718750e-01	-4.751398e-01	-1.001638e+00	
1.718750e-01	-6.379351e-01	-9.728896e-01	
1.875000e-01	-6.379351e-01	-9.728896e-01	
1.875000e-01	-7.760300e-01	-8.603735e-01	
2.031250e-01	-7.760300e-01	-8.603735e-01	
2.031250e-01	-8.841390e-01	-6.737831e-01	
2.187500e-01	-8.841390e-01	-6.737831e-01	
2.187500e-01	-9.581431e-01	-4.291902e-01	
2.343750e-01	-9.581431e-01	-4.291902e-01	
2.343750e-01	-9.952447e-01	-1.476610e-01	
2.500000e-01	-9.952447e-01	-1.476610e-01	
2.500000e-01	-9.940717e-01	1.465583e-01	
2.656250e-01	-9.940717e-01	1.465583e-01	
2.656250e-01	-9.547251e-01	4.281299e-01	
2.812500e-01	-9.547251e-01	4.281299e-01	
2.812500e-01	-8.787704e-01	6.728059e-01	
2.968750e-01	-8.787704e-01	6.728059e-01	
2.968750e-01	-7.691730e-01	8.595169e-01	
3.125000e-01	-7.691730e-01	8.595169e-01	
3.125000e-01	-6.301803e-01	9.721866e-01	
3.281250e-01	-6.301803e-01	9.721866e-01	
3.281250e-01	-4.671550e-01	1.001115e+00	
3.437500e-01	-4.671550e-01	1.001115e+00	
3.437500e-01	-2.863677e-01	9.438163e-01	
3.593750e-01	-2.863677e-01	9.438163e-01	
3.593750e-01	-9.475484e-02	8.052288e-01	
3.750000e-01	-9.475484e-02	8.052288e-01	
3.750000e-01	1.003463e-01	5.972928e-01	
3.906250e-01	1.003463e-01	5.972928e-01	
3.906250e-01	2.914775e-01	3.379210e-01	
4.062500e-01	2.914775e-01	3.379210e-01	
4.062500e-01	4.713432e-01	4.945530e-02	
4.218750e-01	4.713432e-01	4.945530e-02	
4.218750e-01	6.330861e-01	-2.432570e-01	
4.375000e-01	6.330861e-01	-2.432570e-01	
4.375000e-01	7.705462e-01	-5.150035e-01	
4.531250e-01	7.705462e-01	-5.150035e-01	
4.531250e-01	8.784926e-01	-7.423779e-01	
4.687500e-01	8.784926e-01	-7.423779e-01	
4.687500e-01	9.528202e-01	-9.057959e-01	
4.843750e-01	9.528202e-01	-9.057959e-01	
4.843750e-01	9.907038e-01	-9.911821e-01	
5.000000e-01	9.907038e-01	-9.911821e-01	
5.000000e-01	9.907037e-01	-9.911821e-01	
5.156250e-01	9.907037e-01	-9.911821e-01	
5.156250e-01	9.528200e-01	-9.057959e-01	
5.312500e-01	9.528200e-01	-9.057959e-01	
5.312500e-01	8.784923e-01	-7.423780e-01	
5.468750e-01	8.784923e-01	-7.423780e-01	
5.468750e-01	7.705458e-01	-5.150037e-01	
5.625000e-01	7.705458e-01	-5.150037e-01	
5.625000e-01	6.330857e-01	-2.432573e-01	
5.781250e-01	6.330857e-01	-2.432573e-01	
5.781250e-01	4.713427e-01	4.945503e-02	
5.937500e-01	4.713427e-01	4.945503e-02	
5.937500e-01	2.914770e-01	3.379207e-01	
6.093750e-01	2.914770e-01	3.379207e-01	
6.093750e-01	1.003457e-01	5.972925e-01	
6.250000e-01	1.003457e-01	5.972925e-01	
6.250000e-01	-9.475535e-02	8.052285e-01	
6.406250e-01	-9.475535e-02	8.052285e-01	
6.406250e-01	-2.863681e-01	9.438160e-01	
6.562500e-01	-2.863681e-01	9.438160e-01	
6.562500e-01	-4.671555e-01	1.001115e+00	
6.718750e-01	-4.671555e-01	1.001115e+00	
6.718750e-01	-6.301807e-01	9.721863e-01	
6.875000e-01	-6.301807e-01	9.721863e-01	
6.875000e-01	-7.691733e-01	8.595167e-01	
7.031250e-01	-7.691733e-01	8.595167e-01	
7.031250e-01	-8.787705e-01	6.728057e-01	
7.187500e-01	-8.787705e-01	6.728057e-01	
7.187500e-01	-9.547252e-01	4.281297e-01	
7.343750e-01	-9.547252e-01	4.281297e-01	
7.343750e-01	-9.940718e-01	1.465582e-01	
7.500000e-01	-9.940718e-01	1.465582e-01	
7.500000e-01	-9.952447e-01	-1.476611e-01	
7.656250e-01	-9.952447e-01	-1.476611e-01	
7.656250e-01	-9.581431e-01	-4.291903e-01	
7.812500e-01	-9.581431e-01	-4.291903e-01	
7.812500e-01	-8.841390e-01	-6.737832e-01	
7.968750e-01	-8.841390e-01	-6.737832e-01	
7.968750e-01	-7.760300e-01	-8.603736e-01	
8.125000e-01	-7.760300e-01	-8.603736e-01	
8.125000e-01	-6.379351e-01	-9.728897e-01	
8.281250e-01	-6.379351e-01	-9.728897e-01	
8.281250e-01	-4.751398e-01	-1.001638e+00	
8.437500e-01	-4.751398e-01	-1.001638e+00	
8.437500e-01	-2.938948e-01	-9.441384e-01	
8.593750e-01	-2.938948e-01	-9.441384e-01	
8.593750e-01	-1.011761e-01	-8.053379e-01	
8.750000e-01	-1.011761e-01	-8.053379e-01	
8.750000e-01	9.558380e-02	-5.971849e-01	
8.906250e-01	9.558380e-02	-5.971849e-01	
8.906250e-01	2.887840e-01	-3.376001e-01	
9.062500e-01	2.887840e-01	-3.376001e-01	
9.062500e-01	4.709507e-01	-4.893386e-02	
9.218750e-01	4.709507e-01	-4.893386e-02	
9.218750e-01	6.350282e-01	2.439590e-01	
9.375000e-01	6.350282e-01	2.439590e-01	
9.375000e-01	7.746557e-01	5.158589e-01	
9.531250e-01	7.746557e-01	5.158589e-01	
9.531250e-01	8.844156e-01	7.433539e-01	
9.687500e-01	8.844156e-01	7.433539e-01	
9.687500e-01	9.600467e-01	9.068549e-01	
9.843750e-01	9.600467e-01	9.068549e-01	
9.843750e-01	9.986113e-01	9.922835e-01	
1.000000e+00	9.986113e-01	9.922835e-01	
