Position [m]	T (fluid)  	T (solid)
0.000000e+00	9.967774e-01	9.935869e-01
6.250000e-02	9.584717e-01	9.554039e-01
1.250000e-01	8.833326e-01	8.805052e-01
1.875000e-01	7.742474e-01	7.717693e-01
2.500000e-01	6.354084e-01	6.333747e-01
3.125000e-01	4.721510e-01	4.706399e-01
3.750000e-01	2.907490e-01	2.898186e-01
4.375000e-01	9.817380e-02	9.785976e-02
5.000000e-01	-9.817421e-02	-9.785976e-02
5.625000e-01	-2.907494e-01	-2.898186e-01
6.250000e-01	-4.721513e-01	-4.706399e-01
6.875000e-01	-6.354087e-01	-6.333747e-01
7.500000e-01	-7.742476e-01	-7.717693e-01
8.125000e-01	-8.833327e-01	-8.805052e-01
8.750000e-01	-9.584718e-01	-9.554039e-01
9.375000e-01	-9.967773e-01	-9.935869e-01
1.000000e+00	-9.967773e-01	-9.935869e-01
1.062500e+00	-9.584716e-01	-9.554039e-01
1.125000e+00	-8.833325e-01	-8.805052e-01
1.187500e+00	-7.742473e-01	-7.717693e-01
1.250000e+00	-6.354083e-01	-6.333747e-01
1.312500e+00	-4.721508e-01	-4.706399e-01
1.375000e+00	-2.907489e-01	-2.898186e-01
1.437500e+00	-9.817367e-02	-9.785976e-02
1.500000e+00	9.817434e-02	9.785976e-02
1.562500e+00	2.907496e-01	2.898186e-01
1.625000e+00	4.721515e-01	4.706399e-01
1.687500e+00	6.354088e-01	6.333747e-01
1.750000e+00	7.742478e-01	7.717693e-01
1.812500e+00	8.833329e-01	8.805052e-01
1.875000e+00	9.584720e-01	9.554039e-01
1.937500e+00	9.967775e-01	9.935869e-01
2.000000e+00	9.967775e-01	9.935869e-01
2.062500e+00	9.584718e-01	9.554039e-01
2.125000e+00	8.833327e-01	8.805052e-01
2.187500e+00	7.742475e-01	7.717693e-01
2.250000e+00	6.354085e-01	6.333747e-01
2.312500e+00	4.721511e-01	4.706399e-01
2.375000e+00	2.907492e-01	2.898186e-01
2.437500e+00	9.817397e-02	9.785976e-02
2.500000e+00	-9.817401e-02	-9.785976e-02
2.562500e+00	-2.907492e-01	-2.898186e-01
2.625000e+00	-4.721511e-01	-4.706399e-01
2.687500e+00	-6.354084e-01	-6.333747e-01
2.750000e+00	-7.742474e-01	-7.717693e-01
2.812500e+00	-8.833324e-01	-8.805052e-01
2.875000e+00	-9.584715e-01	-9.554039e-01
2.937500e+00	-9.967770e-01	-9.935869e-01
3.000000e+00	-9.967769e-01	-9.935869e-01
3.062500e+00	-9.584713e-01	-9.554039e-01
3.125000e+00	-8.833320e-01	-8.805052e-01
3.187500e+00	-7.742469e-01	-7.717693e-01
3.250000e+00	-6.354078e-01	-6.333747e-01
3.312500e+00	-4.721503e-01	-4.706399e-01
3.375000e+00	-2.907484e-01	-2.898186e-01
3.437500e+00	-9.817311e-02	-9.785976e-02
3.500000e+00	9.817493e-02	9.785976e-02
3.562500e+00	2.907502e-01	2.898186e-01
3.625000e+00	4.721521e-01	4.706399e-01
3.687500e+00	6.354095e-01	6.333747e-01
3.750000e+00	7.742485e-01	7.717693e-01
3.812500e+00	8.833336e-01	8.805052e-01
3.875000e+00	9.584728e-01	9.554039e-01
3.937500e+00	9.967784e-01	9.935869e-01
