Position [m]	T (fluid)  	T (solid)
0.000000e+00	9.961086e-01	9.744954e-01
6.250000e-02	8.458303e-01	8.261373e-01
1.250000e-01	5.681523e-01	5.520073e-01
1.875000e-01	2.053485e-01	1.938392e-01
2.500000e-01	-1.873473e-01	-1.938392e-01
3.125000e-01	-5.501509e-01	-5.520073e-01
3.750000e-01	-8.278286e-01	-8.261373e-01
4.375000e-01	-9.781066e-01	-9.744954e-01
5.000000e-01	-9.781062e-01	-9.744954e-01
5.625000e-01	-8.278276e-01	-8.261373e-01
6.250000e-01	-5.501493e-01	-5.520073e-01
6.875000e-01	-1.873453e-01	-1.938392e-01
7.500000e-01	2.053509e-01	1.938392e-01
8.125000e-01	5.681548e-01	5.520073e-01
8.750000e-01	8.458328e-01	8.261373e-01
9.375000e-01	9.961110e-01	9.744954e-01
1.000000e+00	9.961110e-01	9.744954e-01
1.062500e+00	8.458327e-01	8.261373e-01
1.125000e+00	5.681547e-01	5.520073e-01
1.187500e+00	2.053510e-01	1.938392e-01
1.250000e+00	-1.873449e-01	-1.938392e-01
1.312500e+00	-5.501485e-01	-5.520073e-01
1.375000e+00	-8.278262e-01	-8.261373e-01
1.437500e+00	-9.781041e-01	-9.744954e-01
1.500000e+00	-9.781037e-01	-9.744954e-01
1.562500e+00	-8.278251e-01	-8.261373e-01
1.625000e+00	-5.501468e-01	-5.520073e-01
1.687500e+00	-1.873427e-01	-1.938392e-01
1.750000e+00	2.053535e-01	1.938392e-01
1.812500e+00	5.681574e-01	5.520073e-01
1.875000e+00	8.458354e-01	8.261373e-01
1.937500e+00	9.961136e-01	9.744954e-01
2.000000e+00	9.961136e-01	9.744954e-01
2.062500e+00	8.458353e-01	8.261373e-01
2.125000e+00	5.681573e-01	5.520073e-01
2.187500e+00	2.053536e-01	1.938392e-01
2.250000e+00	-1.873422e-01	-1.938392e-01
2.312500e+00	-5.501458e-01	-5.520073e-01
2.375000e+00	-8.278235e-01	-8.261373e-01
2.437500e+00	-9.781014e-01	-9.744954e-01
2.500000e+00	-9.781010e-01	-9.744954e-01
2.562500e+00	-8.278223e-01	-8.261373e-01
2.625000e+00	-5.501440e-01	-5.520073e-01
2.687500e+00	-1.873399e-01	-1.938392e-01
2.750000e+00	2.053563e-01	1.938392e-01
2.812500e+00	5.681602e-01	5.520073e-01
2.875000e+00	8.458382e-01	8.261373e-01
2.937500e+00	9.961165e-01	9.744954e-01
3.000000e+00	9.961165e-01	9.744954e-01
3.062500e+00	8.458382e-01	8.261373e-01
3.125000e+00	5.681602e-01	5.520073e-01
3.187500e+00	2.053565e-01	1.938392e-01
3.250000e+00	-1.873393e-01	-1.938392e-01
3.312500e+00	-5.501428e-01	-5.520073e-01
3.375000e+00	-8.278205e-01	-8.261373e-01
3.437500e+00	-9.780984e-01	-9.744954e-01
3.500000e+00	-9.780980e-01	-9.744954e-01
3.562500e+00	-8.278193e-01	-8.261373e-01
3.625000e+00	-5.501410e-01	-5.520073e-01
3.687500e+00	-1.873369e-01	-1.938392e-01
3.750000e+00	2.053593e-01	1.938392e-01
3.812500e+00	5.681632e-01	5.520073e-01
3.875000e+00	8.458413e-01	8.261373e-01
3.937500e+00	9.961196e-01	9.744954e-01
