Position [m]	T (fluid)  	T (solid)
0.000000e+00	9.999619e-01	9.999937e-01
3.906250e-03	9.999054e-01	9.999561e-01
7.812500e-03	9.998113e-01	9.998808e-01
1.171875e-02	9.996796e-01	9.997678e-01
1.562500e-02	9.995102e-01	9.996173e-01
1.953125e-02	9.993031e-01	9.994290e-01
2.343750e-02	9.990585e-01	9.992032e-01
2.734375e-02	9.987762e-01	9.989397e-01
3.125000e-02	9.984563e-01	9.986387e-01
3.515625e-02	9.980989e-01	9.983000e-01
3.906250e-02	9.977038e-01	9.979237e-01
4.296875e-02	9.972712e-01	9.975099e-01
4.687500e-02	9.968011e-01	9.970585e-01
5.078125e-02	9.962934e-01	9.965696e-01
5.468750e-02	9.957482e-01	9.960431e-01
5.859375e-02	9.951656e-01	9.954792e-01
6.250000e-02	9.945454e-01	9.948778e-01
6.640625e-02	9.938878e-01	9.942389e-01
7.031250e-02	9.931928e-01	9.935626e-01
7.421875e-02	9.924604e-01	9.928489e-01
7.812500e-02	9.916907e-01	9.920978e-01
8.203125e-02	9.908836e-01	9.913093e-01
8.593750e-02	9.900391e-01	9.904835e-01
8.984375e-02	9.891575e-01	9.896205e-01
9.375000e-02	9.882385e-01	9.887201e-01
9.765625e-02	9.872824e-01	9.877826e-01
1.015625e-01	9.862891e-01	9.868079e-01
1.054688e-01	9.852587e-01	9.857960e-01
1.093750e-01	9.841912e-01	9.847470e-01
1.132812e-01	9.830866e-01	9.836609e-01
1.171875e-01	9.819450e-01	9.825378e-01
1.210938e-01	9.807664e-01	9.813777e-01
1.250000e-01	9.795509e-01	9.801806e-01
1.289062e-01	9.782985e-01	9.789466e-01
1.328125e-01	9.770093e-01	9.776758e-01
1.367188e-01	9.756834e-01	9.763682e-01
1.406250e-01	9.743206e-01	9.750238e-01
1.445312e-01	9.729212e-01	9.736427e-01
1.484375e-01	9.714852e-01	9.722250e-01
1.523438e-01	9.700126e-01	9.707706e-01
1.562500e-01	9.685035e-01	9.692797e-01
1.601562e-01	9.669579e-01	9.677523e-01
1.640625e-01	9.653759e-01	9.661885e-01
1.679688e-01	9.637575e-01	9.645883e-01
1.718750e-01	9.621029e-01	9.629518e-01
1.757812e-01	9.604121e-01	9.612790e-01
1.796875e-01	9.586850e-01	9.595700e-01
1.835938e-01	9.569219e-01	9.578249e-01
1.875000e-01	9.551228e-01	9.560438e-01
1.914062e-01	9.532877e-01	9.542266e-01
1.953125e-01	9.514167e-01	9.523735e-01
1.992188e-01	9.495099e-01	9.504846e-01
2.031250e-01	9.475674e-01	9.485599e-01
2.070312e-01	9.455892e-01	9.465994e-01
2.109375e-01	9.435753e-01	9.446034e-01
2.148438e-01	9.415260e-01	9.425717e-01
2.187500e-01	9.394412e-01	9.405046e-01
2.226562e-01	9.373210e-01	9.384021e-01
2.265625e-01	9.351655e-01	9.362642e-01
2.304688e-01	9.329749e-01	9.340911e-01
2.343750e-01	9.307491e-01	9.318828e-01
2.382812e-01	9.284882e-01	9.296394e-01
2.421875e-01	9.261924e-01	9.273611e-01
2.460938e-01	9.238618e-01	9.250478e-01
2.500000e-01	9.214963e-01	9.226997e-01
2.539062e-01	9.190962e-01	9.203168e-01
2.578125e-01	9.166615e-01	9.178993e-01
2.617188e-01	9.141922e-01	9.154473e-01
2.656250e-01	9.116885e-01	9.129608e-01
2.695312e-01	9.091505e-01	9.104399e-01
2.734375e-01	9.065783e-01	9.078847e-01
2.773438e-01	9.039719e-01	9.052953e-01
2.812500e-01	9.013315e-01	9.026719e-01
2.851562e-01	8.986572e-01	9.000145e-01
2.890625e-01	8.959491e-01	8.973232e-01
2.929688e-01	8.932072e-01	8.945981e-01
2.968750e-01	8.904316e-01	8.918393e-01
3.007812e-01	8.876226e-01	8.890470e-01
3.046875e-01	8.847801e-01	8.862211e-01
3.085938e-01	8.819043e-01	8.833620e-01
3.125000e-01	8.789954e-01	8.804695e-01
3.164062e-01	8.760533e-01	8.775439e-01
3.203125e-01	8.730782e-01	8.745853e-01
3.242188e-01	8.700703e-01	8.715937e-01
3.281250e-01	8.670296e-01	8.685693e-01
3.320312e-01	8.639563e-01	8.655123e-01
3.359375e-01	8.608504e-01	8.624226e-01
3.398438e-01	8.577122e-01	8.593005e-01
3.437500e-01	8.545416e-01	8.561460e-01
3.476562e-01	8.513389e-01	8.529593e-01
3.515625e-01	8.481041e-01	8.497404e-01
3.554688e-01	8.448374e-01	8.464896e-01
3.593750e-01	8.415388e-01	8.432069e-01
3.632812e-01	8.382086e-01	8.398925e-01
3.671875e-01	8.348469e-01	8.365464e-01
3.710938e-01	8.314537e-01	8.331689e-01
3.750000e-01	8.280292e-01	8.297599e-01
3.789062e-01	8.245735e-01	8.263198e-01
3.828125e-01	8.210868e-01	8.228485e-01
3.867188e-01	8.175691e-01	8.193462e-01
3.906250e-01	8.140207e-01	8.158131e-01
3.945312e-01	8.104417e-01	8.122493e-01
3.984375e-01	8.068321e-01	8.086549e-01
4.023438e-01	8.031921e-01	8.050301e-01
4.062500e-01	7.995220e-01	8.013749e-01
4.101562e-01	7.958217e-01	7.976896e-01
4.140625e-01	7.920914e-01	7.939742e-01
4.179688e-01	7.883313e-01	7.902290e-01
4.218750e-01	7.845416e-01	7.864540e-01
4.257812e-01	7.807223e-01	7.826494e-01
4.296875e-01	7.768736e-01	7.788153e-01
4.335938e-01	7.729957e-01	7.749519e-01
4.375000e-01	7.690886e-01	7.710593e-01
4.414062e-01	7.651526e-01	7.671377e-01
4.453125e-01	7.611878e-01	7.631872e-01
4.492188e-01	7.571944e-01	7.592080e-01
4.531250e-01	7.531724e-01	7.552002e-01
4.570312e-01	7.491221e-01	7.511640e-01
4.609375e-01	7.450435e-01	7.470994e-01
4.648438e-01	7.409370e-01	7.430068e-01
4.687500e-01	7.368025e-01	7.388862e-01
4.726562e-01	7.326403e-01	7.347377e-01
4.765625e-01	7.284505e-01	7.305616e-01
4.804688e-01	7.242332e-01	7.263580e-01
4.843750e-01	7.199887e-01	7.221271e-01
4.882812e-01	7.157171e-01	7.178689e-01
4.921875e-01	7.114186e-01	7.135837e-01
4.960938e-01	7.070933e-01	7.092717e-01
5.000000e-01	7.027413e-01	7.049330e-01
5.039062e-01	6.983629e-01	7.005677e-01
5.078125e-01	6.939582e-01	6.961760e-01
5.117188e-01	6.895274e-01	6.917582e-01
5.156250e-01	6.850706e-01	6.873143e-01
5.195312e-01	6.805880e-01	6.828445e-01
5.234375e-01	6.760798e-01	6.783490e-01
5.273438e-01	6.715461e-01	6.738279e-01
5.312500e-01	6.669872e-01	6.692815e-01
5.351562e-01	6.624031e-01	6.647099e-01
5.390625e-01	6.577941e-01	6.601133e-01
5.429688e-01	6.531604e-01	6.554918e-01
5.468750e-01	6.485020e-01	6.508457e-01
5.507812e-01	6.438193e-01	6.461750e-01
5.546875e-01	6.391122e-01	6.414800e-01
5.585938e-01	6.343812e-01	6.367609e-01
5.625000e-01	6.296262e-01	6.320177e-01
5.664062e-01	6.248476e-01	6.272508e-01
5.703125e-01	6.200454e-01	6.224603e-01
5.742188e-01	6.152199e-01	6.176463e-01
5.781250e-01	6.103712e-01	6.128091e-01
5.820312e-01	6.054995e-01	6.079488e-01
5.859375e-01	6.006050e-01	6.030657e-01
5.898438e-01	5.956880e-01	5.981598e-01
5.937500e-01	5.907484e-01	5.932314e-01
5.976562e-01	5.857867e-01	5.882806e-01
6.015625e-01	5.808029e-01	5.833077e-01
6.054688e-01	5.757972e-01	5.783129e-01
6.093750e-01	5.707699e-01	5.732963e-01
6.132812e-01	5.657210e-01	5.682581e-01
6.171875e-01	5.606509e-01	5.631985e-01
6.210938e-01	5.555597e-01	5.581177e-01
6.250000e-01	5.504475e-01	5.530158e-01
6.289062e-01	5.453146e-01	5.478932e-01
6.328125e-01	5.401612e-01	5.427499e-01
6.367188e-01	5.349874e-01	5.375862e-01
6.406250e-01	5.297935e-01	5.324023e-01
6.445312e-01	5.245797e-01	5.271983e-01
6.484375e-01	5.193461e-01	5.219745e-01
6.523438e-01	5.140930e-01	5.167310e-01
6.562500e-01	5.088205e-01	5.114680e-01
6.601562e-01	5.035288e-01	5.061859e-01
6.640625e-01	4.982182e-01	5.008846e-01
6.679688e-01	4.928888e-01	4.955645e-01
6.718750e-01	4.875409e-01	4.902257e-01
6.757812e-01	4.821746e-01	4.848685e-01
6.796875e-01	4.767902e-01	4.794930e-01
6.835938e-01	4.713878e-01	4.740995e-01
6.875000e-01	4.659677e-01	4.686881e-01
6.914062e-01	4.605300e-01	4.632591e-01
6.953125e-01	4.550750e-01	4.578126e-01
6.992188e-01	4.496028e-01	4.523489e-01
7.031250e-01	4.441137e-01	4.468681e-01
7.070312e-01	4.386079e-01	4.413706e-01
7.109375e-01	4.330856e-01	4.358564e-01
7.148438e-01	4.275470e-01	4.303258e-01
7.187500e-01	4.219923e-01	4.247790e-01
7.226562e-01	4.164217e-01	4.192162e-01
7.265625e-01	4.108354e-01	4.136377e-01
7.304688e-01	4.052336e-01	4.080435e-01
7.343750e-01	3.996166e-01	4.024340e-01
7.382812e-01	3.939846e-01	3.968094e-01
7.421875e-01	3.883377e-01	3.911698e-01
7.460938e-01	3.826762e-01	3.855154e-01
7.500000e-01	3.770003e-01	3.798466e-01
7.539062e-01	3.713102e-01	3.741635e-01
7.578125e-01	3.656061e-01	3.684663e-01
7.617188e-01	3.598882e-01	3.627552e-01
7.656250e-01	3.541568e-01	3.570304e-01
7.695312e-01	3.484121e-01	3.512922e-01
7.734375e-01	3.426543e-01	3.455408e-01
7.773438e-01	3.368835e-01	3.397764e-01
7.812500e-01	3.311001e-01	3.339991e-01
7.851562e-01	3.253042e-01	3.282093e-01
7.890625e-01	3.194960e-01	3.224072e-01
7.929688e-01	3.136758e-01	3.165929e-01
7.968750e-01	3.078439e-01	3.107667e-01
8.007812e-01	3.020003e-01	3.049288e-01
8.046875e-01	2.961453e-01	2.990794e-01
8.085938e-01	2.902792e-01	2.932187e-01
8.125000e-01	2.844022e-01	2.873470e-01
8.164062e-01	2.785145e-01	2.814645e-01
8.203125e-01	2.726163e-01	2.755714e-01
8.242188e-01	2.667078e-01	2.696679e-01
8.281250e-01	2.607892e-01	2.637543e-01
8.320312e-01	2.548609e-01	2.578307e-01
8.359375e-01	2.489230e-01	2.518974e-01
8.398438e-01	2.429757e-01	2.459547e-01
8.437500e-01	2.370192e-01	2.400026e-01
8.476562e-01	2.310538e-01	2.340416e-01
8.515625e-01	2.250797e-01	2.280717e-01
8.554688e-01	2.190972e-01	2.220933e-01
8.593750e-01	2.131064e-01	2.161065e-01
8.632812e-01	2.071075e-01	2.101115e-01
8.671875e-01	2.011009e-01	2.041086e-01
8.710938e-01	1.950867e-01	1.980981e-01
8.750000e-01	1.890652e-01	1.920801e-01
8.789062e-01	1.830365e-01	1.860549e-01
8.828125e-01	1.770010e-01	1.800226e-01
8.867188e-01	1.709588e-01	1.739836e-01
8.906250e-01	1.649101e-01	1.679380e-01
8.945312e-01	1.588552e-01	1.618861e-01
8.984375e-01	1.527944e-01	1.558282e-01
9.023438e-01	1.467278e-01	1.497643e-01
9.062500e-01	1.406557e-01	1.436948e-01
9.101562e-01	1.345783e-01	1.376199e-01
9.140625e-01	1.284958e-01	1.315398e-01
9.179688e-01	1.224085e-01	1.254548e-01
9.218750e-01	1.163165e-01	1.193650e-01
9.257812e-01	1.102202e-01	1.132708e-01
9.296875e-01	1.041198e-01	1.071723e-01
9.335938e-01	9.801541e-02	1.010697e-01
9.375000e-01	9.190734e-02	9.496335e-02
9.414062e-01	8.579582e-02	8.885341e-02
9.453125e-01	7.968106e-02	8.274013e-02
9.492188e-01	7.356331e-02	7.662374e-02
9.531250e-01	6.744278e-02	7.050446e-02
9.570312e-01	6.131971e-02	6.438253e-02
9.609375e-01	5.519434e-02	5.825817e-02
9.648438e-01	4.906689e-02	5.213162e-02
9.687500e-01	4.293759e-02	4.600311e-02
9.726562e-01	3.680667e-02	3.987287e-02
9.765625e-01	3.067437e-02	3.374112e-02
9.804688e-01	2.454092e-02	2.760810e-02
9.843750e-01	1.840654e-02	2.147405e-02
9.882812e-01	1.227146e-02	1.533918e-02
9.921875e-01	6.135927e-03	9.203740e-03
9.960938e-01	1.605319e-07	3.067952e-03
1.000000e+00	-6.135606e-03	-3.067952e-03
1.003906e+00	-1.227114e-02	-9.203740e-03
1.007812e+00	-1.840621e-02	-1.533918e-02
1.011719e+00	-2.454060e-02	-2.147405e-02
1.015625e+00	-3.067405e-02	-2.760810e-02
1.019531e+00	-3.680635e-02	-3.374112e-02
1.023438e+00	-4.293727e-02	-3.987287e-02
1.027344e+00	-4.906657e-02	-4.600311e-02
1.031250e+00	-5.519402e-02	-5.213162e-02
1.035156e+00	-6.131939e-02	-5.825817e-02
1.039062e+00	-6.744246e-02	-6.438253e-02
1.042969e+00	-7.356299e-02	-7.050446e-02
1.046875e+00	-7.968074e-02	-7.662374e-02
1.050781e+00	-8.579550e-02	-8.274013e-02
1.054688e+00	-9.190703e-02	-8.885341e-02
1.058594e+00	-9.801509e-02	-9.496335e-02
1.062500e+00	-1.041195e-01	-1.010697e-01
1.066406e+00	-1.102199e-01	-1.071723e-01
1.070312e+00	-1.163162e-01	-1.132708e-01
1.074219e+00	-1.224082e-01	-1.193650e-01
1.078125e+00	-1.284955e-01	-1.254548e-01
1.082031e+00	-1.345780e-01	-1.315398e-01
1.085938e+00	-1.406554e-01	-1.376199e-01
1.089844e+00	-1.467275e-01	-1.436948e-01
1.093750e+00	-1.527941e-01	-1.497643e-01
1.097656e+00	-1.588549e-01	-1.558282e-01
1.101562e+00	-1.649098e-01	-1.618861e-01
1.105469e+00	-1.709584e-01	-1.679380e-01
1.109375e+00	-1.770007e-01	-1.739836e-01
1.113281e+00	-1.830362e-01	-1.800226e-01
1.117188e+00	-1.890649e-01	-1.860549e-01
1.121094e+00	-1.950864e-01	-1.920801e-01
1.125000e+00	-2.011006e-01	-1.980981e-01
1.128906e+00	-2.071072e-01	-2.041086e-01
1.132812e+00	-2.131061e-01	-2.101115e-01
1.136719e+00	-2.190969e-01	-2.161065e-01
1.140625e+00	-2.250794e-01	-2.220933e-01
1.144531e+00	-2.310535e-01	-2.280717e-01
1.148438e+00	-2.370189e-01	-2.340416e-01
1.152344e+00	-2.429753e-01	-2.400026e-01
1.156250e+00	-2.489227e-01	-2.459547e-01
1.160156e+00	-2.548606e-01	-2.518974e-01
1.164062e+00	-2.607889e-01	-2.578307e-01
1.167969e+00	-2.667075e-01	-2.637543e-01
1.171875e+00	-2.726159e-01	-2.696679e-01
1.175781e+00	-2.785142e-01	-2.755714e-01
1.179688e+00	-2.844019e-01	-2.814645e-01
1.183594e+00	-2.902789e-01	-2.873470e-01
1.187500e+00	-2.961450e-01	-2.932187e-01
1.191406e+00	-3.020000e-01	-2.990794e-01
1.195312e+00	-3.078436e-01	-3.049288e-01
1.199219e+00	-3.136755e-01	-3.107667e-01
1.203125e+00	-3.194957e-01	-3.165929e-01
1.207031e+00	-3.253039e-01	-3.224072e-01
1.210938e+00	-3.310998e-01	-3.282093e-01
1.214844e+00	-3.368832e-01	-3.339991e-01
1.218750e+00	-3.426540e-01	-3.397764e-01
1.222656e+00	-3.484118e-01	-3.455408e-01
1.226562e+00	-3.541565e-01	-3.512922e-01
1.230469e+00	-3.598879e-01	-3.570304e-01
1.234375e+00	-3.656058e-01	-3.627552e-01
1.238281e+00	-3.713099e-01	-3.684663e-01
1.242188e+00	-3.770000e-01	-3.741635e-01
1.246094e+00	-3.826759e-01	-3.798466e-01
1.250000e+00	-3.883374e-01	-3.855154e-01
1.253906e+00	-3.939843e-01	-3.911698e-01
1.257812e+00	-3.996163e-01	-3.968094e-01
1.261719e+00	-4.052334e-01	-4.024340e-01
1.265625e+00	-4.108351e-01	-4.080435e-01
1.269531e+00	-4.164214e-01	-4.136377e-01
1.273438e+00	-4.219920e-01	-4.192162e-01
1.277344e+00	-4.275467e-01	-4.247790e-01
1.281250e+00	-4.330853e-01	-4.303258e-01
1.285156e+00	-4.386076e-01	-4.358564e-01
1.289062e+00	-4.441134e-01	-4.413706e-01
1.292969e+00	-4.496025e-01	-4.468681e-01
1.296875e+00	-4.550747e-01	-4.523489e-01
1.300781e+00	-4.605297e-01	-4.578126e-01
1.304688e+00	-4.659674e-01	-4.632591e-01
1.308594e+00	-4.713875e-01	-4.686881e-01
1.312500e+00	-4.767899e-01	-4.740995e-01
1.316406e+00	-4.821743e-01	-4.794930e-01
1.320312e+00	-4.875406e-01	-4.848685e-01
1.324219e+00	-4.928886e-01	-4.902257e-01
1.328125e+00	-4.982179e-01	-4.955645e-01
1.332031e+00	-5.035285e-01	-5.008846e-01
1.335938e+00	-5.088202e-01	-5.061859e-01
1.339844e+00	-5.140927e-01	-5.114680e-01
1.343750e+00	-5.193458e-01	-5.167310e-01
1.347656e+00	-5.245794e-01	-5.219745e-01
1.351562e+00	-5.297933e-01	-5.271983e-01
1.355469e+00	-5.349872e-01	-5.324023e-01
1.359375e+00	-5.401609e-01	-5.375862e-01
1.363281e+00	-5.453143e-01	-5.427499e-01
1.367188e+00	-5.504472e-01	-5.478932e-01
1.371094e+00	-5.555594e-01	-5.530158e-01
1.375000e+00	-5.606506e-01	-5.581177e-01
1.378906e+00	-5.657208e-01	-5.631985e-01
1.382812e+00	-5.707696e-01	-5.682581e-01
1.386719e+00	-5.757970e-01	-5.732963e-01
1.390625e+00	-5.808026e-01	-5.783129e-01
1.394531e+00	-5.857864e-01	-5.833077e-01
1.398438e+00	-5.907482e-01	-5.882806e-01
1.402344e+00	-5.956877e-01	-5.932314e-01
1.406250e+00	-6.006048e-01	-5.981598e-01
1.410156e+00	-6.054992e-01	-6.030657e-01
1.414062e+00	-6.103709e-01	-6.079488e-01
1.417969e+00	-6.152196e-01	-6.128091e-01
1.421875e+00	-6.200451e-01	-6.176463e-01
1.425781e+00	-6.248473e-01	-6.224603e-01
1.429688e+00	-6.296260e-01	-6.272508e-01
1.433594e+00	-6.343809e-01	-6.320177e-01
1.437500e+00	-6.391120e-01	-6.367609e-01
1.441406e+00	-6.438190e-01	-6.414800e-01
1.445312e+00	-6.485018e-01	-6.461750e-01
1.449219e+00	-6.531601e-01	-6.508457e-01
1.453125e+00	-6.577939e-01	-6.554918e-01
1.457031e+00	-6.624029e-01	-6.601133e-01
1.460938e+00	-6.669869e-01	-6.647099e-01
1.464844e+00	-6.715459e-01	-6.692815e-01
1.468750e+00	-6.760796e-01	-6.738279e-01
1.472656e+00	-6.805878e-01	-6.783490e-01
1.476562e+00	-6.850703e-01	-6.828445e-01
1.480469e+00	-6.895271e-01	-6.873143e-01
1.484375e+00	-6.939580e-01	-6.917582e-01
1.488281e+00	-6.983627e-01	-6.961760e-01
1.492188e+00	-7.027411e-01	-7.005677e-01
1.496094e+00	-7.070930e-01	-7.049330e-01
1.500000e+00	-7.114184e-01	-7.092717e-01
1.503906e+00	-7.157169e-01	-7.135837e-01
1.507812e+00	-7.199885e-01	-7.178689e-01
1.511719e+00	-7.242330e-01	-7.221271e-01
1.515625e+00	-7.284502e-01	-7.263580e-01
1.519531e+00	-7.326400e-01	-7.305616e-01
1.523438e+00	-7.368023e-01	-7.347377e-01
1.527344e+00	-7.409367e-01	-7.388862e-01
1.531250e+00	-7.450433e-01	-7.430068e-01
1.535156e+00	-7.491218e-01	-7.470994e-01
1.539062e+00	-7.531722e-01	-7.511640e-01
1.542969e+00	-7.571941e-01	-7.552002e-01
1.546875e+00	-7.611876e-01	-7.592080e-01
1.550781e+00	-7.651524e-01	-7.631872e-01
1.554688e+00	-7.690884e-01	-7.671377e-01
1.558594e+00	-7.729955e-01	-7.710593e-01
1.562500e+00	-7.768734e-01	-7.749519e-01
1.566406e+00	-7.807221e-01	-7.788153e-01
1.570312e+00	-7.845414e-01	-7.826494e-01
1.574219e+00	-7.883311e-01	-7.864540e-01
1.578125e+00	-7.920912e-01	-7.902290e-01
1.582031e+00	-7.958215e-01	-7.939742e-01
1.585938e+00	-7.995218e-01	-7.976896e-01
1.589844e+00	-8.031920e-01	-8.013749e-01
1.593750e+00	-8.068319e-01	-8.050301e-01
1.597656e+00	-8.104415e-01	-8.086549e-01
1.601562e+00	-8.140205e-01	-8.122493e-01
1.605469e+00	-8.175690e-01	-8.158131e-01
1.609375e+00	-8.210866e-01	-8.193462e-01
1.613281e+00	-8.245733e-01	-8.228485e-01
1.617188e+00	-8.280290e-01	-8.263198e-01
1.621094e+00	-8.314535e-01	-8.297599e-01
1.625000e+00	-8.348467e-01	-8.331689e-01
1.628906e+00	-8.382085e-01	-8.365464e-01
1.632812e+00	-8.415387e-01	-8.398925e-01
1.636719e+00	-8.448372e-01	-8.432069e-01
1.640625e+00	-8.481039e-01	-8.464896e-01
1.644531e+00	-8.513387e-01	-8.497404e-01
1.648438e+00	-8.545414e-01	-8.529593e-01
1.652344e+00	-8.577120e-01	-8.561460e-01
1.656250e+00	-8.608503e-01	-8.593005e-01
1.660156e+00	-8.639561e-01	-8.624226e-01
1.664062e+00	-8.670295e-01	-8.655123e-01
1.667969e+00	-8.700701e-01	-8.685693e-01
1.671875e+00	-8.730781e-01	-8.715937e-01
1.675781e+00	-8.760531e-01	-8.745853e-01
1.679688e+00	-8.789952e-01	-8.775439e-01
1.683594e+00	-8.819042e-01	-8.804695e-01
1.687500e+00	-8.847800e-01	-8.833620e-01
1.691406e+00	-8.876224e-01	-8.862211e-01
1.695312e+00	-8.904315e-01	-8.890470e-01
1.699219e+00	-8.932070e-01	-8.918393e-01
1.703125e+00	-8.959489e-01	-8.945981e-01
1.707031e+00	-8.986571e-01	-8.973232e-01
1.710938e+00	-9.013314e-01	-9.000145e-01
1.714844e+00	-9.039718e-01	-9.026719e-01
1.718750e+00	-9.065782e-01	-9.052953e-01
1.722656e+00	-9.091504e-01	-9.078847e-01
1.726562e+00	-9.116884e-01	-9.104399e-01
1.730469e+00	-9.141921e-01	-9.129608e-01
1.734375e+00	-9.166613e-01	-9.154473e-01
1.738281e+00	-9.190961e-01	-9.178993e-01
1.742188e+00	-9.214962e-01	-9.203168e-01
1.746094e+00	-9.238617e-01	-9.226997e-01
1.750000e+00	-9.261923e-01	-9.250478e-01
1.753906e+00	-9.284881e-01	-9.273611e-01
1.757812e+00	-9.307490e-01	-9.296394e-01
1.761719e+00	-9.329748e-01	-9.318828e-01
1.765625e+00	-9.351654e-01	-9.340911e-01
1.769531e+00	-9.373209e-01	-9.362642e-01
1.773438e+00	-9.394411e-01	-9.384021e-01
1.777344e+00	-9.415259e-01	-9.405046e-01
1.781250e+00	-9.435752e-01	-9.425717e-01
1.785156e+00	-9.455890e-01	-9.446034e-01
1.789062e+00	-9.475673e-01	-9.465994e-01
1.792969e+00	-9.495098e-01	-9.485599e-01
1.796875e+00	-9.514166e-01	-9.504846e-01
1.800781e+00	-9.532876e-01	-9.523735e-01
1.804688e+00	-9.551227e-01	-9.542266e-01
1.808594e+00	-9.569218e-01	-9.560438e-01
1.812500e+00	-9.586850e-01	-9.578249e-01
1.816406e+00	-9.604120e-01	-9.595700e-01
1.820312e+00	-9.621028e-01	-9.612790e-01
1.824219e+00	-9.637574e-01	-9.629518e-01
1.828125e+00	-9.653758e-01	-9.645883e-01
1.832031e+00	-9.669578e-01	-9.661885e-01
1.835938e+00	-9.685034e-01	-9.677523e-01
1.839844e+00	-9.700125e-01	-9.692797e-01
1.843750e+00	-9.714851e-01	-9.707706e-01
1.847656e+00	-9.729212e-01	-9.722250e-01
1.851562e+00	-9.743206e-01	-9.736427e-01
1.855469e+00	-9.756833e-01	-9.750238e-01
1.859375e+00	-9.770093e-01	-9.763682e-01
1.863281e+00	-9.782985e-01	-9.776758e-01
1.867188e+00	-9.795509e-01	-9.789466e-01
1.871094e+00	-9.807663e-01	-9.801806e-01
1.875000e+00	-9.819449e-01	-9.813777e-01
1.878906e+00	-9.830865e-01	-9.825378e-01
1.882812e+00	-9.841911e-01	-9.836609e-01
1.886719e+00	-9.852586e-01	-9.847470e-01
1.890625e+00	-9.862891e-01	-9.857960e-01
1.894531e+00	-9.872824e-01	-9.868079e-01
1.898438e+00	-9.882385e-01	-9.877826e-01
1.902344e+00	-9.891574e-01	-9.887201e-01
1.906250e+00	-9.900391e-01	-9.896205e-01
1.910156e+00	-9.908835e-01	-9.904835e-01
1.914062e+00	-9.916906e-01	-9.913093e-01
1.917969e+00	-9.924604e-01	-9.920978e-01
1.921875e+00	-9.931928e-01	-9.928489e-01
1.925781e+00	-9.938878e-01	-9.935626e-01
1.929688e+00	-9.945454e-01	-9.942389e-01
1.933594e+00	-9.951655e-01	-9.948778e-01
1.937500e+00	-9.957482e-01	-9.954792e-01
1.941406e+00	-9.962934e-01	-9.960431e-01
1.945312e+00	-9.968011e-01	-9.965696e-01
1.949219e+00	-9.972712e-01	-9.970585e-01
1.953125e+00	-9.977038e-01	-9.975099e-01
1.957031e+00	-9.980989e-01	-9.979237e-01
1.960938e+00	-9.984563e-01	-9.983000e-01
1.964844e+00	-9.987762e-01	-9.986387e-01
1.968750e+00	-9.990585e-01	-9.989397e-01
1.972656e+00	-9.993031e-01	-9.992032e-01
1.976562e+00	-9.995101e-01	-9.994290e-01
1.980469e+00	-9.996795e-01	-9.996173e-01
1.984375e+00	-9.998113e-01	-9.997678e-01
1.988281e+00	-9.999054e-01	-9.998808e-01
1.992188e+00	-9.999619e-01	-9.999561e-01
1.996094e+00	-9.999807e-01	-9.999937e-01
2.000000e+00	-9.999619e-01	-9.999937e-01
2.003906e+00	-9.999054e-01	-9.999561e-01
2.007812e+00	-9.998113e-01	-9.998808e-01
2.011719e+00	-9.996796e-01	-9.997678e-01
2.015625e+00	-9.995102e-01	-9.996173e-01
2.019531e+00	-9.993031e-01	-9.994290e-01
2.023438e+00	-9.990585e-01	-9.992032e-01
2.027344e+00	-9.987762e-01	-9.989397e-01
2.031250e+00	-9.984563e-01	-9.986387e-01
2.035156e+00	-9.980989e-01	-9.983000e-01
2.039062e+00	-9.977038e-01	-9.979237e-01
2.042969e+00	-9.972712e-01	-9.975099e-01
2.046875e+00	-9.968011e-01	-9.970585e-01
2.050781e+00	-9.962934e-01	-9.965696e-01
2.054688e+00	-9.957482e-01	-9.960431e-01
2.058594e+00	-9.951656e-01	-9.954792e-01
2.062500e+00	-9.945454e-01	-9.948778e-01
2.066406e+00	-9.938878e-01	-9.942389e-01
2.070312e+00	-9.931928e-01	-9.935626e-01
2.074219e+00	-9.924604e-01	-9.928489e-01
2.078125e+00	-9.916907e-01	-9.920978e-01
2.082031e+00	-9.908836e-01	-9.913093e-01
2.085938e+00	-9.900391e-01	-9.904835e-01
2.089844e+00	-9.891575e-01	-9.896205e-01
2.093750e+00	-9.882385e-01	-9.887201e-01
2.097656e+00	-9.872824e-01	-9.877826e-01
2.101562e+00	-9.862891e-01	-9.868079e-01
2.105469e+00	-9.852587e-01	-9.857960e-01
2.109375e+00	-9.841912e-01	-9.847470e-01
2.113281e+00	-9.830866e-01	-9.836609e-01
2.117188e+00	-9.819450e-01	-9.825378e-01
2.121094e+00	-9.807664e-01	-9.813777e-01
2.125000e+00	-9.795509e-01	-9.801806e-01
2.128906e+00	-9.782985e-01	-9.789466e-01
2.132812e+00	-9.770093e-01	-9.776758e-01
2.136719e+00	-9.756834e-01	-9.763682e-01
2.140625e+00	-9.743206e-01	-9.750238e-01
2.144531e+00	-9.729212e-01	-9.736427e-01
2.148438e+00	-9.714852e-01	-9.722250e-01
2.152344e+00	-9.700126e-01	-9.707706e-01
2.156250e+00	-9.685035e-01	-9.692797e-01
2.160156e+00	-9.669579e-01	-9.677523e-01
2.164062e+00	-9.653759e-01	-9.661885e-01
2.167969e+00	-9.637575e-01	-9.645883e-01
2.171875e+00	-9.621029e-01	-9.629518e-01
2.175781e+00	-9.604121e-01	-9.612790e-01
2.179688e+00	-9.586850e-01	-9.595700e-01
2.183594e+00	-9.569219e-01	-9.578249e-01
2.187500e+00	-9.551228e-01	-9.560438e-01
2.191406e+00	-9.532877e-01	-9.542266e-01
2.195312e+00	-9.514167e-01	-9.523735e-01
2.199219e+00	-9.495099e-01	-9.504846e-01
2.203125e+00	-9.475674e-01	-9.485599e-01
2.207031e+00	-9.455892e-01	-9.465994e-01
2.210938e+00	-9.435753e-01	-9.446034e-01
2.214844e+00	-9.415260e-01	-9.425717e-01
2.218750e+00	-9.394412e-01	-9.405046e-01
2.222656e+00	-9.373210e-01	-9.384021e-01
2.226562e+00	-9.351655e-01	-9.362642e-01
2.230469e+00	-9.329749e-01	-9.340911e-01
2.234375e+00	-9.307491e-01	-9.318828e-01
2.238281e+00	-9.284882e-01	-9.296394e-01
2.242188e+00	-9.261924e-01	-9.273611e-01
2.246094e+00	-9.238618e-01	-9.250478e-01
2.250000e+00	-9.214963e-01	-9.226997e-01
2.253906e+00	-9.190962e-01	-9.203168e-01
2.257812e+00	-9.166615e-01	-9.178993e-01
2.261719e+00	-9.141922e-01	-9.154473e-01
2.265625e+00	-9.116885e-01	-9.129608e-01
2.269531e+00	-9.091505e-01	-9.104399e-01
2.273438e+00	-9.065783e-01	-9.078847e-01
2.277344e+00	-9.039719e-01	-9.052953e-01
2.281250e+00	-9.013315e-01	-9.026719e-01
2.285156e+00	-8.986572e-01	-9.000145e-01
2.289062e+00	-8.959491e-01	-8.973232e-01
2.292969e+00	-8.932072e-01	-8.945981e-01
2.296875e+00	-8.904316e-01	-8.918393e-01
2.300781e+00	-8.876226e-01	-8.890470e-01
2.304688e+00	-8.847801e-01	-8.862211e-01
2.308594e+00	-8.819043e-01	-8.833620e-01
2.312500e+00	-8.789954e-01	-8.804695e-01
2.316406e+00	-8.760533e-01	-8.775439e-01
2.320312e+00	-8.730782e-01	-8.745853e-01
2.324219e+00	-8.700703e-01	-8.715937e-01
2.328125e+00	-8.670296e-01	-8.685693e-01
2.332031e+00	-8.639563e-01	-8.655123e-01
2.335938e+00	-8.608504e-01	-8.624226e-01
2.339844e+00	-8.577122e-01	-8.593005e-01
2.343750e+00	-8.545416e-01	-8.561460e-01
2.347656e+00	-8.513389e-01	-8.529593e-01
2.351562e+00	-8.481041e-01	-8.497404e-01
2.355469e+00	-8.448374e-01	-8.464896e-01
2.359375e+00	-8.415388e-01	-8.432069e-01
2.363281e+00	-8.382086e-01	-8.398925e-01
2.367188e+00	-8.348469e-01	-8.365464e-01
2.371094e+00	-8.314537e-01	-8.331689e-01
2.375000e+00	-8.280292e-01	-8.297599e-01
2.378906e+00	-8.245735e-01	-8.263198e-01
2.382812e+00	-8.210868e-01	-8.228485e-01
2.386719e+00	-8.175691e-01	-8.193462e-01
2.390625e+00	-8.140207e-01	-8.158131e-01
2.394531e+00	-8.104417e-01	-8.122493e-01
2.398438e+00	-8.068321e-01	-8.086549e-01
2.402344e+00	-8.031921e-01	-8.050301e-01
2.406250e+00	-7.995220e-01	-8.013749e-01
2.410156e+00	-7.958217e-01	-7.976896e-01
2.414062e+00	-7.920914e-01	-7.939742e-01
2.417969e+00	-7.883313e-01	-7.902290e-01
2.421875e+00	-7.845416e-01	-7.864540e-01
2.425781e+00	-7.807223e-01	-7.826494e-01
2.429688e+00	-7.768736e-01	-7.788153e-01
2.433594e+00	-7.729957e-01	-7.749519e-01
2.437500e+00	-7.690886e-01	-7.710593e-01
2.441406e+00	-7.651526e-01	-7.671377e-01
2.445312e+00	-7.611878e-01	-7.631872e-01
2.449219e+00	-7.571944e-01	-7.592080e-01
2.453125e+00	-7.531724e-01	-7.552002e-01
2.457031e+00	-7.491221e-01	-7.511640e-01
2.460938e+00	-7.450435e-01	-7.470994e-01
2.464844e+00	-7.409370e-01	-7.430068e-01
2.468750e+00	-7.368025e-01	-7.388862e-01
2.472656e+00	-7.326403e-01	-7.347377e-01
2.476562e+00	-7.284505e-01	-7.305616e-01
2.480469e+00	-7.242332e-01	-7.263580e-01
2.484375e+00	-7.199887e-01	-7.221271e-01
2.488281e+00	-7.157171e-01	-7.178689e-01
2.492188e+00	-7.114186e-01	-7.135837e-01
2.496094e+00	-7.070933e-01	-7.092717e-01
2.500000e+00	-7.027413e-01	-7.049330e-01
2.503906e+00	-6.983629e-01	-7.005677e-01
2.507812e+00	-6.939582e-01	-6.961760e-01
2.511719e+00	-6.895274e-01	-6.917582e-01
2.515625e+00	-6.850706e-01	-6.873143e-01
2.519531e+00	-6.805880e-01	-6.828445e-01
2.523438e+00	-6.760798e-01	-6.783490e-01
2.527344e+00	-6.715461e-01	-6.738279e-01
2.531250e+00	-6.669872e-01	-6.692815e-01
2.535156e+00	-6.624031e-01	-6.647099e-01
2.539062e+00	-6.577941e-01	-6.601133e-01
2.542969e+00	-6.531604e-01	-6.554918e-01
2.546875e+00	-6.485020e-01	-6.508457e-01
2.550781e+00	-6.438193e-01	-6.461750e-01
2.554688e+00	-6.391122e-01	-6.414800e-01
2.558594e+00	-6.343812e-01	-6.367609e-01
2.562500e+00	-6.296262e-01	-6.320177e-01
2.566406e+00	-6.248476e-01	-6.272508e-01
2.570312e+00	-6.200454e-01	-6.224603e-01
2.574219e+00	-6.152199e-01	-6.176463e-01
2.578125e+00	-6.103712e-01	-6.128091e-01
2.582031e+00	-6.054995e-01	-6.079488e-01
2.585938e+00	-6.006050e-01	-6.030657e-01
2.589844e+00	-5.956880e-01	-5.981598e-01
2.593750e+00	-5.907484e-01	-5.932314e-01
2.597656e+00	-5.857867e-01	-5.882806e-01
2.601562e+00	-5.808029e-01	-5.833077e-01
2.605469e+00	-5.757972e-01	-5.783129e-01
2.609375e+00	-5.707699e-01	-5.732963e-01
2.613281e+00	-5.657210e-01	-5.682581e-01
2.617188e+00	-5.606509e-01	-5.631985e-01
2.621094e+00	-5.555597e-01	-5.581177e-01
2.625000e+00	-5.504475e-01	-5.530158e-01
2.628906e+00	-5.453146e-01	-5.478932e-01
2.632812e+00	-5.401612e-01	-5.427499e-01
2.636719e+00	-5.349874e-01	-5.375862e-01
2.640625e+00	-5.297935e-01	-5.324023e-01
2.644531e+00	-5.245797e-01	-5.271983e-01
2.648438e+00	-5.193461e-01	-5.219745e-01
2.652344e+00	-5.140930e-01	-5.167310e-01
2.656250e+00	-5.088205e-01	-5.114680e-01
2.660156e+00	-5.035288e-01	-5.061859e-01
2.664062e+00	-4.982182e-01	-5.008846e-01
2.667969e+00	-4.928888e-01	-4.955645e-01
2.671875e+00	-4.875409e-01	-4.902257e-01
2.675781e+00	-4.821746e-01	-4.848685e-01
2.679688e+00	-4.767902e-01	-4.794930e-01
2.683594e+00	-4.713878e-01	-4.740995e-01
2.687500e+00	-4.659677e-01	-4.686881e-01
2.691406e+00	-4.605300e-01	-4.632591e-01
2.695312e+00	-4.550750e-01	-4.578126e-01
2.699219e+00	-4.496028e-01	-4.523489e-01
2.703125e+00	-4.441137e-01	-4.468681e-01
2.707031e+00	-4.386079e-01	-4.413706e-01
2.710938e+00	-4.330856e-01	-4.358564e-01
2.714844e+00	-4.275470e-01	-4.303258e-01
2.718750e+00	-4.219923e-01	-4.247790e-01
2.722656e+00	-4.164217e-01	-4.192162e-01
2.726562e+00	-4.108354e-01	-4.136377e-01
2.730469e+00	-4.052336e-01	-4.080435e-01
2.734375e+00	-3.996166e-01	-4.024340e-01
2.738281e+00	-3.939846e-01	-3.968094e-01
2.742188e+00	-3.883377e-01	-3.911698e-01
2.746094e+00	-3.826762e-01	-3.855154e-01
2.750000e+00	-3.770003e-01	-3.798466e-01
2.753906e+00	-3.713102e-01	-3.741635e-01
2.757812e+00	-3.656061e-01	-3.684663e-01
2.761719e+00	-3.598882e-01	-3.627552e-01
2.765625e+00	-3.541568e-01	-3.570304e-01
2.769531e+00	-3.484121e-01	-3.512922e-01
2.773438e+00	-3.426543e-01	-3.455408e-01
2.777344e+00	-3.368835e-01	-3.397764e-01
2.781250e+00	-3.311001e-01	-3.339991e-01
2.785156e+00	-3.253042e-01	-3.282093e-01
2.789062e+00	-3.194960e-01	-3.224072e-01
2.792969e+00	-3.136758e-01	-3.165929e-01
2.796875e+00	-3.078439e-01	-3.107667e-01
2.800781e+00	-3.020003e-01	-3.049288e-01
2.804688e+00	-2.961453e-01	-2.990794e-01
2.808594e+00	-2.902792e-01	-2.932187e-01
2.812500e+00	-2.844022e-01	-2.873470e-01
2.816406e+00	-2.785145e-01	-2.814645e-01
2.820312e+00	-2.726163e-01	-2.755714e-01
2.824219e+00	-2.667078e-01	-2.696679e-01
2.828125e+00	-2.607892e-01	-2.637543e-01
2.832031e+00	-2.548609e-01	-2.578307e-01
2.835938e+00	-2.489230e-01	-2.518974e-01
2.839844e+00	-2.429757e-01	-2.459547e-01
2.843750e+00	-2.370192e-01	-2.400026e-01
2.847656e+00	-2.310538e-01	-2.340416e-01
2.851562e+00	-2.250797e-01	-2.280717e-01
2.855469e+00	-2.190972e-01	-2.220933e-01
2.859375e+00	-2.131064e-01	-2.161065e-01
2.863281e+00	-2.071075e-01	-2.101115e-01
2.867188e+00	-2.011009e-01	-2.041086e-01
2.871094e+00	-1.950867e-01	-1.980981e-01
2.875000e+00	-1.890652e-01	-1.920801e-01
2.878906e+00	-1.830365e-01	-1.860549e-01
2.882812e+00	-1.770010e-01	-1.800226e-01
2.886719e+00	-1.709588e-01	-1.739836e-01
2.890625e+00	-1.649101e-01	-1.679380e-01
2.894531e+00	-1.588552e-01	-1.618861e-01
2.898438e+00	-1.527944e-01	-1.558282e-01
2.902344e+00	-1.467278e-01	-1.497643e-01
2.906250e+00	-1.406557e-01	-1.436948e-01
2.910156e+00	-1.345783e-01	-1.376199e-01
2.914062e+00	-1.284958e-01	-1.315398e-01
2.917969e+00	-1.224085e-01	-1.254548e-01
2.921875e+00	-1.163165e-01	-1.193650e-01
2.925781e+00	-1.102202e-01	-1.132708e-01
2.929688e+00	-1.041198e-01	-1.071723e-01
2.933594e+00	-9.801541e-02	-1.010697e-01
2.937500e+00	-9.190734e-02	-9.496335e-02
2.941406e+00	-8.579582e-02	-8.885341e-02
2.945312e+00	-7.968106e-02	-8.274013e-02
2.949219e+00	-7.356331e-02	-7.662374e-02
2.953125e+00	-6.744278e-02	-7.050446e-02
2.957031e+00	-6.131971e-02	-6.438253e-02
2.960938e+00	-5.519434e-02	-5.825817e-02
2.964844e+00	-4.906689e-02	-5.213162e-02
2.968750e+00	-4.293759e-02	-4.600311e-02
2.972656e+00	-3.680667e-02	-3.987287e-02
2.976562e+00	-3.067437e-02	-3.374112e-02
2.980469e+00	-2.454092e-02	-2.760810e-02
2.984375e+00	-1.840654e-02	-2.147405e-02
2.988281e+00	-1.227146e-02	-1.533918e-02
2.992188e+00	-6.135927e-03	-9.203740e-03
2.996094e+00	-1.605316e-07	-3.067952e-03
3.000000e+00	6.135606e-03	3.067952e-03
3.003906e+00	1.227114e-02	9.203740e-03
3.007812e+00	1.840621e-02	1.533918e-02
3.011719e+00	2.454060e-02	2.147405e-02
3.015625e+00	3.067405e-02	2.760810e-02
3.019531e+00	3.680635e-02	3.374112e-02
3.023438e+00	4.293727e-02	3.987287e-02
3.027344e+00	4.906657e-02	4.600311e-02
3.031250e+00	5.519402e-02	5.213162e-02
3.035156e+00	6.131939e-02	5.825817e-02
3.039062e+00	6.744246e-02	6.438253e-02
3.042969e+00	7.356299e-02	7.050446e-02
3.046875e+00	7.968074e-02	7.662374e-02
3.050781e+00	8.579550e-02	8.274013e-02
3.054688e+00	9.190703e-02	8.885341e-02
3.058594e+00	9.801509e-02	9.496335e-02
3.062500e+00	1.041195e-01	1.010697e-01
3.066406e+00	1.102199e-01	1.071723e-01
3.070312e+00	1.163162e-01	1.132708e-01
3.074219e+00	1.224082e-01	1.193650e-01
3.078125e+00	1.284955e-01	1.254548e-01
3.082031e+00	1.345780e-01	1.315398e-01
3.085938e+00	1.406554e-01	1.376199e-01
3.089844e+00	1.467275e-01	1.436948e-01
3.093750e+00	1.527941e-01	1.497643e-01
3.097656e+00	1.588549e-01	1.558282e-01
3.101562e+00	1.649098e-01	1.618861e-01
3.105469e+00	1.709584e-01	1.679380e-01
3.109375e+00	1.770007e-01	1.739836e-01
3.113281e+00	1.830362e-01	1.800226e-01
3.117188e+00	1.890649e-01	1.860549e-01
3.121094e+00	1.950864e-01	1.920801e-01
3.125000e+00	2.011006e-01	1.980981e-01
3.128906e+00	2.071072e-01	2.041086e-01
3.132812e+00	2.131061e-01	2.101115e-01
3.136719e+00	2.190969e-01	2.161065e-01
3.140625e+00	2.250794e-01	2.220933e-01
3.144531e+00	2.310535e-01	2.280717e-01
3.148438e+00	2.370189e-01	2.340416e-01
3.152344e+00	2.429753e-01	2.400026e-01
3.156250e+00	2.489227e-01	2.459547e-01
3.160156e+00	2.548606e-01	2.518974e-01
3.164062e+00	2.607889e-01	2.578307e-01
3.167969e+00	2.667075e-01	2.637543e-01
3.171875e+00	2.726159e-01	2.696679e-01
3.175781e+00	2.785142e-01	2.755714e-01
3.179688e+00	2.844019e-01	2.814645e-01
3.183594e+00	2.902789e-01	2.873470e-01
3.187500e+00	2.961450e-01	2.932187e-01
3.191406e+00	3.020000e-01	2.990794e-01
3.195312e+00	3.078436e-01	3.049288e-01
3.199219e+00	3.136755e-01	3.107667e-01
3.203125e+00	3.194957e-01	3.165929e-01
3.207031e+00	3.253039e-01	3.224072e-01
3.210938e+00	3.310998e-01	3.282093e-01
3.214844e+00	3.368832e-01	3.339991e-01
3.218750e+00	3.426540e-01	3.397764e-01
3.222656e+00	3.484118e-01	3.455408e-01
3.226562e+00	3.541565e-01	3.512922e-01
3.230469e+00	3.598879e-01	3.570304e-01
3.234375e+00	3.656058e-01	3.627552e-01
3.238281e+00	3.713099e-01	3.684663e-01
3.242188e+00	3.770000e-01	3.741635e-01
3.246094e+00	3.826759e-01	3.798466e-01
3.250000e+00	3.883374e-01	3.855154e-01
3.253906e+00	3.939843e-01	3.911698e-01
3.257812e+00	3.996163e-01	3.968094e-01
3.261719e+00	4.052334e-01	4.024340e-01
3.265625e+00	4.108351e-01	4.080435e-01
3.269531e+00	4.164214e-01	4.136377e-01
3.273438e+00	4.219920e-01	4.192162e-01
3.277344e+00	4.275467e-01	4.247790e-01
3.281250e+00	4.330853e-01	4.303258e-01
3.285156e+00	4.386076e-01	4.358564e-01
3.289062e+00	4.441134e-01	4.413706e-01
3.292969e+00	4.496025e-01	4.468681e-01
3.296875e+00	4.550747e-01	4.523489e-01
3.300781e+00	4.605297e-01	4.578126e-01
3.304688e+00	4.659674e-01	4.632591e-01
3.308594e+00	4.713875e-01	4.686881e-01
3.312500e+00	4.767899e-01	4.740995e-01
3.316406e+00	4.821743e-01	4.794930e-01
3.320312e+00	4.875406e-01	4.848685e-01
3.324219e+00	4.928886e-01	4.902257e-01
3.328125e+00	4.982179e-01	4.955645e-01
3.332031e+00	5.035285e-01	5.008846e-01
3.335938e+00	5.088202e-01	5.061859e-01
3.339844e+00	5.140927e-01	5.114680e-01
3.343750e+00	5.193458e-01	5.167310e-01
3.347656e+00	5.245794e-01	5.219745e-01
3.351562e+00	5.297933e-01	5.271983e-01
3.355469e+00	5.349872e-01	5.324023e-01
3.359375e+00	5.401609e-01	5.375862e-01
3.363281e+00	5.453143e-01	5.427499e-01
3.367188e+00	5.504472e-01	5.478932e-01
3.371094e+00	5.555594e-01	5.530158e-01
3.375000e+00	5.606506e-01	5.581177e-01
3.378906e+00	5.657208e-01	5.631985e-01
3.382812e+00	5.707696e-01	5.682581e-01
3.386719e+00	5.757970e-01	5.732963e-01
3.390625e+00	5.808026e-01	5.783129e-01
3.394531e+00	5.857864e-01	5.833077e-01
3.398438e+00	5.907482e-01	5.882806e-01
3.402344e+00	5.956877e-01	5.932314e-01
3.406250e+00	6.006048e-01	5.981598e-01
3.410156e+00	6.054992e-01	6.030657e-01
3.414062e+00	6.103709e-01	6.079488e-01
3.417969e+00	6.152196e-01	6.128091e-01
3.421875e+00	6.200451e-01	6.176463e-01
3.425781e+00	6.248473e-01	6.224603e-01
3.429688e+00	6.296260e-01	6.272508e-01
3.433594e+00	6.343809e-01	6.320177e-01
3.437500e+00	6.391120e-01	6.367609e-01
3.441406e+00	6.438190e-01	6.414800e-01
3.445312e+00	6.485018e-01	6.461750e-01
3.449219e+00	6.531601e-01	6.508457e-01
3.453125e+00	6.577939e-01	6.554918e-01
3.457031e+00	6.624029e-01	6.601133e-01
3.460938e+00	6.669869e-01	6.647099e-01
3.464844e+00	6.715459e-01	6.692815e-01
3.468750e+00	6.760796e-01	6.738279e-01
3.472656e+00	6.805878e-01	6.783490e-01
3.476562e+00	6.850703e-01	6.828445e-01
3.480469e+00	6.895271e-01	6.873143e-01
3.484375e+00	6.939580e-01	6.917582e-01
3.488281e+00	6.983627e-01	6.961760e-01
3.492188e+00	7.027411e-01	7.005677e-01
3.496094e+00	7.070930e-01	7.049330e-01
3.500000e+00	7.114184e-01	7.092717e-01
3.503906e+00	7.157169e-01	7.135837e-01
3.507812e+00	7.199885e-01	7.178689e-01
3.511719e+00	7.242330e-01	7.221271e-01
3.515625e+00	7.284502e-01	7.263580e-01
3.519531e+00	7.326400e-01	7.305616e-01
3.523438e+00	7.368023e-01	7.347377e-01
3.527344e+00	7.409367e-01	7.388862e-01
3.531250e+00	7.450433e-01	7.430068e-01
3.535156e+00	7.491218e-01	7.470994e-01
3.539062e+00	7.531722e-01	7.511640e-01
3.542969e+00	7.571941e-01	7.552002e-01
3.546875e+00	7.611876e-01	7.592080e-01
3.550781e+00	7.651524e-01	7.631872e-01
3.554688e+00	7.690884e-01	7.671377e-01
3.558594e+00	7.729955e-01	7.710593e-01
3.562500e+00	7.768734e-01	7.749519e-01
3.566406e+00	7.807221e-01	7.788153e-01
3.570312e+00	7.845414e-01	7.826494e-01
3.574219e+00	7.883311e-01	7.864540e-01
3.578125e+00	7.920912e-01	7.902290e-01
3.582031e+00	7.958215e-01	7.939742e-01
3.585938e+00	7.995218e-01	7.976896e-01
3.589844e+00	8.031920e-01	8.013749e-01
3.593750e+00	8.068319e-01	8.050301e-01
3.597656e+00	8.104415e-01	8.086549e-01
3.601562e+00	8.140205e-01	8.122493e-01
3.605469e+00	8.175690e-01	8.158131e-01
3.609375e+00	8.210866e-01	8.193462e-01
3.613281e+00	8.245733e-01	8.228485e-01
3.617188e+00	8.280290e-01	8.263198e-01
3.621094e+00	8.314535e-01	8.297599e-01
3.625000e+00	8.348467e-01	8.331689e-01
3.628906e+00	8.382085e-01	8.365464e-01
3.632812e+00	8.415387e-01	8.398925e-01
3.636719e+00	8.448372e-01	8.432069e-01
3.640625e+00	8.481039e-01	8.464896e-01
3.644531e+00	8.513387e-01	8.497404e-01
3.648438e+00	8.545414e-01	8.529593e-01
3.652344e+00	8.577120e-01	8.561460e-01
3.656250e+00	8.608503e-01	8.593005e-01
3.660156e+00	8.639561e-01	8.624226e-01
3.664062e+00	8.670295e-01	8.655123e-01
3.667969e+00	8.700701e-01	8.685693e-01
3.671875e+00	8.730781e-01	8.715937e-01
3.675781e+00	8.760531e-01	8.745853e-01
3.679688e+00	8.789952e-01	8.775439e-01
3.683594e+00	8.819042e-01	8.804695e-01
3.687500e+00	8.847800e-01	8.833620e-01
3.691406e+00	8.876224e-01	8.862211e-01
3.695312e+00	8.904315e-01	8.890470e-01
3.699219e+00	8.932070e-01	8.918393e-01
3.703125e+00	8.959489e-01	8.945981e-01
3.707031e+00	8.986571e-01	8.973232e-01
3.710938e+00	9.013314e-01	9.000145e-01
3.714844e+00	9.039718e-01	9.026719e-01
3.718750e+00	9.065782e-01	9.052953e-01
3.722656e+00	9.091504e-01	9.078847e-01
3.726562e+00	9.116884e-01	9.104399e-01
3.730469e+00	9.141921e-01	9.129608e-01
3.734375e+00	9.166613e-01	9.154473e-01
3.738281e+00	9.190961e-01	9.178993e-01
3.742188e+00	9.214962e-01	9.203168e-01
3.746094e+00	9.238617e-01	9.226997e-01
3.750000e+00	9.261923e-01	9.250478e-01
3.753906e+00	9.284881e-01	9.273611e-01
3.757812e+00	9.307490e-01	9.296394e-01
3.761719e+00	9.329748e-01	9.318828e-01
3.765625e+00	9.351655e-01	9.340911e-01
3.769531e+00	9.373209e-01	9.362642e-01
3.773438e+00	9.394411e-01	9.384021e-01
3.777344e+00	9.415259e-01	9.405046e-01
3.781250e+00	9.435753e-01	9.425717e-01
3.785156e+00	9.455891e-01	9.446034e-01
3.789062e+00	9.475673e-01	9.465994e-01
3.792969e+00	9.495099e-01	9.485599e-01
3.796875e+00	9.514167e-01	9.504846e-01
3.800781e+00	9.532877e-01	9.523735e-01
3.804688e+00	9.551228e-01	9.542266e-01
3.808594e+00	9.569219e-01	9.560438e-01
3.812500e+00	9.586850e-01	9.578249e-01
3.816406e+00	9.604120e-01	9.595700e-01
3.820312e+00	9.621029e-01	9.612790e-01
3.824219e+00	9.637575e-01	9.629518e-01
3.828125e+00	9.653759e-01	9.645883e-01
3.832031e+00	9.669579e-01	9.661885e-01
3.835938e+00	9.685035e-01	9.677523e-01
3.839844e+00	9.700126e-01	9.692797e-01
3.843750e+00	9.714852e-01	9.707706e-01
3.847656e+00	9.729213e-01	9.722250e-01
3.851562e+00	9.743207e-01	9.736427e-01
3.855469e+00	9.756834e-01	9.750238e-01
3.859375e+00	9.770094e-01	9.763682e-01
3.863281e+00	9.782986e-01	9.776758e-01
3.867188e+00	9.795510e-01	9.789466e-01
3.871094e+00	9.807665e-01	9.801806e-01
3.875000e+00	9.819451e-01	9.813777e-01
3.878906e+00	9.830867e-01	9.825378e-01
3.882812e+00	9.841913e-01	9.836609e-01
3.886719e+00	9.852588e-01	9.847470e-01
3.890625e+00	9.862893e-01	9.857960e-01
3.894531e+00	9.872826e-01	9.868079e-01
3.898438e+00	9.882387e-01	9.877826e-01
3.902344e+00	9.891577e-01	9.887201e-01
3.906250e+00	9.900394e-01	9.896205e-01
3.910156e+00	9.908838e-01	9.904835e-01
3.914062e+00	9.916909e-01	9.913093e-01
3.917969e+00	9.924607e-01	9.920978e-01
3.921875e+00	9.931931e-01	9.928489e-01
3.925781e+00	9.938882e-01	9.935626e-01
3.929688e+00	9.945458e-01	9.942389e-01
3.933594e+00	9.951659e-01	9.948778e-01
3.937500e+00	9.957486e-01	9.954792e-01
3.941406e+00	9.962939e-01	9.960431e-01
3.945312e+00	9.968016e-01	9.965696e-01
3.949219e+00	9.972718e-01	9.970585e-01
3.953125e+00	9.977044e-01	9.975099e-01
3.957031e+00	9.980995e-01	9.979237e-01
3.960938e+00	9.984570e-01	9.983000e-01
3.964844e+00	9.987769e-01	9.986387e-01
3.968750e+00	9.990593e-01	9.989397e-01
3.972656e+00	9.993042e-01	9.992032e-01
3.976562e+00	9.995116e-01	9.994290e-01
3.980469e+00	9.996816e-01	9.996173e-01
3.984375e+00	9.998147e-01	9.997678e-01
3.988281e+00	9.999113e-01	9.998808e-01
3.992188e+00	9.999726e-01	9.999561e-01
3.996094e+00	1.000001e+00	9.999937e-01
