Position [m]	T (fluid)  	T (solid)
0.000000e+00	9.999454e-01	9.998996e-01
1.562500e-02	9.993431e-01	9.992973e-01
3.125000e-02	9.981388e-01	9.980931e-01
4.687500e-02	9.963332e-01	9.962876e-01
6.250000e-02	9.939275e-01	9.938820e-01
7.812500e-02	9.909231e-01	9.908778e-01
9.375000e-02	9.873218e-01	9.872766e-01
1.093750e-01	9.831258e-01	9.830808e-01
1.250000e-01	9.783376e-01	9.782928e-01
1.406250e-01	9.729601e-01	9.729155e-01
1.562500e-01	9.669965e-01	9.669522e-01
1.718750e-01	9.604504e-01	9.604064e-01
1.875000e-01	9.533258e-01	9.532821e-01
2.031250e-01	9.456269e-01	9.455836e-01
2.187500e-01	9.373584e-01	9.373155e-01
2.343750e-01	9.285253e-01	9.284828e-01
2.500000e-01	9.191329e-01	9.190908e-01
2.656250e-01	9.091868e-01	9.091452e-01
2.812500e-01	8.986930e-01	8.986519e-01
2.968750e-01	8.876580e-01	8.876173e-01
3.125000e-01	8.760882e-01	8.760481e-01
3.281250e-01	8.639907e-01	8.639512e-01
3.437500e-01	8.513728e-01	8.513338e-01
3.593750e-01	8.382420e-01	8.382037e-01
3.750000e-01	8.246064e-01	8.245686e-01
3.906250e-01	8.104740e-01	8.104369e-01
4.062500e-01	7.958534e-01	7.958169e-01
4.218750e-01	7.807534e-01	7.807176e-01
4.375000e-01	7.651831e-01	7.651481e-01
4.531250e-01	7.491519e-01	7.491176e-01
4.687500e-01	7.326694e-01	7.326359e-01
4.843750e-01	7.157456e-01	7.157129e-01
5.000000e-01	6.983907e-01	6.983587e-01
5.156250e-01	6.806151e-01	6.805839e-01
5.312500e-01	6.624295e-01	6.623992e-01
5.468750e-01	6.438449e-01	6.438154e-01
5.625000e-01	6.248724e-01	6.248438e-01
5.781250e-01	6.055236e-01	6.054958e-01
5.937500e-01	5.858100e-01	5.857832e-01
6.093750e-01	5.657435e-01	5.657176e-01
6.250000e-01	5.453363e-01	5.453113e-01
6.406250e-01	5.246005e-01	5.245765e-01
6.562500e-01	5.035488e-01	5.035257e-01
6.718750e-01	4.821937e-01	4.821717e-01
6.875000e-01	4.605482e-01	4.605272e-01
7.031250e-01	4.386253e-01	4.386052e-01
7.187500e-01	4.164382e-01	4.164191e-01
7.343750e-01	3.940002e-01	3.939822e-01
7.500000e-01	3.713249e-01	3.713079e-01
7.656250e-01	3.484259e-01	3.484099e-01
7.812500e-01	3.253170e-01	3.253021e-01
7.968750e-01	3.020122e-01	3.019984e-01
8.125000e-01	2.785254e-01	2.785127e-01
8.281250e-01	2.548709e-01	2.548593e-01
8.437500e-01	2.310629e-01	2.310523e-01
8.593750e-01	2.071157e-01	2.071062e-01
8.750000e-01	1.830437e-01	1.830353e-01
8.906250e-01	1.588614e-01	1.588542e-01
9.062500e-01	1.345835e-01	1.345773e-01
9.218750e-01	1.102245e-01	1.102194e-01
9.375000e-01	8.579908e-02	8.579516e-02
9.531250e-01	6.132200e-02	6.131920e-02
9.687500e-01	3.680798e-02	3.680630e-02
9.843750e-01	1.227179e-02	1.227123e-02
1.000000e+00	-1.227180e-02	-1.227123e-02
1.015625e+00	-3.680799e-02	-3.680630e-02
1.031250e+00	-6.132201e-02	-6.131920e-02
1.046875e+00	-8.579909e-02	-8.579516e-02
1.062500e+00	-1.102245e-01	-1.102194e-01
1.078125e+00	-1.345835e-01	-1.345773e-01
1.093750e+00	-1.588614e-01	-1.588542e-01
1.109375e+00	-1.830437e-01	-1.830353e-01
1.125000e+00	-2.071157e-01	-2.071062e-01
1.140625e+00	-2.310629e-01	-2.310523e-01
1.156250e+00	-2.548709e-01	-2.548593e-01
1.171875e+00	-2.785255e-01	-2.785127e-01
1.187500e+00	-3.020122e-01	-3.019984e-01
1.203125e+00	-3.253170e-01	-3.253021e-01
1.218750e+00	-3.484259e-01	-3.484099e-01
1.234375e+00	-3.713249e-01	-3.713079e-01
1.250000e+00	-3.940002e-01	-3.939822e-01
1.265625e+00	-4.164382e-01	-4.164191e-01
1.281250e+00	-4.386253e-01	-4.386052e-01
1.296875e+00	-4.605482e-01	-4.605272e-01
1.312500e+00	-4.821937e-01	-4.821717e-01
1.328125e+00	-5.035488e-01	-5.035257e-01
1.343750e+00	-5.246005e-01	-5.245765e-01
1.359375e+00	-5.453363e-01	-5.453113e-01
1.375000e+00	-5.657435e-01	-5.657176e-01
1.390625e+00	-5.858100e-01	-5.857832e-01
1.406250e+00	-6.055236e-01	-6.054958e-01
1.421875e+00	-6.248724e-01	-6.248438e-01
1.437500e+00	-6.438449e-01	-6.438154e-01
1.453125e+00	-6.624295e-01	-6.623992e-01
1.468750e+00	-6.806151e-01	-6.805839e-01
1.484375e+00	-6.983907e-01	-6.983587e-01
1.500000e+00	-7.157456e-01	-7.157129e-01
1.515625e+00	-7.326694e-01	-7.326359e-01
1.531250e+00	-7.491519e-01	-7.491176e-01
1.546875e+00	-7.651831e-01	-7.651481e-01
1.562500e+00	-7.807534e-01	-7.807176e-01
1.578125e+00	-7.958534e-01	-7.958169e-01
1.593750e+00	-8.104740e-01	-8.104369e-01
1.609375e+00	-8.246064e-01	-8.245686e-01
1.625000e+00	-8.382420e-01	-8.382037e-01
1.640625e+00	-8.513728e-01	-8.513338e-01
1.656250e+00	-8.639907e-01	-8.639512e-01
1.671875e+00	-8.760882e-01	-8.760481e-01
1.687500e+00	-8.876580e-01	-8.876173e-01
1.703125e+00	-8.986930e-01	-8.986519e-01
1.718750e+00	-9.091868e-01	-9.091452e-01
1.734375e+00	-9.191329e-01	-9.190908e-01
1.750000e+00	-9.285253e-01	-9.284828e-01
1.765625e+00	-9.373584e-01	-9.373155e-01
1.781250e+00	-9.456269e-01	-9.455836e-01
1.796875e+00	-9.533258e-01	-9.532821e-01
1.812500e+00	-9.604504e-01	-9.604064e-01
1.828125e+00	-9.669965e-01	-9.669522e-01
1.843750e+00	-9.729601e-01	-9.729155e-01
1.859375e+00	-9.783376e-01	-9.782928e-01
1.875000e+00	-9.831258e-01	-9.830808e-01
1.890625e+00	-9.873218e-01	-9.872766e-01
1.906250e+00	-9.909231e-01	-9.908778e-01
1.921875e+00	-9.939275e-01	-9.938820e-01
1.937500e+00	-9.963332e-01	-9.962876e-01
1.953125e+00	-9.981387e-01	-9.980931e-01
1.968750e+00	-9.993430e-01	-9.992973e-01
1.984375e+00	-9.999454e-01	-9.998996e-01
2.000000e+00	-9.999454e-01	-9.998996e-01
2.015625e+00	-9.993430e-01	-9.992973e-01
2.031250e+00	-9.981387e-01	-9.980931e-01
2.046875e+00	-9.963332e-01	-9.962876e-01
2.062500e+00	-9.939275e-01	-9.938820e-01
2.078125e+00	-9.909231e-01	-9.908778e-01
2.093750e+00	-9.873218e-01	-9.872766e-01
2.109375e+00	-9.831258e-01	-9.830808e-01
2.125000e+00	-9.783376e-01	-9.782928e-01
2.140625e+00	-9.729601e-01	-9.729155e-01
2.156250e+00	-9.669965e-01	-9.669522e-01
2.171875e+00	-9.604504e-01	-9.604064e-01
2.187500e+00	-9.533257e-01	-9.532821e-01
2.203125e+00	-9.456269e-01	-9.455836e-01
2.218750e+00	-9.373584e-01	-9.373155e-01
2.234375e+00	-9.285253e-01	-9.284828e-01
2.250000e+00	-9.191328e-01	-9.190908e-01
2.265625e+00	-9.091868e-01	-9.091452e-01
2.281250e+00	-8.986930e-01	-8.986519e-01
2.296875e+00	-8.876580e-01	-8.876173e-01
2.312500e+00	-8.760882e-01	-8.760481e-01
2.328125e+00	-8.639907e-01	-8.639512e-01
2.343750e+00	-8.513728e-01	-8.513338e-01
2.359375e+00	-8.382420e-01	-8.382037e-01
2.375000e+00	-8.246063e-01	-8.245686e-01
2.390625e+00	-8.104739e-01	-8.104369e-01
2.406250e+00	-7.958534e-01	-7.958169e-01
2.421875e+00	-7.807534e-01	-7.807176e-01
2.437500e+00	-7.651831e-01	-7.651481e-01
2.453125e+00	-7.491519e-01	-7.491176e-01
2.468750e+00	-7.326694e-01	-7.326359e-01
2.484375e+00	-7.157456e-01	-7.157129e-01
2.500000e+00	-6.983907e-01	-6.983587e-01
2.515625e+00	-6.806151e-01	-6.805839e-01
2.531250e+00	-6.624295e-01	-6.623992e-01
2.546875e+00	-6.438448e-01	-6.438154e-01
2.562500e+00	-6.248724e-01	-6.248438e-01
2.578125e+00	-6.055236e-01	-6.054958e-01
2.593750e+00	-5.858100e-01	-5.857832e-01
2.609375e+00	-5.657435e-01	-5.657176e-01
2.625000e+00	-5.453363e-01	-5.453113e-01
2.640625e+00	-5.246005e-01	-5.245765e-01
2.656250e+00	-5.035488e-01	-5.035257e-01
2.671875e+00	-4.821937e-01	-4.821717e-01
2.687500e+00	-4.605482e-01	-4.605272e-01
2.703125e+00	-4.386253e-01	-4.386052e-01
2.718750e+00	-4.164382e-01	-4.164191e-01
2.734375e+00	-3.940002e-01	-3.939822e-01
2.750000e+00	-3.713249e-01	-3.713079e-01
2.765625e+00	-3.484259e-01	-3.484099e-01
2.781250e+00	-3.253170e-01	-3.253021e-01
2.796875e+00	-3.020122e-01	-3.019984e-01
2.812500e+00	-2.785254e-01	-2.785127e-01
2.828125e+00	-2.548709e-01	-2.548593e-01
2.843750e+00	-2.310629e-01	-2.310523e-01
2.859375e+00	-2.071156e-01	-2.071062e-01
2.875000e+00	-1.830437e-01	-1.830353e-01
2.890625e+00	-1.588614e-01	-1.588542e-01
2.906250e+00	-1.345835e-01	-1.345773e-01
2.921875e+00	-1.102245e-01	-1.102194e-01
2.937500e+00	-8.579907e-02	-8.579516e-02
2.953125e+00	-6.132199e-02	-6.131920e-02
2.968750e+00	-3.680797e-02	-3.680630e-02
2.984375e+00	-1.227178e-02	-1.227123e-02
3.000000e+00	1.227181e-02	1.227123e-02
3.015625e+00	3.680800e-02	3.680630e-02
3.031250e+00	6.132202e-02	6.131920e-02
3.046875e+00	8.579910e-02	8.579516e-02
3.062500e+00	1.102245e-01	1.102194e-01
3.078125e+00	1.345835e-01	1.345773e-01
3.093750e+00	1.588614e-01	1.588542e-01
3.109375e+00	1.830437e-01	1.830353e-01
3.125000e+00	2.071157e-01	2.071062e-01
3.140625e+00	2.310629e-01	2.310523e-01
3.156250e+00	2.548709e-01	2.548593e-01
3.171875e+00	2.785255e-01	2.785127e-01
3.187500e+00	3.020122e-01	3.019984e-01
3.203125e+00	3.253170e-01	3.253021e-01
3.218750e+00	3.484259e-01	3.484099e-01
3.234375e+00	3.713249e-01	3.713079e-01
3.250000e+00	3.940002e-01	3.939822e-01
3.265625e+00	4.164382e-01	4.164191e-01
3.281250e+00	4.386253e-01	4.386052e-01
3.296875e+00	4.605482e-01	4.605272e-01
3.312500e+00	4.821938e-01	4.821717e-01
3.328125e+00	5.035488e-01	5.035257e-01
3.343750e+00	5.246005e-01	5.245765e-01
3.359375e+00	5.453363e-01	5.453113e-01
3.375000e+00	5.657435e-01	5.657176e-01
3.390625e+00	5.858100e-01	5.857832e-01
3.406250e+00	6.055236e-01	6.054958e-01
3.421875e+00	6.248724e-01	6.248438e-01
3.437500e+00	6.438449e-01	6.438154e-01
3.453125e+00	6.624295e-01	6.623992e-01
3.468750e+00	6.806151e-01	6.805839e-01
3.484375e+00	6.983907e-01	6.983587e-01
3.500000e+00	7.157456e-01	7.157129e-01
3.515625e+00	7.326694e-01	7.326359e-01
3.531250e+00	7.491519e-01	7.491176e-01
3.546875e+00	7.651831e-01	7.651481e-01
3.562500e+00	7.807534e-01	7.807176e-01
3.578125e+00	7.958534e-01	7.958169e-01
3.593750e+00	8.104740e-01	8.104369e-01
3.609375e+00	8.246064e-01	8.245686e-01
3.625000e+00	8.382421e-01	8.382037e-01
3.640625e+00	8.513728e-01	8.513338e-01
3.656250e+00	8.639907e-01	8.639512e-01
3.671875e+00	8.760882e-01	8.760481e-01
3.687500e+00	8.876580e-01	8.876173e-01
3.703125e+00	8.986931e-01	8.986519e-01
3.718750e+00	9.091868e-01	9.091452e-01
3.734375e+00	9.191329e-01	9.190908e-01
3.750000e+00	9.285253e-01	9.284828e-01
3.765625e+00	9.373584e-01	9.373155e-01
3.781250e+00	9.456269e-01	9.455836e-01
3.796875e+00	9.533258e-01	9.532821e-01
3.812500e+00	9.604504e-01	9.604064e-01
3.828125e+00	9.669965e-01	9.669522e-01
3.843750e+00	9.729601e-01	9.729155e-01
3.859375e+00	9.783376e-01	9.782928e-01
3.875000e+00	9.831258e-01	9.830808e-01
3.890625e+00	9.873218e-01	9.872766e-01
3.906250e+00	9.909231e-01	9.908778e-01
3.921875e+00	9.939275e-01	9.938820e-01
3.937500e+00	9.963332e-01	9.962876e-01
3.953125e+00	9.981388e-01	9.980931e-01
3.968750e+00	9.993431e-01	9.992973e-01
3.984375e+00	9.999454e-01	9.998996e-01
