Position [m]	T (fluid)  	T (solid)
0.000000e+00	9.577415e-01	9.003163e-01
1.250000e-01	4.102135e-01	3.729232e-01
2.500000e-01	-3.623655e-01	-3.729232e-01
3.750000e-01	-9.069527e-01	-9.003163e-01
5.000000e-01	-9.040450e-01	-9.003163e-01
6.250000e-01	-3.548389e-01	-3.729232e-01
7.500000e-01	4.194705e-01	3.729232e-01
8.750000e-01	9.658423e-01	9.003163e-01
1.000000e+00	9.647749e-01	9.003163e-01
1.125000e+00	4.174666e-01	3.729232e-01
1.250000e+00	-3.548857e-01	-3.729232e-01
1.375000e+00	-8.992391e-01	-9.003163e-01
1.500000e+00	-8.960904e-01	-9.003163e-01
1.625000e+00	-3.466357e-01	-3.729232e-01
1.750000e+00	4.279301e-01	3.729232e-01
1.875000e+00	9.745662e-01	9.003163e-01
2.000000e+00	9.737714e-01	9.003163e-01
2.125000e+00	4.267443e-01	3.729232e-01
2.250000e+00	-3.453181e-01	-3.729232e-01
2.375000e+00	-8.893725e-01	-9.003163e-01
2.500000e+00	-8.859154e-01	-9.003163e-01
2.625000e+00	-3.361428e-01	-3.729232e-01
2.750000e+00	4.387510e-01	3.729232e-01
2.875000e+00	9.857252e-01	9.003163e-01
3.000000e+00	9.852792e-01	9.003163e-01
3.125000e+00	4.386117e-01	3.729232e-01
3.250000e+00	-3.330798e-01	-3.729232e-01
3.375000e+00	-8.767518e-01	-9.003163e-01
3.500000e+00	-8.729003e-01	-9.003163e-01
3.625000e+00	-3.227209e-01	-3.729232e-01
3.750000e+00	4.525922e-01	3.729232e-01
3.875000e+00	9.999990e-01	9.003163e-01
