Position [m]	T (fluid)  	T (solid)
0.000000e+00	9.998862e-01	9.999749e-01
7.812500e-03	9.996603e-01	9.998243e-01
1.562500e-02	9.992839e-01	9.995231e-01
2.343750e-02	9.987570e-01	9.990715e-01
3.125000e-02	9.980797e-01	9.984693e-01
3.906250e-02	9.972520e-01	9.977168e-01
4.687500e-02	9.962742e-01	9.968140e-01
5.468750e-02	9.951464e-01	9.957612e-01
6.250000e-02	9.938687e-01	9.945583e-01
7.031250e-02	9.924413e-01	9.932057e-01
7.812500e-02	9.908645e-01	9.917035e-01
8.593750e-02	9.891384e-01	9.900520e-01
9.375000e-02	9.872634e-01	9.882514e-01
1.015625e-01	9.852397e-01	9.863019e-01
1.093750e-01	9.830677e-01	9.842039e-01
1.171875e-01	9.807476e-01	9.819577e-01
1.250000e-01	9.782797e-01	9.795636e-01
1.328125e-01	9.756646e-01	9.770220e-01
1.406250e-01	9.729025e-01	9.743333e-01
1.484375e-01	9.699940e-01	9.714978e-01
1.562500e-01	9.669393e-01	9.685160e-01
1.640625e-01	9.637390e-01	9.653884e-01
1.718750e-01	9.603936e-01	9.621154e-01
1.796875e-01	9.569036e-01	9.586975e-01
1.875000e-01	9.532694e-01	9.551352e-01
1.953125e-01	9.494917e-01	9.514291e-01
2.031250e-01	9.455710e-01	9.475796e-01
2.109375e-01	9.415079e-01	9.435875e-01
2.187500e-01	9.373030e-01	9.394533e-01
2.265625e-01	9.329570e-01	9.351776e-01
2.343750e-01	9.284704e-01	9.307611e-01
2.421875e-01	9.238441e-01	9.262044e-01
2.500000e-01	9.190786e-01	9.215083e-01
2.578125e-01	9.141747e-01	9.166733e-01
2.656250e-01	9.091331e-01	9.117003e-01
2.734375e-01	9.039546e-01	9.065900e-01
2.812500e-01	8.986400e-01	9.013432e-01
2.890625e-01	8.931900e-01	8.959606e-01
2.968750e-01	8.876056e-01	8.904431e-01
3.046875e-01	8.818875e-01	8.847915e-01
3.125000e-01	8.760365e-01	8.790067e-01
3.203125e-01	8.700536e-01	8.730895e-01
3.281250e-01	8.639398e-01	8.670408e-01
3.359375e-01	8.576958e-01	8.608615e-01
3.437500e-01	8.513226e-01	8.545526e-01
3.515625e-01	8.448212e-01	8.481150e-01
3.593750e-01	8.381926e-01	8.415497e-01
3.671875e-01	8.314378e-01	8.348576e-01
3.750000e-01	8.245577e-01	8.280398e-01
3.828125e-01	8.175535e-01	8.210974e-01
3.906250e-01	8.104262e-01	8.140312e-01
3.984375e-01	8.031768e-01	8.068425e-01
4.062500e-01	7.958065e-01	7.995323e-01
4.140625e-01	7.883163e-01	7.921016e-01
4.218750e-01	7.807074e-01	7.845517e-01
4.296875e-01	7.729809e-01	7.768836e-01
4.375000e-01	7.651380e-01	7.690985e-01
4.453125e-01	7.571799e-01	7.611976e-01
4.531250e-01	7.491078e-01	7.531821e-01
4.609375e-01	7.409228e-01	7.450531e-01
4.687500e-01	7.326263e-01	7.368119e-01
4.765625e-01	7.242194e-01	7.284598e-01
4.843750e-01	7.157035e-01	7.199980e-01
4.921875e-01	7.070798e-01	7.114277e-01
5.000000e-01	6.983496e-01	7.027503e-01
5.078125e-01	6.895143e-01	6.939671e-01
5.156250e-01	6.805751e-01	6.850794e-01
5.234375e-01	6.715334e-01	6.760885e-01
5.312500e-01	6.623905e-01	6.669957e-01
5.390625e-01	6.531480e-01	6.578026e-01
5.468750e-01	6.438070e-01	6.485103e-01
5.546875e-01	6.343691e-01	6.391204e-01
5.625000e-01	6.248357e-01	6.296343e-01
5.703125e-01	6.152082e-01	6.200533e-01
5.781250e-01	6.054880e-01	6.103790e-01
5.859375e-01	5.956767e-01	6.006127e-01
5.937500e-01	5.857756e-01	5.907560e-01
6.015625e-01	5.757863e-01	5.808103e-01
6.093750e-01	5.657103e-01	5.707772e-01
6.171875e-01	5.555491e-01	5.606581e-01
6.250000e-01	5.453043e-01	5.504545e-01
6.328125e-01	5.349773e-01	5.401681e-01
6.406250e-01	5.245698e-01	5.298003e-01
6.484375e-01	5.140833e-01	5.193527e-01
6.562500e-01	5.035193e-01	5.088269e-01
6.640625e-01	4.928795e-01	4.982245e-01
6.718750e-01	4.821655e-01	4.875471e-01
6.796875e-01	4.713789e-01	4.767962e-01
6.875000e-01	4.605213e-01	4.659736e-01
6.953125e-01	4.495944e-01	4.550807e-01
7.031250e-01	4.385997e-01	4.441194e-01
7.109375e-01	4.275390e-01	4.330911e-01
7.187500e-01	4.164139e-01	4.219976e-01
7.265625e-01	4.052261e-01	4.108406e-01
7.343750e-01	3.939772e-01	3.996217e-01
7.421875e-01	3.826690e-01	3.883426e-01
7.500000e-01	3.713033e-01	3.770050e-01
7.578125e-01	3.598815e-01	3.656107e-01
7.656250e-01	3.484056e-01	3.541613e-01
7.734375e-01	3.368772e-01	3.426586e-01
7.812500e-01	3.252981e-01	3.311042e-01
7.890625e-01	3.136700e-01	3.195000e-01
7.968750e-01	3.019947e-01	3.078477e-01
8.046875e-01	2.902739e-01	2.961490e-01
8.125000e-01	2.785093e-01	2.844058e-01
8.203125e-01	2.667029e-01	2.726196e-01
8.281250e-01	2.548562e-01	2.607925e-01
8.359375e-01	2.429712e-01	2.489260e-01
8.437500e-01	2.310496e-01	2.370221e-01
8.515625e-01	2.190932e-01	2.250825e-01
8.593750e-01	2.071038e-01	2.131090e-01
8.671875e-01	1.950832e-01	2.011034e-01
8.750000e-01	1.830332e-01	1.890675e-01
8.828125e-01	1.709557e-01	1.770031e-01
8.906250e-01	1.588524e-01	1.649121e-01
8.984375e-01	1.467252e-01	1.527962e-01
9.062500e-01	1.345759e-01	1.406574e-01
9.140625e-01	1.224064e-01	1.284973e-01
9.218750e-01	1.102184e-01	1.163179e-01
9.296875e-01	9.801376e-02	1.041210e-01
9.375000e-01	8.579440e-02	9.190838e-02
9.453125e-01	7.356213e-02	7.968194e-02
9.531250e-01	6.131877e-02	6.744350e-02
9.609375e-01	4.906618e-02	5.519490e-02
9.687500e-01	3.680620e-02	4.293799e-02
9.765625e-01	2.454068e-02	3.067461e-02
9.843750e-01	1.227147e-02	1.840661e-02
9.921875e-01	3.998918e-07	6.135846e-03
1.000000e+00	-1.227067e-02	-6.135846e-03
1.007812e+00	-2.453988e-02	-1.840661e-02
1.015625e+00	-3.680540e-02	-3.067461e-02
1.023438e+00	-4.906538e-02	-4.293799e-02
1.031250e+00	-6.131797e-02	-5.519490e-02
1.039062e+00	-7.356133e-02	-6.744350e-02
1.046875e+00	-8.579361e-02	-7.968194e-02
1.054688e+00	-9.801296e-02	-9.190838e-02
1.062500e+00	-1.102176e-01	-1.041210e-01
1.070312e+00	-1.224056e-01	-1.163179e-01
1.078125e+00	-1.345751e-01	-1.284973e-01
1.085938e+00	-1.467244e-01	-1.406574e-01
1.093750e+00	-1.588516e-01	-1.527962e-01
1.101562e+00	-1.709549e-01	-1.649121e-01
1.109375e+00	-1.830324e-01	-1.770031e-01
1.117188e+00	-1.950824e-01	-1.890675e-01
1.125000e+00	-2.071030e-01	-2.011034e-01
1.132812e+00	-2.190924e-01	-2.131090e-01
1.140625e+00	-2.310488e-01	-2.250825e-01
1.148438e+00	-2.429704e-01	-2.370221e-01
1.156250e+00	-2.548554e-01	-2.489260e-01
1.164062e+00	-2.667021e-01	-2.607925e-01
1.171875e+00	-2.785086e-01	-2.726196e-01
1.179688e+00	-2.902731e-01	-2.844058e-01
1.187500e+00	-3.019939e-01	-2.961490e-01
1.195312e+00	-3.136693e-01	-3.078477e-01
1.203125e+00	-3.252974e-01	-3.195000e-01
1.210938e+00	-3.368765e-01	-3.311042e-01
1.218750e+00	-3.484049e-01	-3.426586e-01
1.226562e+00	-3.598808e-01	-3.541613e-01
1.234375e+00	-3.713025e-01	-3.656107e-01
1.242188e+00	-3.826683e-01	-3.770050e-01
1.250000e+00	-3.939765e-01	-3.883426e-01
1.257812e+00	-4.052253e-01	-3.996217e-01
1.265625e+00	-4.164131e-01	-4.108406e-01
1.273438e+00	-4.275383e-01	-4.219976e-01
1.281250e+00	-4.385990e-01	-4.330911e-01
1.289062e+00	-4.495936e-01	-4.441194e-01
1.296875e+00	-4.605206e-01	-4.550807e-01
1.304688e+00	-4.713782e-01	-4.659736e-01
1.312500e+00	-4.821648e-01	-4.767962e-01
1.320312e+00	-4.928788e-01	-4.875471e-01
1.328125e+00	-5.035186e-01	-4.982245e-01
1.335938e+00	-5.140826e-01	-5.088269e-01
1.343750e+00	-5.245691e-01	-5.193527e-01
1.351562e+00	-5.349767e-01	-5.298003e-01
1.359375e+00	-5.453036e-01	-5.401681e-01
1.367188e+00	-5.555485e-01	-5.504545e-01
1.375000e+00	-5.657097e-01	-5.606581e-01
1.382812e+00	-5.757857e-01	-5.707772e-01
1.390625e+00	-5.857750e-01	-5.808103e-01
1.398438e+00	-5.956760e-01	-5.907560e-01
1.406250e+00	-6.054874e-01	-6.006127e-01
1.414062e+00	-6.152076e-01	-6.103790e-01
1.421875e+00	-6.248351e-01	-6.200533e-01
1.429688e+00	-6.343685e-01	-6.296343e-01
1.437500e+00	-6.438064e-01	-6.391204e-01
1.445312e+00	-6.531474e-01	-6.485103e-01
1.453125e+00	-6.623899e-01	-6.578026e-01
1.460938e+00	-6.715328e-01	-6.669957e-01
1.468750e+00	-6.805745e-01	-6.760885e-01
1.476562e+00	-6.895137e-01	-6.850794e-01
1.484375e+00	-6.983490e-01	-6.939671e-01
1.492188e+00	-7.070792e-01	-7.027503e-01
1.500000e+00	-7.157030e-01	-7.114277e-01
1.507812e+00	-7.242189e-01	-7.199980e-01
1.515625e+00	-7.326258e-01	-7.284598e-01
1.523438e+00	-7.409223e-01	-7.368119e-01
1.531250e+00	-7.491073e-01	-7.450531e-01
1.539062e+00	-7.571794e-01	-7.531821e-01
1.546875e+00	-7.651375e-01	-7.611976e-01
1.554688e+00	-7.729804e-01	-7.690985e-01
1.562500e+00	-7.807069e-01	-7.768836e-01
1.570312e+00	-7.883158e-01	-7.845517e-01
1.578125e+00	-7.958060e-01	-7.921016e-01
1.585938e+00	-8.031763e-01	-7.995323e-01
1.593750e+00	-8.104257e-01	-8.068425e-01
1.601562e+00	-8.175531e-01	-8.140312e-01
1.609375e+00	-8.245573e-01	-8.210974e-01
1.617188e+00	-8.314373e-01	-8.280398e-01
1.625000e+00	-8.381922e-01	-8.348576e-01
1.632812e+00	-8.448208e-01	-8.415497e-01
1.640625e+00	-8.513222e-01	-8.481150e-01
1.648438e+00	-8.576953e-01	-8.545526e-01
1.656250e+00	-8.639393e-01	-8.608615e-01
1.664062e+00	-8.700533e-01	-8.670408e-01
1.671875e+00	-8.760361e-01	-8.730895e-01
1.679688e+00	-8.818871e-01	-8.790067e-01
1.687500e+00	-8.876052e-01	-8.847915e-01
1.695312e+00	-8.931897e-01	-8.904431e-01
1.703125e+00	-8.986396e-01	-8.959606e-01
1.710938e+00	-9.039543e-01	-9.013432e-01
1.718750e+00	-9.091328e-01	-9.065900e-01
1.726562e+00	-9.141744e-01	-9.117003e-01
1.734375e+00	-9.190783e-01	-9.166733e-01
1.742188e+00	-9.238438e-01	-9.215083e-01
1.750000e+00	-9.284701e-01	-9.262044e-01
1.757812e+00	-9.329567e-01	-9.307611e-01
1.765625e+00	-9.373027e-01	-9.351776e-01
1.773438e+00	-9.415076e-01	-9.394533e-01
1.781250e+00	-9.455707e-01	-9.435875e-01
1.789062e+00	-9.494915e-01	-9.475796e-01
1.796875e+00	-9.532692e-01	-9.514291e-01
1.804688e+00	-9.569033e-01	-9.551352e-01
1.812500e+00	-9.603934e-01	-9.586975e-01
1.820312e+00	-9.637388e-01	-9.621154e-01
1.828125e+00	-9.669391e-01	-9.653884e-01
1.835938e+00	-9.699938e-01	-9.685160e-01
1.843750e+00	-9.729024e-01	-9.714978e-01
1.851562e+00	-9.756644e-01	-9.743333e-01
1.859375e+00	-9.782796e-01	-9.770220e-01
1.867188e+00	-9.807474e-01	-9.795636e-01
1.875000e+00	-9.830675e-01	-9.819577e-01
1.882812e+00	-9.852396e-01	-9.842039e-01
1.890625e+00	-9.872633e-01	-9.863019e-01
1.898438e+00	-9.891383e-01	-9.882514e-01
1.906250e+00	-9.908644e-01	-9.900520e-01
1.914062e+00	-9.924412e-01	-9.917035e-01
1.921875e+00	-9.938686e-01	-9.932057e-01
1.929688e+00	-9.951463e-01	-9.945583e-01
1.937500e+00	-9.962742e-01	-9.957612e-01
1.945312e+00	-9.972520e-01	-9.968140e-01
1.953125e+00	-9.980796e-01	-9.977168e-01
1.960938e+00	-9.987569e-01	-9.984693e-01
1.968750e+00	-9.992838e-01	-9.990715e-01
1.976562e+00	-9.996603e-01	-9.995231e-01
1.984375e+00	-9.998862e-01	-9.998243e-01
1.992188e+00	-9.999615e-01	-9.999749e-01
2.000000e+00	-9.998862e-01	-9.999749e-01
2.007812e+00	-9.996603e-01	-9.998243e-01
2.015625e+00	-9.992839e-01	-9.995231e-01
2.023438e+00	-9.987570e-01	-9.990715e-01
2.031250e+00	-9.980797e-01	-9.984693e-01
2.039062e+00	-9.972520e-01	-9.977168e-01
2.046875e+00	-9.962742e-01	-9.968140e-01
2.054688e+00	-9.951464e-01	-9.957612e-01
2.062500e+00	-9.938687e-01	-9.945583e-01
2.070312e+00	-9.924413e-01	-9.932057e-01
2.078125e+00	-9.908645e-01	-9.917035e-01
2.085938e+00	-9.891384e-01	-9.900520e-01
2.093750e+00	-9.872634e-01	-9.882514e-01
2.101562e+00	-9.852397e-01	-9.863019e-01
2.109375e+00	-9.830677e-01	-9.842039e-01
2.117188e+00	-9.807476e-01	-9.819577e-01
2.125000e+00	-9.782797e-01	-9.795636e-01
2.132812e+00	-9.756646e-01	-9.770220e-01
2.140625e+00	-9.729025e-01	-9.743333e-01
2.148438e+00	-9.699940e-01	-9.714978e-01
2.156250e+00	-9.669393e-01	-9.685160e-01
2.164062e+00	-9.637390e-01	-9.653884e-01
2.171875e+00	-9.603936e-01	-9.621154e-01
2.179688e+00	-9.569036e-01	-9.586975e-01
2.187500e+00	-9.532694e-01	-9.551352e-01
2.195312e+00	-9.494917e-01	-9.514291e-01
2.203125e+00	-9.455710e-01	-9.475796e-01
2.210938e+00	-9.415079e-01	-9.435875e-01
2.218750e+00	-9.373030e-01	-9.394533e-01
2.226562e+00	-9.329570e-01	-9.351776e-01
2.234375e+00	-9.284704e-01	-9.307611e-01
2.242188e+00	-9.238441e-01	-9.262044e-01
2.250000e+00	-9.190786e-01	-9.215083e-01
2.257812e+00	-9.141747e-01	-9.166733e-01
2.265625e+00	-9.091331e-01	-9.117003e-01
2.273438e+00	-9.039546e-01	-9.065900e-01
2.281250e+00	-8.986400e-01	-9.013432e-01
2.289062e+00	-8.931900e-01	-8.959606e-01
2.296875e+00	-8.876056e-01	-8.904431e-01
2.304688e+00	-8.818875e-01	-8.847915e-01
2.312500e+00	-8.760365e-01	-8.790067e-01
2.320312e+00	-8.700536e-01	-8.730895e-01
2.328125e+00	-8.639398e-01	-8.670408e-01
2.335938e+00	-8.576958e-01	-8.608615e-01
2.343750e+00	-8.513226e-01	-8.545526e-01
2.351562e+00	-8.448212e-01	-8.481150e-01
2.359375e+00	-8.381926e-01	-8.415497e-01
2.367188e+00	-8.314378e-01	-8.348576e-01
2.375000e+00	-8.245577e-01	-8.280398e-01
2.382812e+00	-8.175535e-01	-8.210974e-01
2.390625e+00	-8.104262e-01	-8.140312e-01
2.398438e+00	-8.031768e-01	-8.068425e-01
2.406250e+00	-7.958065e-01	-7.995323e-01
2.414062e+00	-7.883163e-01	-7.921016e-01
2.421875e+00	-7.807074e-01	-7.845517e-01
2.429688e+00	-7.729809e-01	-7.768836e-01
2.437500e+00	-7.651380e-01	-7.690985e-01
2.445312e+00	-7.571799e-01	-7.611976e-01
2.453125e+00	-7.491078e-01	-7.531821e-01
2.460938e+00	-7.409228e-01	-7.450531e-01
2.468750e+00	-7.326263e-01	-7.368119e-01
2.476562e+00	-7.242194e-01	-7.284598e-01
2.484375e+00	-7.157035e-01	-7.199980e-01
2.492188e+00	-7.070798e-01	-7.114277e-01
2.500000e+00	-6.983496e-01	-7.027503e-01
2.507812e+00	-6.895143e-01	-6.939671e-01
2.515625e+00	-6.805751e-01	-6.850794e-01
2.523438e+00	-6.715334e-01	-6.760885e-01
2.531250e+00	-6.623905e-01	-6.669957e-01
2.539062e+00	-6.531480e-01	-6.578026e-01
2.546875e+00	-6.438070e-01	-6.485103e-01
2.554688e+00	-6.343691e-01	-6.391204e-01
2.562500e+00	-6.248357e-01	-6.296343e-01
2.570312e+00	-6.152082e-01	-6.200533e-01
2.578125e+00	-6.054880e-01	-6.103790e-01
2.585938e+00	-5.956767e-01	-6.006127e-01
2.593750e+00	-5.857756e-01	-5.907560e-01
2.601562e+00	-5.757863e-01	-5.808103e-01
2.609375e+00	-5.657103e-01	-5.707772e-01
2.617188e+00	-5.555491e-01	-5.606581e-01
2.625000e+00	-5.453043e-01	-5.504545e-01
2.632812e+00	-5.349773e-01	-5.401681e-01
2.640625e+00	-5.245698e-01	-5.298003e-01
2.648438e+00	-5.140833e-01	-5.193527e-01
2.656250e+00	-5.035193e-01	-5.088269e-01
2.664062e+00	-4.928795e-01	-4.982245e-01
2.671875e+00	-4.821655e-01	-4.875471e-01
2.679688e+00	-4.713789e-01	-4.767962e-01
2.687500e+00	-4.605213e-01	-4.659736e-01
2.695312e+00	-4.495944e-01	-4.550807e-01
2.703125e+00	-4.385997e-01	-4.441194e-01
2.710938e+00	-4.275390e-01	-4.330911e-01
2.718750e+00	-4.164139e-01	-4.219976e-01
2.726562e+00	-4.052261e-01	-4.108406e-01
2.734375e+00	-3.939772e-01	-3.996217e-01
2.742188e+00	-3.826690e-01	-3.883426e-01
2.750000e+00	-3.713033e-01	-3.770050e-01
2.757812e+00	-3.598815e-01	-3.656107e-01
2.765625e+00	-3.484056e-01	-3.541613e-01
2.773438e+00	-3.368772e-01	-3.426586e-01
2.781250e+00	-3.252981e-01	-3.311042e-01
2.789062e+00	-3.136700e-01	-3.195000e-01
2.796875e+00	-3.019947e-01	-3.078477e-01
2.804688e+00	-2.902739e-01	-2.961490e-01
2.812500e+00	-2.785093e-01	-2.844058e-01
2.820312e+00	-2.667029e-01	-2.726196e-01
2.828125e+00	-2.548562e-01	-2.607925e-01
2.835938e+00	-2.429712e-01	-2.489260e-01
2.843750e+00	-2.310496e-01	-2.370221e-01
2.851562e+00	-2.190932e-01	-2.250825e-01
2.859375e+00	-2.071038e-01	-2.131090e-01
2.867188e+00	-1.950832e-01	-2.011034e-01
2.875000e+00	-1.830332e-01	-1.890675e-01
2.882812e+00	-1.709557e-01	-1.770031e-01
2.890625e+00	-1.588524e-01	-1.649121e-01
2.898438e+00	-1.467252e-01	-1.527962e-01
2.906250e+00	-1.345759e-01	-1.406574e-01
2.914062e+00	-1.224064e-01	-1.284973e-01
2.921875e+00	-1.102184e-01	-1.163179e-01
2.929688e+00	-9.801376e-02	-1.041210e-01
2.937500e+00	-8.579440e-02	-9.190838e-02
2.945312e+00	-7.356213e-02	-7.968194e-02
2.953125e+00	-6.131877e-02	-6.744350e-02
2.960938e+00	-4.906618e-02	-5.519490e-02
2.968750e+00	-3.680620e-02	-4.293799e-02
2.976562e+00	-2.454068e-02	-3.067461e-02
2.984375e+00	-1.227147e-02	-1.840661e-02
2.992188e+00	-3.998917e-07	-6.135846e-03
3.000000e+00	1.227067e-02	6.135846e-03
3.007812e+00	2.453988e-02	1.840661e-02
3.015625e+00	3.680540e-02	3.067461e-02
3.023438e+00	4.906538e-02	4.293799e-02
3.031250e+00	6.131797e-02	5.519490e-02
3.039062e+00	7.356133e-02	6.744350e-02
3.046875e+00	8.579361e-02	7.968194e-02
3.054688e+00	9.801296e-02	9.190838e-02
3.062500e+00	1.102176e-01	1.041210e-01
3.070312e+00	1.224056e-01	1.163179e-01
3.078125e+00	1.345751e-01	1.284973e-01
3.085938e+00	1.467244e-01	1.406574e-01
3.093750e+00	1.588516e-01	1.527962e-01
3.101562e+00	1.709549e-01	1.649121e-01
3.109375e+00	1.830324e-01	1.770031e-01
3.117188e+00	1.950824e-01	1.890675e-01
3.125000e+00	2.071030e-01	2.011034e-01
3.132812e+00	2.190924e-01	2.131090e-01
3.140625e+00	2.310488e-01	2.250825e-01
3.148438e+00	2.429704e-01	2.370221e-01
3.156250e+00	2.548554e-01	2.489260e-01
3.164062e+00	2.667021e-01	2.607925e-01
3.171875e+00	2.785086e-01	2.726196e-01
3.179688e+00	2.902731e-01	2.844058e-01
3.187500e+00	3.019939e-01	2.961490e-01
3.195312e+00	3.136693e-01	3.078477e-01
3.203125e+00	3.252974e-01	3.195000e-01
3.210938e+00	3.368765e-01	3.311042e-01
3.218750e+00	3.484049e-01	3.426586e-01
3.226562e+00	3.598808e-01	3.541613e-01
3.234375e+00	3.713025e-01	3.656107e-01
3.242188e+00	3.826683e-01	3.770050e-01
3.250000e+00	3.939765e-01	3.883426e-01
3.257812e+00	4.052253e-01	3.996217e-01
3.265625e+00	4.164131e-01	4.108406e-01
3.273438e+00	4.275383e-01	4.219976e-01
3.281250e+00	4.385990e-01	4.330911e-01
3.289062e+00	4.495936e-01	4.441194e-01
3.296875e+00	4.605206e-01	4.550807e-01
3.304688e+00	4.713782e-01	4.659736e-01
3.312500e+00	4.821648e-01	4.767962e-01
3.320312e+00	4.928788e-01	4.875471e-01
3.328125e+00	5.035186e-01	4.982245e-01
3.335938e+00	5.140826e-01	5.088269e-01
3.343750e+00	5.245691e-01	5.193527e-01
3.351562e+00	5.349767e-01	5.298003e-01
3.359375e+00	5.453036e-01	5.401681e-01
3.367188e+00	5.555485e-01	5.504545e-01
3.375000e+00	5.657097e-01	5.606581e-01
3.382812e+00	5.757857e-01	5.707772e-01
3.390625e+00	5.857750e-01	5.808103e-01
3.398438e+00	5.956760e-01	5.907560e-01
3.406250e+00	6.054874e-01	6.006127e-01
3.414062e+00	6.152076e-01	6.103790e-01
3.421875e+00	6.248351e-01	6.200533e-01
3.429688e+00	6.343685e-01	6.296343e-01
3.437500e+00	6.438064e-01	6.391204e-01
3.445312e+00	6.531474e-01	6.485103e-01
3.453125e+00	6.623899e-01	6.578026e-01
3.460938e+00	6.715328e-01	6.669957e-01
3.468750e+00	6.805745e-01	6.760885e-01
3.476562e+00	6.895137e-01	6.850794e-01
3.484375e+00	6.983490e-01	6.939671e-01
3.492188e+00	7.070792e-01	7.027503e-01
3.500000e+00	7.157030e-01	7.114277e-01
3.507812e+00	7.242189e-01	7.199980e-01
3.515625e+00	7.326258e-01	7.284598e-01
3.523438e+00	7.409223e-01	7.368119e-01
3.531250e+00	7.491073e-01	7.450531e-01
3.539062e+00	7.571794e-01	7.531821e-01
3.546875e+00	7.651375e-01	7.611976e-01
3.554688e+00	7.729804e-01	7.690985e-01
3.562500e+00	7.807069e-01	7.768836e-01
3.570312e+00	7.883158e-01	7.845517e-01
3.578125e+00	7.958060e-01	7.921016e-01
3.585938e+00	8.031763e-01	7.995323e-01
3.593750e+00	8.104257e-01	8.068425e-01
3.601562e+00	8.175531e-01	8.140312e-01
3.609375e+00	8.245573e-01	8.210974e-01
3.617188e+00	8.314373e-01	8.280398e-01
3.625000e+00	8.381922e-01	8.348576e-01
3.632812e+00	8.448208e-01	8.415497e-01
3.640625e+00	8.513222e-01	8.481150e-01
3.648438e+00	8.576953e-01	8.545526e-01
3.656250e+00	8.639394e-01	8.608615e-01
3.664062e+00	8.700533e-01	8.670408e-01
3.671875e+00	8.760361e-01	8.730895e-01
3.679688e+00	8.818871e-01	8.790067e-01
3.687500e+00	8.876052e-01	8.847915e-01
3.695312e+00	8.931897e-01	8.904431e-01
3.703125e+00	8.986396e-01	8.959606e-01
3.710938e+00	9.039543e-01	9.013432e-01
3.718750e+00	9.091328e-01	9.065900e-01
3.726562e+00	9.141744e-01	9.117003e-01
3.734375e+00	9.190783e-01	9.166733e-01
3.742188e+00	9.238438e-01	9.215083e-01
3.750000e+00	9.284701e-01	9.262044e-01
3.757812e+00	9.329567e-01	9.307611e-01
3.765625e+00	9.373027e-01	9.351776e-01
3.773438e+00	9.415076e-01	9.394533e-01
3.781250e+00	9.455708e-01	9.435875e-01
3.789062e+00	9.494915e-01	9.475796e-01
3.796875e+00	9.532692e-01	9.514291e-01
3.804688e+00	9.569033e-01	9.551352e-01
3.812500e+00	9.603934e-01	9.586975e-01
3.820312e+00	9.637388e-01	9.621154e-01
3.828125e+00	9.669391e-01	9.653884e-01
3.835938e+00	9.699938e-01	9.685160e-01
3.843750e+00	9.729024e-01	9.714978e-01
3.851562e+00	9.756645e-01	9.743333e-01
3.859375e+00	9.782796e-01	9.770220e-01
3.867188e+00	9.807474e-01	9.795636e-01
3.875000e+00	9.830676e-01	9.819577e-01
3.882812e+00	9.852396e-01	9.842039e-01
3.890625e+00	9.872634e-01	9.863019e-01
3.898438e+00	9.891384e-01	9.882514e-01
3.906250e+00	9.908645e-01	9.900520e-01
3.914062e+00	9.924413e-01	9.917035e-01
3.921875e+00	9.938687e-01	9.932057e-01
3.929688e+00	9.951464e-01	9.945583e-01
3.937500e+00	9.962743e-01	9.957612e-01
3.945312e+00	9.972522e-01	9.968140e-01
3.953125e+00	9.980799e-01	9.977168e-01
3.960938e+00	9.987576e-01	9.984693e-01
3.968750e+00	9.992855e-01	9.990715e-01
3.976562e+00	9.996649e-01	9.995231e-01
3.984375e+00	9.998994e-01	9.998243e-01
3.992188e+00	1.000000e+00	9.999749e-01
