Position [m]	T (fluid)  	T (solid)
0.000000e+00	9.997707e-01	9.999749e-01
1.953125e-03	9.995449e-01	9.998243e-01
3.906250e-03	9.991686e-01	9.995231e-01
5.859375e-03	9.986418e-01	9.990715e-01
7.812500e-03	9.979646e-01	9.984693e-01
9.765625e-03	9.971371e-01	9.977168e-01
1.171875e-02	9.961595e-01	9.968140e-01
1.367188e-02	9.950318e-01	9.957612e-01
1.562500e-02	9.937543e-01	9.945583e-01
1.757812e-02	9.923272e-01	9.932057e-01
1.953125e-02	9.907506e-01	9.917035e-01
2.148438e-02	9.890248e-01	9.900520e-01
2.343750e-02	9.871500e-01	9.882514e-01
2.539062e-02	9.851266e-01	9.863019e-01
2.734375e-02	9.829548e-01	9.842039e-01
2.929688e-02	9.806350e-01	9.819577e-01
3.125000e-02	9.781676e-01	9.795636e-01
3.320312e-02	9.755528e-01	9.770220e-01
3.515625e-02	9.727911e-01	9.743333e-01
3.710938e-02	9.698829e-01	9.714978e-01
3.906250e-02	9.668286e-01	9.685160e-01
4.101562e-02	9.636288e-01	9.653884e-01
4.296875e-02	9.602838e-01	9.621154e-01
4.492188e-02	9.567942e-01	9.586975e-01
4.687500e-02	9.531605e-01	9.551352e-01
4.882812e-02	9.493833e-01	9.514291e-01
5.078125e-02	9.454631e-01	9.475796e-01
5.273438e-02	9.414005e-01	9.435875e-01
5.468750e-02	9.371962e-01	9.394533e-01
5.664062e-02	9.328507e-01	9.351776e-01
5.859375e-02	9.283647e-01	9.307611e-01
6.054688e-02	9.237389e-01	9.262044e-01
6.250000e-02	9.189740e-01	9.215083e-01
6.445312e-02	9.140707e-01	9.166733e-01
6.640625e-02	9.090298e-01	9.117003e-01
6.835938e-02	9.038519e-01	9.065900e-01
7.031250e-02	8.985380e-01	9.013432e-01
7.226562e-02	8.930887e-01	8.959606e-01
7.421875e-02	8.875049e-01	8.904431e-01
7.617188e-02	8.817875e-01	8.847915e-01
7.812500e-02	8.759373e-01	8.790067e-01
8.007812e-02	8.699552e-01	8.730895e-01
8.203125e-02	8.638420e-01	8.670408e-01
8.398438e-02	8.575988e-01	8.608615e-01
8.593750e-02	8.512264e-01	8.545526e-01
8.789062e-02	8.447258e-01	8.481150e-01
8.984375e-02	8.380980e-01	8.415497e-01
9.179688e-02	8.313440e-01	8.348576e-01
9.375000e-02	8.244648e-01	8.280398e-01
9.570312e-02	8.174614e-01	8.210974e-01
9.765625e-02	8.103350e-01	8.140312e-01
9.960938e-02	8.030865e-01	8.068425e-01
1.015625e-01	7.957170e-01	7.995323e-01
1.035156e-01	7.882277e-01	7.921016e-01
1.054688e-01	7.806198e-01	7.845517e-01
1.074219e-01	7.728942e-01	7.768836e-01
1.093750e-01	7.650523e-01	7.690985e-01
1.113281e-01	7.570951e-01	7.611976e-01
1.132812e-01	7.490240e-01	7.531821e-01
1.152344e-01	7.408400e-01	7.450531e-01
1.171875e-01	7.325445e-01	7.368119e-01
1.191406e-01	7.241386e-01	7.284598e-01
1.210938e-01	7.156237e-01	7.199980e-01
1.230469e-01	7.070010e-01	7.114277e-01
1.250000e-01	6.982719e-01	7.027503e-01
1.269531e-01	6.894376e-01	6.939671e-01
1.289062e-01	6.804994e-01	6.850794e-01
1.308594e-01	6.714588e-01	6.760885e-01
1.328125e-01	6.623171e-01	6.669957e-01
1.347656e-01	6.530756e-01	6.578026e-01
1.367188e-01	6.437358e-01	6.485103e-01
1.386719e-01	6.342990e-01	6.391204e-01
1.406250e-01	6.247667e-01	6.296343e-01
1.425781e-01	6.151403e-01	6.200533e-01
1.445312e-01	6.054213e-01	6.103790e-01
1.464844e-01	5.956111e-01	6.006127e-01
1.484375e-01	5.857113e-01	5.907560e-01
1.503906e-01	5.757232e-01	5.808103e-01
1.523438e-01	5.656484e-01	5.707772e-01
1.542969e-01	5.554884e-01	5.606581e-01
1.562500e-01	5.452447e-01	5.504545e-01
1.582031e-01	5.349190e-01	5.401681e-01
1.601562e-01	5.245127e-01	5.298003e-01
1.621094e-01	5.140274e-01	5.193527e-01
1.640625e-01	5.034647e-01	5.088269e-01
1.660156e-01	4.928262e-01	4.982245e-01
1.679688e-01	4.821134e-01	4.875471e-01
1.699219e-01	4.713281e-01	4.767962e-01
1.718750e-01	4.604718e-01	4.659736e-01
1.738281e-01	4.495461e-01	4.550807e-01
1.757812e-01	4.385527e-01	4.441194e-01
1.777344e-01	4.274933e-01	4.330911e-01
1.796875e-01	4.163695e-01	4.219976e-01
1.816406e-01	4.051830e-01	4.108406e-01
1.835938e-01	3.939355e-01	3.996217e-01
1.855469e-01	3.826286e-01	3.883426e-01
1.875000e-01	3.712642e-01	3.770050e-01
1.894531e-01	3.598438e-01	3.656107e-01
1.914062e-01	3.483692e-01	3.541613e-01
1.933594e-01	3.368422e-01	3.426586e-01
1.953125e-01	3.252644e-01	3.311042e-01
1.972656e-01	3.136377e-01	3.195000e-01
1.992188e-01	3.019637e-01	3.078477e-01
2.011719e-01	2.902443e-01	2.961490e-01
2.031250e-01	2.784811e-01	2.844058e-01
2.050781e-01	2.666760e-01	2.726196e-01
2.070312e-01	2.548307e-01	2.607925e-01
2.089844e-01	2.429471e-01	2.489260e-01
2.109375e-01	2.310269e-01	2.370221e-01
2.128906e-01	2.190719e-01	2.250825e-01
2.148438e-01	2.070839e-01	2.131090e-01
2.167969e-01	1.950647e-01	2.011034e-01
2.187500e-01	1.830161e-01	1.890675e-01
2.207031e-01	1.709400e-01	1.770031e-01
2.226562e-01	1.588381e-01	1.649121e-01
2.246094e-01	1.467123e-01	1.527962e-01
2.265625e-01	1.345644e-01	1.406574e-01
2.285156e-01	1.223963e-01	1.284973e-01
2.304688e-01	1.102097e-01	1.163179e-01
2.324219e-01	9.800652e-02	1.041210e-01
2.343750e-01	8.578858e-02	9.190838e-02
2.363281e-01	7.355772e-02	7.968194e-02
2.382812e-01	6.131578e-02	6.744350e-02
2.402344e-01	4.906461e-02	5.519490e-02
2.421875e-01	3.680605e-02	4.293799e-02
2.441406e-01	2.454195e-02	3.067461e-02
2.460938e-01	1.227415e-02	1.840661e-02
2.480469e-01	4.502323e-06	6.135846e-03
2.500000e-01	-1.226515e-02	-6.135846e-03
2.519531e-01	-2.453295e-02	-1.840661e-02
2.539062e-01	-3.679705e-02	-3.067461e-02
2.558594e-01	-4.905562e-02	-4.293799e-02
2.578125e-01	-6.130679e-02	-5.519490e-02
2.597656e-01	-7.354874e-02	-6.744350e-02
2.617188e-01	-8.577961e-02	-7.968194e-02
2.636719e-01	-9.799756e-02	-9.190838e-02
2.656250e-01	-1.102008e-01	-1.041210e-01
2.675781e-01	-1.223873e-01	-1.163179e-01
2.695312e-01	-1.345555e-01	-1.284973e-01
2.714844e-01	-1.467034e-01	-1.406574e-01
2.734375e-01	-1.588292e-01	-1.527962e-01
2.753906e-01	-1.709311e-01	-1.649121e-01
2.773438e-01	-1.830073e-01	-1.770031e-01
2.792969e-01	-1.950558e-01	-1.890675e-01
2.812500e-01	-2.070751e-01	-2.011034e-01
2.832031e-01	-2.190631e-01	-2.131090e-01
2.851562e-01	-2.310181e-01	-2.250825e-01
2.871094e-01	-2.429384e-01	-2.370221e-01
2.890625e-01	-2.548220e-01	-2.489260e-01
2.910156e-01	-2.666673e-01	-2.607925e-01
2.929688e-01	-2.784725e-01	-2.726196e-01
2.949219e-01	-2.902356e-01	-2.844058e-01
2.968750e-01	-3.019551e-01	-2.961490e-01
2.988281e-01	-3.136291e-01	-3.078477e-01
3.007812e-01	-3.252559e-01	-3.195000e-01
3.027344e-01	-3.368337e-01	-3.311042e-01
3.046875e-01	-3.483608e-01	-3.426586e-01
3.066406e-01	-3.598354e-01	-3.541613e-01
3.085938e-01	-3.712558e-01	-3.656107e-01
3.105469e-01	-3.826203e-01	-3.770050e-01
3.125000e-01	-3.939272e-01	-3.883426e-01
3.144531e-01	-4.051748e-01	-3.996217e-01
3.164062e-01	-4.163613e-01	-4.108406e-01
3.183594e-01	-4.274851e-01	-4.219976e-01
3.203125e-01	-4.385446e-01	-4.330911e-01
3.222656e-01	-4.495380e-01	-4.441194e-01
3.242188e-01	-4.604638e-01	-4.550807e-01
3.261719e-01	-4.713201e-01	-4.659736e-01
3.281250e-01	-4.821055e-01	-4.767962e-01
3.300781e-01	-4.928183e-01	-4.875471e-01
3.320312e-01	-5.034569e-01	-4.982245e-01
3.339844e-01	-5.140197e-01	-5.088269e-01
3.359375e-01	-5.245050e-01	-5.193527e-01
3.378906e-01	-5.349114e-01	-5.298003e-01
3.398438e-01	-5.452372e-01	-5.401681e-01
3.417969e-01	-5.554809e-01	-5.504545e-01
3.437500e-01	-5.656409e-01	-5.606581e-01
3.457031e-01	-5.757158e-01	-5.707772e-01
3.476562e-01	-5.857040e-01	-5.808103e-01
3.496094e-01	-5.956039e-01	-5.907560e-01
3.515625e-01	-6.054142e-01	-6.006127e-01
3.535156e-01	-6.151333e-01	-6.103790e-01
3.554688e-01	-6.247597e-01	-6.200533e-01
3.574219e-01	-6.342921e-01	-6.296343e-01
3.593750e-01	-6.437289e-01	-6.391204e-01
3.613281e-01	-6.530688e-01	-6.485103e-01
3.632812e-01	-6.623103e-01	-6.578026e-01
3.652344e-01	-6.714521e-01	-6.669957e-01
3.671875e-01	-6.804928e-01	-6.760885e-01
3.691406e-01	-6.894310e-01	-6.850794e-01
3.710938e-01	-6.982654e-01	-6.939671e-01
3.730469e-01	-7.069947e-01	-7.027503e-01
3.750000e-01	-7.156174e-01	-7.114277e-01
3.769531e-01	-7.241324e-01	-7.199980e-01
3.789062e-01	-7.325383e-01	-7.284598e-01
3.808594e-01	-7.408339e-01	-7.368119e-01
3.828125e-01	-7.490180e-01	-7.450531e-01
3.847656e-01	-7.570892e-01	-7.531821e-01
3.867188e-01	-7.650465e-01	-7.611976e-01
3.886719e-01	-7.728885e-01	-7.690985e-01
3.906250e-01	-7.806141e-01	-7.768836e-01
3.925781e-01	-7.882222e-01	-7.845517e-01
3.945312e-01	-7.957116e-01	-7.921016e-01
3.964844e-01	-8.030811e-01	-7.995323e-01
3.984375e-01	-8.103297e-01	-8.068425e-01
4.003906e-01	-8.174563e-01	-8.140312e-01
4.023438e-01	-8.244597e-01	-8.210974e-01
4.042969e-01	-8.313390e-01	-8.280398e-01
4.062500e-01	-8.380931e-01	-8.348576e-01
4.082031e-01	-8.447210e-01	-8.415497e-01
4.101562e-01	-8.512217e-01	-8.481150e-01
4.121094e-01	-8.575941e-01	-8.545526e-01
4.140625e-01	-8.638375e-01	-8.608615e-01
4.160156e-01	-8.699507e-01	-8.670408e-01
4.179688e-01	-8.759329e-01	-8.730895e-01
4.199219e-01	-8.817833e-01	-8.790067e-01
4.218750e-01	-8.875008e-01	-8.847915e-01
4.238281e-01	-8.930847e-01	-8.904431e-01
4.257812e-01	-8.985340e-01	-8.959606e-01
4.277344e-01	-9.038481e-01	-9.013432e-01
4.296875e-01	-9.090260e-01	-9.065900e-01
4.316406e-01	-9.140671e-01	-9.117003e-01
4.335938e-01	-9.189705e-01	-9.166733e-01
4.355469e-01	-9.237355e-01	-9.215083e-01
4.375000e-01	-9.283614e-01	-9.262044e-01
4.394531e-01	-9.328474e-01	-9.307611e-01
4.414062e-01	-9.371930e-01	-9.351776e-01
4.433594e-01	-9.413975e-01	-9.394533e-01
4.453125e-01	-9.454602e-01	-9.435875e-01
4.472656e-01	-9.493805e-01	-9.475796e-01
4.492188e-01	-9.531578e-01	-9.514291e-01
4.511719e-01	-9.567916e-01	-9.551352e-01
4.531250e-01	-9.602813e-01	-9.586975e-01
4.550781e-01	-9.636264e-01	-9.621154e-01
4.570312e-01	-9.668263e-01	-9.653884e-01
4.589844e-01	-9.698807e-01	-9.685160e-01
4.609375e-01	-9.727890e-01	-9.714978e-01
4.628906e-01	-9.755508e-01	-9.743333e-01
4.648438e-01	-9.781657e-01	-9.770220e-01
4.667969e-01	-9.806333e-01	-9.795636e-01
4.687500e-01	-9.829532e-01	-9.819577e-01
4.707031e-01	-9.851251e-01	-9.842039e-01
4.726562e-01	-9.871486e-01	-9.863019e-01
4.746094e-01	-9.890234e-01	-9.882514e-01
4.765625e-01	-9.907494e-01	-9.900520e-01
4.785156e-01	-9.923261e-01	-9.917035e-01
4.804688e-01	-9.937533e-01	-9.932057e-01
4.824219e-01	-9.950310e-01	-9.945583e-01
4.843750e-01	-9.961587e-01	-9.957612e-01
4.863281e-01	-9.971365e-01	-9.968140e-01
4.882812e-01	-9.979641e-01	-9.977168e-01
4.902344e-01	-9.986413e-01	-9.984693e-01
4.921875e-01	-9.991682e-01	-9.990715e-01
4.941406e-01	-9.995447e-01	-9.995231e-01
4.960938e-01	-9.997706e-01	-9.998243e-01
4.980469e-01	-9.998459e-01	-9.999749e-01
5.000000e-01	-9.997707e-01	-9.999749e-01
5.019531e-01	-9.995449e-01	-9.998243e-01
5.039062e-01	-9.991686e-01	-9.995231e-01
5.058594e-01	-9.986418e-01	-9.990715e-01
5.078125e-01	-9.979646e-01	-9.984693e-01
5.097656e-01	-9.971371e-01	-9.977168e-01
5.117188e-01	-9.961595e-01	-9.968140e-01
5.136719e-01	-9.950318e-01	-9.957612e-01
5.156250e-01	-9.937543e-01	-9.945583e-01
5.175781e-01	-9.923272e-01	-9.932057e-01
5.195312e-01	-9.907506e-01	-9.917035e-01
5.214844e-01	-9.890248e-01	-9.900520e-01
5.234375e-01	-9.871500e-01	-9.882514e-01
5.253906e-01	-9.851266e-01	-9.863019e-01
5.273438e-01	-9.829548e-01	-9.842039e-01
5.292969e-01	-9.806350e-01	-9.819577e-01
5.312500e-01	-9.781676e-01	-9.795636e-01
5.332031e-01	-9.755528e-01	-9.770220e-01
5.351562e-01	-9.727911e-01	-9.743333e-01
5.371094e-01	-9.698829e-01	-9.714978e-01
5.390625e-01	-9.668286e-01	-9.685160e-01
5.410156e-01	-9.636288e-01	-9.653884e-01
5.429688e-01	-9.602838e-01	-9.621154e-01
5.449219e-01	-9.567942e-01	-9.586975e-01
5.468750e-01	-9.531605e-01	-9.551352e-01
5.488281e-01	-9.493833e-01	-9.514291e-01
5.507812e-01	-9.454631e-01	-9.475796e-01
5.527344e-01	-9.414005e-01	-9.435875e-01
5.546875e-01	-9.371962e-01	-9.394533e-01
5.566406e-01	-9.328507e-01	-9.351776e-01
5.585938e-01	-9.283647e-01	-9.307611e-01
5.605469e-01	-9.237389e-01	-9.262044e-01
5.625000e-01	-9.189740e-01	-9.215083e-01
5.644531e-01	-9.140707e-01	-9.166733e-01
5.664062e-01	-9.090298e-01	-9.117003e-01
5.683594e-01	-9.038519e-01	-9.065900e-01
5.703125e-01	-8.985380e-01	-9.013432e-01
5.722656e-01	-8.930887e-01	-8.959606e-01
5.742188e-01	-8.875049e-01	-8.904431e-01
5.761719e-01	-8.817875e-01	-8.847915e-01
5.781250e-01	-8.759373e-01	-8.790067e-01
5.800781e-01	-8.699552e-01	-8.730895e-01
5.820312e-01	-8.638420e-01	-8.670408e-01
5.839844e-01	-8.575988e-01	-8.608615e-01
5.859375e-01	-8.512264e-01	-8.545526e-01
5.878906e-01	-8.447258e-01	-8.481150e-01
5.898438e-01	-8.380980e-01	-8.415497e-01
5.917969e-01	-8.313440e-01	-8.348576e-01
5.937500e-01	-8.244648e-01	-8.280398e-01
5.957031e-01	-8.174614e-01	-8.210974e-01
5.976562e-01	-8.103350e-01	-8.140312e-01
5.996094e-01	-8.030865e-01	-8.068425e-01
6.015625e-01	-7.957170e-01	-7.995323e-01
6.035156e-01	-7.882277e-01	-7.921016e-01
6.054688e-01	-7.806198e-01	-7.845517e-01
6.074219e-01	-7.728942e-01	-7.768836e-01
6.093750e-01	-7.650523e-01	-7.690985e-01
6.113281e-01	-7.570951e-01	-7.611976e-01
6.132812e-01	-7.490240e-01	-7.531821e-01
6.152344e-01	-7.408400e-01	-7.450531e-01
6.171875e-01	-7.325445e-01	-7.368119e-01
6.191406e-01	-7.241386e-01	-7.284598e-01
6.210938e-01	-7.156237e-01	-7.199980e-01
6.230469e-01	-7.070010e-01	-7.114277e-01
6.250000e-01	-6.982719e-01	-7.027503e-01
6.269531e-01	-6.894376e-01	-6.939671e-01
6.289062e-01	-6.804994e-01	-6.850794e-01
6.308594e-01	-6.714588e-01	-6.760885e-01
6.328125e-01	-6.623171e-01	-6.669957e-01
6.347656e-01	-6.530756e-01	-6.578026e-01
6.367188e-01	-6.437358e-01	-6.485103e-01
6.386719e-01	-6.342990e-01	-6.391204e-01
6.406250e-01	-6.247667e-01	-6.296343e-01
6.425781e-01	-6.151403e-01	-6.200533e-01
6.445312e-01	-6.054213e-01	-6.103790e-01
6.464844e-01	-5.956111e-01	-6.006127e-01
6.484375e-01	-5.857113e-01	-5.907560e-01
6.503906e-01	-5.757232e-01	-5.808103e-01
6.523438e-01	-5.656484e-01	-5.707772e-01
6.542969e-01	-5.554884e-01	-5.606581e-01
6.562500e-01	-5.452447e-01	-5.504545e-01
6.582031e-01	-5.349190e-01	-5.401681e-01
6.601562e-01	-5.245127e-01	-5.298003e-01
6.621094e-01	-5.140274e-01	-5.193527e-01
6.640625e-01	-5.034647e-01	-5.088269e-01
6.660156e-01	-4.928262e-01	-4.982245e-01
6.679688e-01	-4.821134e-01	-4.875471e-01
6.699219e-01	-4.713281e-01	-4.767962e-01
6.718750e-01	-4.604718e-01	-4.659736e-01
6.738281e-01	-4.495461e-01	-4.550807e-01
6.757812e-01	-4.385527e-01	-4.441194e-01
6.777344e-01	-4.274933e-01	-4.330911e-01
6.796875e-01	-4.163695e-01	-4.219976e-01
6.816406e-01	-4.051830e-01	-4.108406e-01
6.835938e-01	-3.939355e-01	-3.996217e-01
6.855469e-01	-3.826286e-01	-3.883426e-01
6.875000e-01	-3.712642e-01	-3.770050e-01
6.894531e-01	-3.598438e-01	-3.656107e-01
6.914062e-01	-3.483692e-01	-3.541613e-01
6.933594e-01	-3.368422e-01	-3.426586e-01
6.953125e-01	-3.252644e-01	-3.311042e-01
6.972656e-01	-3.136377e-01	-3.195000e-01
6.992188e-01	-3.019637e-01	-3.078477e-01
7.011719e-01	-2.902443e-01	-2.961490e-01
7.031250e-01	-2.784811e-01	-2.844058e-01
7.050781e-01	-2.666760e-01	-2.726196e-01
7.070312e-01	-2.548307e-01	-2.607925e-01
7.089844e-01	-2.429471e-01	-2.489260e-01
7.109375e-01	-2.310269e-01	-2.370221e-01
7.128906e-01	-2.190719e-01	-2.250825e-01
7.148438e-01	-2.070839e-01	-2.131090e-01
7.167969e-01	-1.950647e-01	-2.011034e-01
7.187500e-01	-1.830161e-01	-1.890675e-01
7.207031e-01	-1.709400e-01	-1.770031e-01
7.226562e-01	-1.588381e-01	-1.649121e-01
7.246094e-01	-1.467123e-01	-1.527962e-01
7.265625e-01	-1.345644e-01	-1.406574e-01
7.285156e-01	-1.223963e-01	-1.284973e-01
7.304688e-01	-1.102097e-01	-1.163179e-01
7.324219e-01	-9.800652e-02	-1.041210e-01
7.343750e-01	-8.578858e-02	-9.190838e-02
7.363281e-01	-7.355772e-02	-7.968194e-02
7.382812e-01	-6.131578e-02	-6.744350e-02
7.402344e-01	-4.906461e-02	-5.519490e-02
7.421875e-01	-3.680605e-02	-4.293799e-02
7.441406e-01	-2.454195e-02	-3.067461e-02
7.460938e-01	-1.227415e-02	-1.840661e-02
7.480469e-01	-4.502323e-06	-6.135846e-03
7.500000e-01	1.226515e-02	6.135846e-03
7.519531e-01	2.453295e-02	1.840661e-02
7.539062e-01	3.679705e-02	3.067461e-02
7.558594e-01	4.905562e-02	4.293799e-02
7.578125e-01	6.130679e-02	5.519490e-02
7.597656e-01	7.354874e-02	6.744350e-02
7.617188e-01	8.577961e-02	7.968194e-02
7.636719e-01	9.799756e-02	9.190838e-02
7.656250e-01	1.102008e-01	1.041210e-01
7.675781e-01	1.223873e-01	1.163179e-01
7.695312e-01	1.345555e-01	1.284973e-01
7.714844e-01	1.467034e-01	1.406574e-01
7.734375e-01	1.588292e-01	1.527962e-01
7.753906e-01	1.709311e-01	1.649121e-01
7.773438e-01	1.830073e-01	1.770031e-01
7.792969e-01	1.950558e-01	1.890675e-01
7.812500e-01	2.070751e-01	2.011034e-01
7.832031e-01	2.190631e-01	2.131090e-01
7.851562e-01	2.310181e-01	2.250825e-01
7.871094e-01	2.429384e-01	2.370221e-01
7.890625e-01	2.548220e-01	2.489260e-01
7.910156e-01	2.666673e-01	2.607925e-01
7.929688e-01	2.784725e-01	2.726196e-01
7.949219e-01	2.902356e-01	2.844058e-01
7.968750e-01	3.019551e-01	2.961490e-01
7.988281e-01	3.136291e-01	3.078477e-01
8.007812e-01	3.252559e-01	3.195000e-01
8.027344e-01	3.368337e-01	3.311042e-01
8.046875e-01	3.483608e-01	3.426586e-01
8.066406e-01	3.598354e-01	3.541613e-01
8.085938e-01	3.712558e-01	3.656107e-01
8.105469e-01	3.826203e-01	3.770050e-01
8.125000e-01	3.939272e-01	3.883426e-01
8.144531e-01	4.051748e-01	3.996217e-01
8.164062e-01	4.163613e-01	4.108406e-01
8.183594e-01	4.274851e-01	4.219976e-01
8.203125e-01	4.385446e-01	4.330911e-01
8.222656e-01	4.495380e-01	4.441194e-01
8.242188e-01	4.604638e-01	4.550807e-01
8.261719e-01	4.713201e-01	4.659736e-01
8.281250e-01	4.821055e-01	4.767962e-01
8.300781e-01	4.928183e-01	4.875471e-01
8.320312e-01	5.034569e-01	4.982245e-01
8.339844e-01	5.140197e-01	5.088269e-01
8.359375e-01	5.245050e-01	5.193527e-01
8.378906e-01	5.349114e-01	5.298003e-01
8.398438e-01	5.452372e-01	5.401681e-01
8.417969e-01	5.554809e-01	5.504545e-01
8.437500e-01	5.656409e-01	5.606581e-01
8.457031e-01	5.757158e-01	5.707772e-01
8.476562e-01	5.857040e-01	5.808103e-01
8.496094e-01	5.956039e-01	5.907560e-01
8.515625e-01	6.054142e-01	6.006127e-01
8.535156e-01	6.151333e-01	6.103790e-01
8.554688e-01	6.247597e-01	6.200533e-01
8.574219e-01	6.342921e-01	6.296343e-01
8.593750e-01	6.437289e-01	6.391204e-01
8.613281e-01	6.530688e-01	6.485103e-01
8.632812e-01	6.623103e-01	6.578026e-01
8.652344e-01	6.714521e-01	6.669957e-01
8.671875e-01	6.804928e-01	6.760885e-01
8.691406e-01	6.894310e-01	6.850794e-01
8.710938e-01	6.982654e-01	6.939671e-01
8.730469e-01	7.069947e-01	7.027503e-01
8.750000e-01	7.156174e-01	7.114277e-01
8.769531e-01	7.241324e-01	7.199980e-01
8.789062e-01	7.325383e-01	7.284598e-01
8.808594e-01	7.408339e-01	7.368119e-01
8.828125e-01	7.490180e-01	7.450531e-01
8.847656e-01	7.570892e-01	7.531821e-01
8.867188e-01	7.650465e-01	7.611976e-01
8.886719e-01	7.728885e-01	7.690985e-01
8.906250e-01	7.806141e-01	7.768836e-01
8.925781e-01	7.882222e-01	7.845517e-01
8.945312e-01	7.957116e-01	7.921016e-01
8.964844e-01	8.030811e-01	7.995323e-01
8.984375e-01	8.103297e-01	8.068425e-01
9.003906e-01	8.174563e-01	8.140312e-01
9.023438e-01	8.244597e-01	8.210974e-01
9.042969e-01	8.313390e-01	8.280398e-01
9.062500e-01	8.380931e-01	8.348576e-01
9.082031e-01	8.447210e-01	8.415497e-01
9.101562e-01	8.512217e-01	8.481150e-01
9.121094e-01	8.575941e-01	8.545526e-01
9.140625e-01	8.638375e-01	8.608615e-01
9.160156e-01	8.699507e-01	8.670408e-01
9.179688e-01	8.759329e-01	8.730895e-01
9.199219e-01	8.817833e-01	8.790067e-01
9.218750e-01	8.875008e-01	8.847915e-01
9.238281e-01	8.930847e-01	8.904431e-01
9.257812e-01	8.985340e-01	8.959606e-01
9.277344e-01	9.038481e-01	9.013432e-01
9.296875e-01	9.090260e-01	9.065900e-01
9.316406e-01	9.140671e-01	9.117003e-01
9.335938e-01	9.189705e-01	9.166733e-01
9.355469e-01	9.237355e-01	9.215083e-01
9.375000e-01	9.283614e-01	9.262044e-01
9.394531e-01	9.328474e-01	9.307611e-01
9.414062e-01	9.371930e-01	9.351776e-01
9.433594e-01	9.413975e-01	9.394533e-01
9.453125e-01	9.454602e-01	9.435875e-01
9.472656e-01	9.493805e-01	9.475796e-01
9.492188e-01	9.531578e-01	9.514291e-01
9.511719e-01	9.567916e-01	9.551352e-01
9.531250e-01	9.602813e-01	9.586975e-01
9.550781e-01	9.636264e-01	9.621154e-01
9.570312e-01	9.668263e-01	9.653884e-01
9.589844e-01	9.698807e-01	9.685160e-01
9.609375e-01	9.727890e-01	9.714978e-01
9.628906e-01	9.755508e-01	9.743333e-01
9.648438e-01	9.781657e-01	9.770220e-01
9.667969e-01	9.806333e-01	9.795636e-01
9.687500e-01	9.829532e-01	9.819577e-01
9.707031e-01	9.851251e-01	9.842039e-01
9.726562e-01	9.871486e-01	9.863019e-01
9.746094e-01	9.890234e-01	9.882514e-01
9.765625e-01	9.907494e-01	9.900520e-01
9.785156e-01	9.923261e-01	9.917035e-01
9.804688e-01	9.937533e-01	9.932057e-01
9.824219e-01	9.950310e-01	9.945583e-01
9.843750e-01	9.961587e-01	9.957612e-01
9.863281e-01	9.971365e-01	9.968140e-01
9.882812e-01	9.979641e-01	9.977168e-01
9.902344e-01	9.986413e-01	9.984693e-01
9.921875e-01	9.991682e-01	9.990715e-01
9.941406e-01	9.995447e-01	9.995231e-01
9.960938e-01	9.997706e-01	9.998243e-01
9.980469e-01	9.998459e-01	9.999749e-01
1.000000e+00	9.997707e-01	9.999749e-01
1.001953e+00	9.995449e-01	9.998243e-01
1.003906e+00	9.991686e-01	9.995231e-01
1.005859e+00	9.986418e-01	9.990715e-01
1.007812e+00	9.979646e-01	9.984693e-01
1.009766e+00	9.971371e-01	9.977168e-01
1.011719e+00	9.961595e-01	9.968140e-01
1.013672e+00	9.950318e-01	9.957612e-01
1.015625e+00	9.937543e-01	9.945583e-01
1.017578e+00	9.923272e-01	9.932057e-01
1.019531e+00	9.907506e-01	9.917035e-01
1.021484e+00	9.890248e-01	9.900520e-01
1.023438e+00	9.871500e-01	9.882514e-01
1.025391e+00	9.851266e-01	9.863019e-01
1.027344e+00	9.829548e-01	9.842039e-01
1.029297e+00	9.806350e-01	9.819577e-01
1.031250e+00	9.781676e-01	9.795636e-01
1.033203e+00	9.755528e-01	9.770220e-01
1.035156e+00	9.727911e-01	9.743333e-01
1.037109e+00	9.698829e-01	9.714978e-01
1.039062e+00	9.668286e-01	9.685160e-01
1.041016e+00	9.636288e-01	9.653884e-01
1.042969e+00	9.602838e-01	9.621154e-01
1.044922e+00	9.567942e-01	9.586975e-01
1.046875e+00	9.531605e-01	9.551352e-01
1.048828e+00	9.493833e-01	9.514291e-01
1.050781e+00	9.454631e-01	9.475796e-01
1.052734e+00	9.414005e-01	9.435875e-01
1.054688e+00	9.371962e-01	9.394533e-01
1.056641e+00	9.328507e-01	9.351776e-01
1.058594e+00	9.283647e-01	9.307611e-01
1.060547e+00	9.237389e-01	9.262044e-01
1.062500e+00	9.189740e-01	9.215083e-01
1.064453e+00	9.140707e-01	9.166733e-01
1.066406e+00	9.090298e-01	9.117003e-01
1.068359e+00	9.038519e-01	9.065900e-01
1.070312e+00	8.985380e-01	9.013432e-01
1.072266e+00	8.930887e-01	8.959606e-01
1.074219e+00	8.875049e-01	8.904431e-01
1.076172e+00	8.817875e-01	8.847915e-01
1.078125e+00	8.759373e-01	8.790067e-01
1.080078e+00	8.699552e-01	8.730895e-01
1.082031e+00	8.638420e-01	8.670408e-01
1.083984e+00	8.575988e-01	8.608615e-01
1.085938e+00	8.512264e-01	8.545526e-01
1.087891e+00	8.447258e-01	8.481150e-01
1.089844e+00	8.380980e-01	8.415497e-01
1.091797e+00	8.313440e-01	8.348576e-01
1.093750e+00	8.244648e-01	8.280398e-01
1.095703e+00	8.174614e-01	8.210974e-01
1.097656e+00	8.103350e-01	8.140312e-01
1.099609e+00	8.030865e-01	8.068425e-01
1.101562e+00	7.957170e-01	7.995323e-01
1.103516e+00	7.882277e-01	7.921016e-01
1.105469e+00	7.806198e-01	7.845517e-01
1.107422e+00	7.728942e-01	7.768836e-01
1.109375e+00	7.650523e-01	7.690985e-01
1.111328e+00	7.570951e-01	7.611976e-01
1.113281e+00	7.490240e-01	7.531821e-01
1.115234e+00	7.408400e-01	7.450531e-01
1.117188e+00	7.325445e-01	7.368119e-01
1.119141e+00	7.241386e-01	7.284598e-01
1.121094e+00	7.156237e-01	7.199980e-01
1.123047e+00	7.070010e-01	7.114277e-01
1.125000e+00	6.982719e-01	7.027503e-01
1.126953e+00	6.894376e-01	6.939671e-01
1.128906e+00	6.804994e-01	6.850794e-01
1.130859e+00	6.714588e-01	6.760885e-01
1.132812e+00	6.623171e-01	6.669957e-01
1.134766e+00	6.530756e-01	6.578026e-01
1.136719e+00	6.437358e-01	6.485103e-01
1.138672e+00	6.342990e-01	6.391204e-01
1.140625e+00	6.247667e-01	6.296343e-01
1.142578e+00	6.151403e-01	6.200533e-01
1.144531e+00	6.054213e-01	6.103790e-01
1.146484e+00	5.956111e-01	6.006127e-01
1.148438e+00	5.857113e-01	5.907560e-01
1.150391e+00	5.757232e-01	5.808103e-01
1.152344e+00	5.656484e-01	5.707772e-01
1.154297e+00	5.554884e-01	5.606581e-01
1.156250e+00	5.452447e-01	5.504545e-01
1.158203e+00	5.349190e-01	5.401681e-01
1.160156e+00	5.245127e-01	5.298003e-01
1.162109e+00	5.140274e-01	5.193527e-01
1.164062e+00	5.034647e-01	5.088269e-01
1.166016e+00	4.928262e-01	4.982245e-01
1.167969e+00	4.821134e-01	4.875471e-01
1.169922e+00	4.713281e-01	4.767962e-01
1.171875e+00	4.604718e-01	4.659736e-01
1.173828e+00	4.495461e-01	4.550807e-01
1.175781e+00	4.385527e-01	4.441194e-01
1.177734e+00	4.274933e-01	4.330911e-01
1.179688e+00	4.163695e-01	4.219976e-01
1.181641e+00	4.051830e-01	4.108406e-01
1.183594e+00	3.939355e-01	3.996217e-01
1.185547e+00	3.826286e-01	3.883426e-01
1.187500e+00	3.712642e-01	3.770050e-01
1.189453e+00	3.598438e-01	3.656107e-01
1.191406e+00	3.483692e-01	3.541613e-01
1.193359e+00	3.368422e-01	3.426586e-01
1.195312e+00	3.252644e-01	3.311042e-01
1.197266e+00	3.136377e-01	3.195000e-01
1.199219e+00	3.019637e-01	3.078477e-01
1.201172e+00	2.902443e-01	2.961490e-01
1.203125e+00	2.784811e-01	2.844058e-01
1.205078e+00	2.666760e-01	2.726196e-01
1.207031e+00	2.548307e-01	2.607925e-01
1.208984e+00	2.429471e-01	2.489260e-01
1.210938e+00	2.310269e-01	2.370221e-01
1.212891e+00	2.190719e-01	2.250825e-01
1.214844e+00	2.070839e-01	2.131090e-01
1.216797e+00	1.950647e-01	2.011034e-01
1.218750e+00	1.830161e-01	1.890675e-01
1.220703e+00	1.709400e-01	1.770031e-01
1.222656e+00	1.588381e-01	1.649121e-01
1.224609e+00	1.467123e-01	1.527962e-01
1.226562e+00	1.345644e-01	1.406574e-01
1.228516e+00	1.223963e-01	1.284973e-01
1.230469e+00	1.102097e-01	1.163179e-01
1.232422e+00	9.800652e-02	1.041210e-01
1.234375e+00	8.578858e-02	9.190838e-02
1.236328e+00	7.355772e-02	7.968194e-02
1.238281e+00	6.131578e-02	6.744350e-02
1.240234e+00	4.906461e-02	5.519490e-02
1.242188e+00	3.680605e-02	4.293799e-02
1.244141e+00	2.454195e-02	3.067461e-02
1.246094e+00	1.227415e-02	1.840661e-02
1.248047e+00	4.502323e-06	6.135846e-03
1.250000e+00	-1.226515e-02	-6.135846e-03
1.251953e+00	-2.453295e-02	-1.840661e-02
1.253906e+00	-3.679705e-02	-3.067461e-02
1.255859e+00	-4.905562e-02	-4.293799e-02
1.257812e+00	-6.130679e-02	-5.519490e-02
1.259766e+00	-7.354874e-02	-6.744350e-02
1.261719e+00	-8.577961e-02	-7.968194e-02
1.263672e+00	-9.799756e-02	-9.190838e-02
1.265625e+00	-1.102008e-01	-1.041210e-01
1.267578e+00	-1.223873e-01	-1.163179e-01
1.269531e+00	-1.345555e-01	-1.284973e-01
1.271484e+00	-1.467034e-01	-1.406574e-01
1.273438e+00	-1.588292e-01	-1.527962e-01
1.275391e+00	-1.709311e-01	-1.649121e-01
1.277344e+00	-1.830073e-01	-1.770031e-01
1.279297e+00	-1.950558e-01	-1.890675e-01
1.281250e+00	-2.070751e-01	-2.011034e-01
1.283203e+00	-2.190631e-01	-2.131090e-01
1.285156e+00	-2.310181e-01	-2.250825e-01
1.287109e+00	-2.429384e-01	-2.370221e-01
1.289062e+00	-2.548220e-01	-2.489260e-01
1.291016e+00	-2.666673e-01	-2.607925e-01
1.292969e+00	-2.784725e-01	-2.726196e-01
1.294922e+00	-2.902356e-01	-2.844058e-01
1.296875e+00	-3.019551e-01	-2.961490e-01
1.298828e+00	-3.136291e-01	-3.078477e-01
1.300781e+00	-3.252559e-01	-3.195000e-01
1.302734e+00	-3.368337e-01	-3.311042e-01
1.304688e+00	-3.483608e-01	-3.426586e-01
1.306641e+00	-3.598354e-01	-3.541613e-01
1.308594e+00	-3.712558e-01	-3.656107e-01
1.310547e+00	-3.826203e-01	-3.770050e-01
1.312500e+00	-3.939272e-01	-3.883426e-01
1.314453e+00	-4.051748e-01	-3.996217e-01
1.316406e+00	-4.163613e-01	-4.108406e-01
1.318359e+00	-4.274851e-01	-4.219976e-01
1.320312e+00	-4.385446e-01	-4.330911e-01
1.322266e+00	-4.495380e-01	-4.441194e-01
1.324219e+00	-4.604638e-01	-4.550807e-01
1.326172e+00	-4.713201e-01	-4.659736e-01
1.328125e+00	-4.821055e-01	-4.767962e-01
1.330078e+00	-4.928183e-01	-4.875471e-01
1.332031e+00	-5.034569e-01	-4.982245e-01
1.333984e+00	-5.140197e-01	-5.088269e-01
1.335938e+00	-5.245050e-01	-5.193527e-01
1.337891e+00	-5.349114e-01	-5.298003e-01
1.339844e+00	-5.452372e-01	-5.401681e-01
1.341797e+00	-5.554809e-01	-5.504545e-01
1.343750e+00	-5.656409e-01	-5.606581e-01
1.345703e+00	-5.757158e-01	-5.707772e-01
1.347656e+00	-5.857040e-01	-5.808103e-01
1.349609e+00	-5.956039e-01	-5.907560e-01
1.351562e+00	-6.054142e-01	-6.006127e-01
1.353516e+00	-6.151333e-01	-6.103790e-01
1.355469e+00	-6.247597e-01	-6.200533e-01
1.357422e+00	-6.342921e-01	-6.296343e-01
1.359375e+00	-6.437289e-01	-6.391204e-01
1.361328e+00	-6.530688e-01	-6.485103e-01
1.363281e+00	-6.623103e-01	-6.578026e-01
1.365234e+00	-6.714521e-01	-6.669957e-01
1.367188e+00	-6.804928e-01	-6.760885e-01
1.369141e+00	-6.894310e-01	-6.850794e-01
1.371094e+00	-6.982654e-01	-6.939671e-01
1.373047e+00	-7.069947e-01	-7.027503e-01
1.375000e+00	-7.156174e-01	-7.114277e-01
1.376953e+00	-7.241324e-01	-7.199980e-01
1.378906e+00	-7.325383e-01	-7.284598e-01
1.380859e+00	-7.408339e-01	-7.368119e-01
1.382812e+00	-7.490180e-01	-7.450531e-01
1.384766e+00	-7.570892e-01	-7.531821e-01
1.386719e+00	-7.650465e-01	-7.611976e-01
1.388672e+00	-7.728885e-01	-7.690985e-01
1.390625e+00	-7.806141e-01	-7.768836e-01
1.392578e+00	-7.882222e-01	-7.845517e-01
1.394531e+00	-7.957116e-01	-7.921016e-01
1.396484e+00	-8.030811e-01	-7.995323e-01
1.398438e+00	-8.103297e-01	-8.068425e-01
1.400391e+00	-8.174563e-01	-8.140312e-01
1.402344e+00	-8.244597e-01	-8.210974e-01
1.404297e+00	-8.313390e-01	-8.280398e-01
1.406250e+00	-8.380931e-01	-8.348576e-01
1.408203e+00	-8.447210e-01	-8.415497e-01
1.410156e+00	-8.512217e-01	-8.481150e-01
1.412109e+00	-8.575941e-01	-8.545526e-01
1.414062e+00	-8.638375e-01	-8.608615e-01
1.416016e+00	-8.699507e-01	-8.670408e-01
1.417969e+00	-8.759329e-01	-8.730895e-01
1.419922e+00	-8.817833e-01	-8.790067e-01
1.421875e+00	-8.875008e-01	-8.847915e-01
1.423828e+00	-8.930847e-01	-8.904431e-01
1.425781e+00	-8.985340e-01	-8.959606e-01
1.427734e+00	-9.038481e-01	-9.013432e-01
1.429688e+00	-9.090260e-01	-9.065900e-01
1.431641e+00	-9.140671e-01	-9.117003e-01
1.433594e+00	-9.189705e-01	-9.166733e-01
1.435547e+00	-9.237355e-01	-9.215083e-01
1.437500e+00	-9.283614e-01	-9.262044e-01
1.439453e+00	-9.328474e-01	-9.307611e-01
1.441406e+00	-9.371930e-01	-9.351776e-01
1.443359e+00	-9.413975e-01	-9.394533e-01
1.445312e+00	-9.454602e-01	-9.435875e-01
1.447266e+00	-9.493805e-01	-9.475796e-01
1.449219e+00	-9.531578e-01	-9.514291e-01
1.451172e+00	-9.567916e-01	-9.551352e-01
1.453125e+00	-9.602813e-01	-9.586975e-01
1.455078e+00	-9.636264e-01	-9.621154e-01
1.457031e+00	-9.668263e-01	-9.653884e-01
1.458984e+00	-9.698807e-01	-9.685160e-01
1.460938e+00	-9.727890e-01	-9.714978e-01
1.462891e+00	-9.755508e-01	-9.743333e-01
1.464844e+00	-9.781657e-01	-9.770220e-01
1.466797e+00	-9.806333e-01	-9.795636e-01
1.468750e+00	-9.829532e-01	-9.819577e-01
1.470703e+00	-9.851251e-01	-9.842039e-01
1.472656e+00	-9.871486e-01	-9.863019e-01
1.474609e+00	-9.890234e-01	-9.882514e-01
1.476562e+00	-9.907494e-01	-9.900520e-01
1.478516e+00	-9.923261e-01	-9.917035e-01
1.480469e+00	-9.937533e-01	-9.932057e-01
1.482422e+00	-9.950310e-01	-9.945583e-01
1.484375e+00	-9.961587e-01	-9.957612e-01
1.486328e+00	-9.971365e-01	-9.968140e-01
1.488281e+00	-9.979641e-01	-9.977168e-01
1.490234e+00	-9.986413e-01	-9.984693e-01
1.492188e+00	-9.991682e-01	-9.990715e-01
1.494141e+00	-9.995447e-01	-9.995231e-01
1.496094e+00	-9.997706e-01	-9.998243e-01
1.498047e+00	-9.998459e-01	-9.999749e-01
1.500000e+00	-9.997707e-01	-9.999749e-01
1.501953e+00	-9.995449e-01	-9.998243e-01
1.503906e+00	-9.991686e-01	-9.995231e-01
1.505859e+00	-9.986418e-01	-9.990715e-01
1.507812e+00	-9.979646e-01	-9.984693e-01
1.509766e+00	-9.971371e-01	-9.977168e-01
1.511719e+00	-9.961595e-01	-9.968140e-01
1.513672e+00	-9.950318e-01	-9.957612e-01
1.515625e+00	-9.937543e-01	-9.945583e-01
1.517578e+00	-9.923272e-01	-9.932057e-01
1.519531e+00	-9.907506e-01	-9.917035e-01
1.521484e+00	-9.890248e-01	-9.900520e-01
1.523438e+00	-9.871500e-01	-9.882514e-01
1.525391e+00	-9.851266e-01	-9.863019e-01
1.527344e+00	-9.829548e-01	-9.842039e-01
1.529297e+00	-9.806350e-01	-9.819577e-01
1.531250e+00	-9.781676e-01	-9.795636e-01
1.533203e+00	-9.755528e-01	-9.770220e-01
1.535156e+00	-9.727911e-01	-9.743333e-01
1.537109e+00	-9.698829e-01	-9.714978e-01
1.539062e+00	-9.668286e-01	-9.685160e-01
1.541016e+00	-9.636288e-01	-9.653884e-01
1.542969e+00	-9.602838e-01	-9.621154e-01
1.544922e+00	-9.567942e-01	-9.586975e-01
1.546875e+00	-9.531605e-01	-9.551352e-01
1.548828e+00	-9.493833e-01	-9.514291e-01
1.550781e+00	-9.454631e-01	-9.475796e-01
1.552734e+00	-9.414005e-01	-9.435875e-01
1.554688e+00	-9.371962e-01	-9.394533e-01
1.556641e+00	-9.328507e-01	-9.351776e-01
1.558594e+00	-9.283647e-01	-9.307611e-01
1.560547e+00	-9.237389e-01	-9.262044e-01
1.562500e+00	-9.189740e-01	-9.215083e-01
1.564453e+00	-9.140707e-01	-9.166733e-01
1.566406e+00	-9.090298e-01	-9.117003e-01
1.568359e+00	-9.038519e-01	-9.065900e-01
1.570312e+00	-8.985380e-01	-9.013432e-01
1.572266e+00	-8.930887e-01	-8.959606e-01
1.574219e+00	-8.875049e-01	-8.904431e-01
1.576172e+00	-8.817875e-01	-8.847915e-01
1.578125e+00	-8.759373e-01	-8.790067e-01
1.580078e+00	-8.699552e-01	-8.730895e-01
1.582031e+00	-8.638420e-01	-8.670408e-01
1.583984e+00	-8.575988e-01	-8.608615e-01
1.585938e+00	-8.512264e-01	-8.545526e-01
1.587891e+00	-8.447258e-01	-8.481150e-01
1.589844e+00	-8.380980e-01	-8.415497e-01
1.591797e+00	-8.313440e-01	-8.348576e-01
1.593750e+00	-8.244648e-01	-8.280398e-01
1.595703e+00	-8.174614e-01	-8.210974e-01
1.597656e+00	-8.103350e-01	-8.140312e-01
1.599609e+00	-8.030865e-01	-8.068425e-01
1.601562e+00	-7.957170e-01	-7.995323e-01
1.603516e+00	-7.882277e-01	-7.921016e-01
1.605469e+00	-7.806198e-01	-7.845517e-01
1.607422e+00	-7.728942e-01	-7.768836e-01
1.609375e+00	-7.650523e-01	-7.690985e-01
1.611328e+00	-7.570951e-01	-7.611976e-01
1.613281e+00	-7.490240e-01	-7.531821e-01
1.615234e+00	-7.408400e-01	-7.450531e-01
1.617188e+00	-7.325445e-01	-7.368119e-01
1.619141e+00	-7.241386e-01	-7.284598e-01
1.621094e+00	-7.156237e-01	-7.199980e-01
1.623047e+00	-7.070010e-01	-7.114277e-01
1.625000e+00	-6.982719e-01	-7.027503e-01
1.626953e+00	-6.894376e-01	-6.939671e-01
1.628906e+00	-6.804994e-01	-6.850794e-01
1.630859e+00	-6.714588e-01	-6.760885e-01
1.632812e+00	-6.623171e-01	-6.669957e-01
1.634766e+00	-6.530756e-01	-6.578026e-01
1.636719e+00	-6.437358e-01	-6.485103e-01
1.638672e+00	-6.342990e-01	-6.391204e-01
1.640625e+00	-6.247667e-01	-6.296343e-01
1.642578e+00	-6.151403e-01	-6.200533e-01
1.644531e+00	-6.054213e-01	-6.103790e-01
1.646484e+00	-5.956111e-01	-6.006127e-01
1.648438e+00	-5.857113e-01	-5.907560e-01
1.650391e+00	-5.757232e-01	-5.808103e-01
1.652344e+00	-5.656484e-01	-5.707772e-01
1.654297e+00	-5.554884e-01	-5.606581e-01
1.656250e+00	-5.452447e-01	-5.504545e-01
1.658203e+00	-5.349190e-01	-5.401681e-01
1.660156e+00	-5.245127e-01	-5.298003e-01
1.662109e+00	-5.140274e-01	-5.193527e-01
1.664062e+00	-5.034647e-01	-5.088269e-01
1.666016e+00	-4.928262e-01	-4.982245e-01
1.667969e+00	-4.821134e-01	-4.875471e-01
1.669922e+00	-4.713281e-01	-4.767962e-01
1.671875e+00	-4.604718e-01	-4.659736e-01
1.673828e+00	-4.495461e-01	-4.550807e-01
1.675781e+00	-4.385527e-01	-4.441194e-01
1.677734e+00	-4.274933e-01	-4.330911e-01
1.679688e+00	-4.163695e-01	-4.219976e-01
1.681641e+00	-4.051830e-01	-4.108406e-01
1.683594e+00	-3.939355e-01	-3.996217e-01
1.685547e+00	-3.826286e-01	-3.883426e-01
1.687500e+00	-3.712642e-01	-3.770050e-01
1.689453e+00	-3.598438e-01	-3.656107e-01
1.691406e+00	-3.483692e-01	-3.541613e-01
1.693359e+00	-3.368422e-01	-3.426586e-01
1.695312e+00	-3.252644e-01	-3.311042e-01
1.697266e+00	-3.136377e-01	-3.195000e-01
1.699219e+00	-3.019637e-01	-3.078477e-01
1.701172e+00	-2.902443e-01	-2.961490e-01
1.703125e+00	-2.784811e-01	-2.844058e-01
1.705078e+00	-2.666760e-01	-2.726196e-01
1.707031e+00	-2.548307e-01	-2.607925e-01
1.708984e+00	-2.429471e-01	-2.489260e-01
1.710938e+00	-2.310269e-01	-2.370221e-01
1.712891e+00	-2.190719e-01	-2.250825e-01
1.714844e+00	-2.070839e-01	-2.131090e-01
1.716797e+00	-1.950647e-01	-2.011034e-01
1.718750e+00	-1.830161e-01	-1.890675e-01
1.720703e+00	-1.709400e-01	-1.770031e-01
1.722656e+00	-1.588381e-01	-1.649121e-01
1.724609e+00	-1.467123e-01	-1.527962e-01
1.726562e+00	-1.345644e-01	-1.406574e-01
1.728516e+00	-1.223963e-01	-1.284973e-01
1.730469e+00	-1.102097e-01	-1.163179e-01
1.732422e+00	-9.800652e-02	-1.041210e-01
1.734375e+00	-8.578858e-02	-9.190838e-02
1.736328e+00	-7.355772e-02	-7.968194e-02
1.738281e+00	-6.131578e-02	-6.744350e-02
1.740234e+00	-4.906461e-02	-5.519490e-02
1.742188e+00	-3.680605e-02	-4.293799e-02
1.744141e+00	-2.454195e-02	-3.067461e-02
1.746094e+00	-1.227415e-02	-1.840661e-02
1.748047e+00	-4.502322e-06	-6.135846e-03
1.750000e+00	1.226515e-02	6.135846e-03
1.751953e+00	2.453295e-02	1.840661e-02
1.753906e+00	3.679705e-02	3.067461e-02
1.755859e+00	4.905562e-02	4.293799e-02
1.757812e+00	6.130679e-02	5.519490e-02
1.759766e+00	7.354874e-02	6.744350e-02
1.761719e+00	8.577961e-02	7.968194e-02
1.763672e+00	9.799756e-02	9.190838e-02
1.765625e+00	1.102008e-01	1.041210e-01
1.767578e+00	1.223873e-01	1.163179e-01
1.769531e+00	1.345555e-01	1.284973e-01
1.771484e+00	1.467034e-01	1.406574e-01
1.773438e+00	1.588292e-01	1.527962e-01
1.775391e+00	1.709311e-01	1.649121e-01
1.777344e+00	1.830073e-01	1.770031e-01
1.779297e+00	1.950558e-01	1.890675e-01
1.781250e+00	2.070751e-01	2.011034e-01
1.783203e+00	2.190631e-01	2.131090e-01
1.785156e+00	2.310181e-01	2.250825e-01
1.787109e+00	2.429384e-01	2.370221e-01
1.789062e+00	2.548220e-01	2.489260e-01
1.791016e+00	2.666673e-01	2.607925e-01
1.792969e+00	2.784725e-01	2.726196e-01
1.794922e+00	2.902356e-01	2.844058e-01
1.796875e+00	3.019551e-01	2.961490e-01
1.798828e+00	3.136291e-01	3.078477e-01
1.800781e+00	3.252559e-01	3.195000e-01
1.802734e+00	3.368337e-01	3.311042e-01
1.804688e+00	3.483608e-01	3.426586e-01
1.806641e+00	3.598354e-01	3.541613e-01
1.808594e+00	3.712558e-01	3.656107e-01
1.810547e+00	3.826203e-01	3.770050e-01
1.812500e+00	3.939272e-01	3.883426e-01
1.814453e+00	4.051748e-01	3.996217e-01
1.816406e+00	4.163613e-01	4.108406e-01
1.818359e+00	4.274851e-01	4.219976e-01
1.820312e+00	4.385446e-01	4.330911e-01
1.822266e+00	4.495380e-01	4.441194e-01
1.824219e+00	4.604638e-01	4.550807e-01
1.826172e+00	4.713201e-01	4.659736e-01
1.828125e+00	4.821055e-01	4.767962e-01
1.830078e+00	4.928183e-01	4.875471e-01
1.832031e+00	5.034569e-01	4.982245e-01
1.833984e+00	5.140197e-01	5.088269e-01
1.835938e+00	5.245050e-01	5.193527e-01
1.837891e+00	5.349114e-01	5.298003e-01
1.839844e+00	5.452372e-01	5.401681e-01
1.841797e+00	5.554809e-01	5.504545e-01
1.843750e+00	5.656409e-01	5.606581e-01
1.845703e+00	5.757158e-01	5.707772e-01
1.847656e+00	5.857040e-01	5.808103e-01
1.849609e+00	5.956039e-01	5.907560e-01
1.851562e+00	6.054142e-01	6.006127e-01
1.853516e+00	6.151333e-01	6.103790e-01
1.855469e+00	6.247597e-01	6.200533e-01
1.857422e+00	6.342921e-01	6.296343e-01
1.859375e+00	6.437289e-01	6.391204e-01
1.861328e+00	6.530688e-01	6.485103e-01
1.863281e+00	6.623103e-01	6.578026e-01
1.865234e+00	6.714521e-01	6.669957e-01
1.867188e+00	6.804928e-01	6.760885e-01
1.869141e+00	6.894310e-01	6.850794e-01
1.871094e+00	6.982654e-01	6.939671e-01
1.873047e+00	7.069947e-01	7.027503e-01
1.875000e+00	7.156174e-01	7.114277e-01
1.876953e+00	7.241324e-01	7.199980e-01
1.878906e+00	7.325383e-01	7.284598e-01
1.880859e+00	7.408339e-01	7.368119e-01
1.882812e+00	7.490180e-01	7.450531e-01
1.884766e+00	7.570892e-01	7.531821e-01
1.886719e+00	7.650465e-01	7.611976e-01
1.888672e+00	7.728885e-01	7.690985e-01
1.890625e+00	7.806141e-01	7.768836e-01
1.892578e+00	7.882222e-01	7.845517e-01
1.894531e+00	7.957116e-01	7.921016e-01
1.896484e+00	8.030811e-01	7.995323e-01
1.898438e+00	8.103297e-01	8.068425e-01
1.900391e+00	8.174563e-01	8.140312e-01
1.902344e+00	8.244597e-01	8.210974e-01
1.904297e+00	8.313390e-01	8.280398e-01
1.906250e+00	8.380931e-01	8.348576e-01
1.908203e+00	8.447210e-01	8.415497e-01
1.910156e+00	8.512217e-01	8.481150e-01
1.912109e+00	8.575941e-01	8.545526e-01
1.914062e+00	8.638375e-01	8.608615e-01
1.916016e+00	8.699507e-01	8.670408e-01
1.917969e+00	8.759329e-01	8.730895e-01
1.919922e+00	8.817833e-01	8.790067e-01
1.921875e+00	8.875008e-01	8.847915e-01
1.923828e+00	8.930847e-01	8.904431e-01
1.925781e+00	8.985340e-01	8.959606e-01
1.927734e+00	9.038481e-01	9.013432e-01
1.929688e+00	9.090260e-01	9.065900e-01
1.931641e+00	9.140671e-01	9.117003e-01
1.933594e+00	9.189705e-01	9.166733e-01
1.935547e+00	9.237355e-01	9.215083e-01
1.937500e+00	9.283614e-01	9.262044e-01
1.939453e+00	9.328474e-01	9.307611e-01
1.941406e+00	9.371930e-01	9.351776e-01
1.943359e+00	9.413975e-01	9.394533e-01
1.945312e+00	9.454602e-01	9.435875e-01
1.947266e+00	9.493805e-01	9.475796e-01
1.949219e+00	9.531578e-01	9.514291e-01
1.951172e+00	9.567916e-01	9.551352e-01
1.953125e+00	9.602813e-01	9.586975e-01
1.955078e+00	9.636264e-01	9.621154e-01
1.957031e+00	9.668263e-01	9.653884e-01
1.958984e+00	9.698807e-01	9.685160e-01
1.960938e+00	9.727890e-01	9.714978e-01
1.962891e+00	9.755508e-01	9.743333e-01
1.964844e+00	9.781657e-01	9.770220e-01
1.966797e+00	9.806333e-01	9.795636e-01
1.968750e+00	9.829532e-01	9.819577e-01
1.970703e+00	9.851251e-01	9.842039e-01
1.972656e+00	9.871486e-01	9.863019e-01
1.974609e+00	9.890234e-01	9.882514e-01
1.976562e+00	9.907494e-01	9.900520e-01
1.978516e+00	9.923261e-01	9.917035e-01
1.980469e+00	9.937533e-01	9.932057e-01
1.982422e+00	9.950310e-01	9.945583e-01
1.984375e+00	9.961587e-01	9.957612e-01
1.986328e+00	9.971365e-01	9.968140e-01
1.988281e+00	9.979641e-01	9.977168e-01
1.990234e+00	9.986413e-01	9.984693e-01
1.992188e+00	9.991682e-01	9.990715e-01
1.994141e+00	9.995447e-01	9.995231e-01
1.996094e+00	9.997706e-01	9.998243e-01
1.998047e+00	9.998459e-01	9.999749e-01
2.000000e+00	9.997707e-01	9.999749e-01
2.001953e+00	9.995449e-01	9.998243e-01
2.003906e+00	9.991686e-01	9.995231e-01
2.005859e+00	9.986418e-01	9.990715e-01
2.007812e+00	9.979646e-01	9.984693e-01
2.009766e+00	9.971371e-01	9.977168e-01
2.011719e+00	9.961595e-01	9.968140e-01
2.013672e+00	9.950318e-01	9.957612e-01
2.015625e+00	9.937543e-01	9.945583e-01
2.017578e+00	9.923272e-01	9.932057e-01
2.019531e+00	9.907506e-01	9.917035e-01
2.021484e+00	9.890248e-01	9.900520e-01
2.023438e+00	9.871500e-01	9.882514e-01
2.025391e+00	9.851266e-01	9.863019e-01
2.027344e+00	9.829548e-01	9.842039e-01
2.029297e+00	9.806350e-01	9.819577e-01
2.031250e+00	9.781676e-01	9.795636e-01
2.033203e+00	9.755528e-01	9.770220e-01
2.035156e+00	9.727911e-01	9.743333e-01
2.037109e+00	9.698829e-01	9.714978e-01
2.039062e+00	9.668286e-01	9.685160e-01
2.041016e+00	9.636288e-01	9.653884e-01
2.042969e+00	9.602838e-01	9.621154e-01
2.044922e+00	9.567942e-01	9.586975e-01
2.046875e+00	9.531605e-01	9.551352e-01
2.048828e+00	9.493833e-01	9.514291e-01
2.050781e+00	9.454631e-01	9.475796e-01
2.052734e+00	9.414005e-01	9.435875e-01
2.054688e+00	9.371962e-01	9.394533e-01
2.056641e+00	9.328507e-01	9.351776e-01
2.058594e+00	9.283647e-01	9.307611e-01
2.060547e+00	9.237389e-01	9.262044e-01
2.062500e+00	9.189740e-01	9.215083e-01
2.064453e+00	9.140707e-01	9.166733e-01
2.066406e+00	9.090298e-01	9.117003e-01
2.068359e+00	9.038519e-01	9.065900e-01
2.070312e+00	8.985380e-01	9.013432e-01
2.072266e+00	8.930887e-01	8.959606e-01
2.074219e+00	8.875049e-01	8.904431e-01
2.076172e+00	8.817875e-01	8.847915e-01
2.078125e+00	8.759373e-01	8.790067e-01
2.080078e+00	8.699552e-01	8.730895e-01
2.082031e+00	8.638420e-01	8.670408e-01
2.083984e+00	8.575988e-01	8.608615e-01
2.085938e+00	8.512264e-01	8.545526e-01
2.087891e+00	8.447258e-01	8.481150e-01
2.089844e+00	8.380980e-01	8.415497e-01
2.091797e+00	8.313440e-01	8.348576e-01
2.093750e+00	8.244648e-01	8.280398e-01
2.095703e+00	8.174614e-01	8.210974e-01
2.097656e+00	8.103350e-01	8.140312e-01
2.099609e+00	8.030865e-01	8.068425e-01
2.101562e+00	7.957170e-01	7.995323e-01
2.103516e+00	7.882277e-01	7.921016e-01
2.105469e+00	7.806198e-01	7.845517e-01
2.107422e+00	7.728942e-01	7.768836e-01
2.109375e+00	7.650523e-01	7.690985e-01
2.111328e+00	7.570951e-01	7.611976e-01
2.113281e+00	7.490240e-01	7.531821e-01
2.115234e+00	7.408400e-01	7.450531e-01
2.117188e+00	7.325445e-01	7.368119e-01
2.119141e+00	7.241386e-01	7.284598e-01
2.121094e+00	7.156237e-01	7.199980e-01
2.123047e+00	7.070010e-01	7.114277e-01
2.125000e+00	6.982719e-01	7.027503e-01
2.126953e+00	6.894376e-01	6.939671e-01
2.128906e+00	6.804994e-01	6.850794e-01
2.130859e+00	6.714588e-01	6.760885e-01
2.132812e+00	6.623171e-01	6.669957e-01
2.134766e+00	6.530756e-01	6.578026e-01
2.136719e+00	6.437358e-01	6.485103e-01
2.138672e+00	6.342990e-01	6.391204e-01
2.140625e+00	6.247667e-01	6.296343e-01
2.142578e+00	6.151403e-01	6.200533e-01
2.144531e+00	6.054213e-01	6.103790e-01
2.146484e+00	5.956111e-01	6.006127e-01
2.148438e+00	5.857113e-01	5.907560e-01
2.150391e+00	5.757232e-01	5.808103e-01
2.152344e+00	5.656484e-01	5.707772e-01
2.154297e+00	5.554884e-01	5.606581e-01
2.156250e+00	5.452447e-01	5.504545e-01
2.158203e+00	5.349190e-01	5.401681e-01
2.160156e+00	5.245127e-01	5.298003e-01
2.162109e+00	5.140274e-01	5.193527e-01
2.164062e+00	5.034647e-01	5.088269e-01
2.166016e+00	4.928262e-01	4.982245e-01
2.167969e+00	4.821134e-01	4.875471e-01
2.169922e+00	4.713281e-01	4.767962e-01
2.171875e+00	4.604718e-01	4.659736e-01
2.173828e+00	4.495461e-01	4.550807e-01
2.175781e+00	4.385527e-01	4.441194e-01
2.177734e+00	4.274933e-01	4.330911e-01
2.179688e+00	4.163695e-01	4.219976e-01
2.181641e+00	4.051830e-01	4.108406e-01
2.183594e+00	3.939355e-01	3.996217e-01
2.185547e+00	3.826286e-01	3.883426e-01
2.187500e+00	3.712642e-01	3.770050e-01
2.189453e+00	3.598438e-01	3.656107e-01
2.191406e+00	3.483692e-01	3.541613e-01
2.193359e+00	3.368422e-01	3.426586e-01
2.195312e+00	3.252644e-01	3.311042e-01
2.197266e+00	3.136377e-01	3.195000e-01
2.199219e+00	3.019637e-01	3.078477e-01
2.201172e+00	2.902443e-01	2.961490e-01
2.203125e+00	2.784811e-01	2.844058e-01
2.205078e+00	2.666760e-01	2.726196e-01
2.207031e+00	2.548307e-01	2.607925e-01
2.208984e+00	2.429471e-01	2.489260e-01
2.210938e+00	2.310269e-01	2.370221e-01
2.212891e+00	2.190719e-01	2.250825e-01
2.214844e+00	2.070839e-01	2.131090e-01
2.216797e+00	1.950647e-01	2.011034e-01
2.218750e+00	1.830161e-01	1.890675e-01
2.220703e+00	1.709400e-01	1.770031e-01
2.222656e+00	1.588381e-01	1.649121e-01
2.224609e+00	1.467123e-01	1.527962e-01
2.226562e+00	1.345644e-01	1.406574e-01
2.228516e+00	1.223963e-01	1.284973e-01
2.230469e+00	1.102097e-01	1.163179e-01
2.232422e+00	9.800652e-02	1.041210e-01
2.234375e+00	8.578858e-02	9.190838e-02
2.236328e+00	7.355772e-02	7.968194e-02
2.238281e+00	6.131578e-02	6.744350e-02
2.240234e+00	4.906461e-02	5.519490e-02
2.242188e+00	3.680605e-02	4.293799e-02
2.244141e+00	2.454195e-02	3.067461e-02
2.246094e+00	1.227415e-02	1.840661e-02
2.248047e+00	4.502324e-06	6.135846e-03
2.250000e+00	-1.226515e-02	-6.135846e-03
2.251953e+00	-2.453295e-02	-1.840661e-02
2.253906e+00	-3.679705e-02	-3.067461e-02
2.255859e+00	-4.905562e-02	-4.293799e-02
2.257812e+00	-6.130679e-02	-5.519490e-02
2.259766e+00	-7.354874e-02	-6.744350e-02
2.261719e+00	-8.577961e-02	-7.968194e-02
2.263672e+00	-9.799756e-02	-9.190838e-02
2.265625e+00	-1.102008e-01	-1.041210e-01
2.267578e+00	-1.223873e-01	-1.163179e-01
2.269531e+00	-1.345555e-01	-1.284973e-01
2.271484e+00	-1.467034e-01	-1.406574e-01
2.273438e+00	-1.588292e-01	-1.527962e-01
2.275391e+00	-1.709311e-01	-1.649121e-01
2.277344e+00	-1.830073e-01	-1.770031e-01
2.279297e+00	-1.950558e-01	-1.890675e-01
2.281250e+00	-2.070751e-01	-2.011034e-01
2.283203e+00	-2.190631e-01	-2.131090e-01
2.285156e+00	-2.310181e-01	-2.250825e-01
2.287109e+00	-2.429384e-01	-2.370221e-01
2.289062e+00	-2.548220e-01	-2.489260e-01
2.291016e+00	-2.666673e-01	-2.607925e-01
2.292969e+00	-2.784725e-01	-2.726196e-01
2.294922e+00	-2.902356e-01	-2.844058e-01
2.296875e+00	-3.019551e-01	-2.961490e-01
2.298828e+00	-3.136291e-01	-3.078477e-01
2.300781e+00	-3.252559e-01	-3.195000e-01
2.302734e+00	-3.368337e-01	-3.311042e-01
2.304688e+00	-3.483608e-01	-3.426586e-01
2.306641e+00	-3.598354e-01	-3.541613e-01
2.308594e+00	-3.712558e-01	-3.656107e-01
2.310547e+00	-3.826203e-01	-3.770050e-01
2.312500e+00	-3.939272e-01	-3.883426e-01
2.314453e+00	-4.051748e-01	-3.996217e-01
2.316406e+00	-4.163613e-01	-4.108406e-01
2.318359e+00	-4.274851e-01	-4.219976e-01
2.320312e+00	-4.385446e-01	-4.330911e-01
2.322266e+00	-4.495380e-01	-4.441194e-01
2.324219e+00	-4.604638e-01	-4.550807e-01
2.326172e+00	-4.713201e-01	-4.659736e-01
2.328125e+00	-4.821055e-01	-4.767962e-01
2.330078e+00	-4.928183e-01	-4.875471e-01
2.332031e+00	-5.034569e-01	-4.982245e-01
2.333984e+00	-5.140197e-01	-5.088269e-01
2.335938e+00	-5.245050e-01	-5.193527e-01
2.337891e+00	-5.349114e-01	-5.298003e-01
2.339844e+00	-5.452372e-01	-5.401681e-01
2.341797e+00	-5.554809e-01	-5.504545e-01
2.343750e+00	-5.656409e-01	-5.606581e-01
2.345703e+00	-5.757158e-01	-5.707772e-01
2.347656e+00	-5.857040e-01	-5.808103e-01
2.349609e+00	-5.956039e-01	-5.907560e-01
2.351562e+00	-6.054142e-01	-6.006127e-01
2.353516e+00	-6.151333e-01	-6.103790e-01
2.355469e+00	-6.247597e-01	-6.200533e-01
2.357422e+00	-6.342921e-01	-6.296343e-01
2.359375e+00	-6.437289e-01	-6.391204e-01
2.361328e+00	-6.530688e-01	-6.485103e-01
2.363281e+00	-6.623103e-01	-6.578026e-01
2.365234e+00	-6.714521e-01	-6.669957e-01
2.367188e+00	-6.804928e-01	-6.760885e-01
2.369141e+00	-6.894310e-01	-6.850794e-01
2.371094e+00	-6.982654e-01	-6.939671e-01
2.373047e+00	-7.069947e-01	-7.027503e-01
2.375000e+00	-7.156174e-01	-7.114277e-01
2.376953e+00	-7.241324e-01	-7.199980e-01
2.378906e+00	-7.325383e-01	-7.284598e-01
2.380859e+00	-7.408339e-01	-7.368119e-01
2.382812e+00	-7.490180e-01	-7.450531e-01
2.384766e+00	-7.570892e-01	-7.531821e-01
2.386719e+00	-7.650465e-01	-7.611976e-01
2.388672e+00	-7.728885e-01	-7.690985e-01
2.390625e+00	-7.806141e-01	-7.768836e-01
2.392578e+00	-7.882222e-01	-7.845517e-01
2.394531e+00	-7.957116e-01	-7.921016e-01
2.396484e+00	-8.030811e-01	-7.995323e-01
2.398438e+00	-8.103297e-01	-8.068425e-01
2.400391e+00	-8.174563e-01	-8.140312e-01
2.402344e+00	-8.244597e-01	-8.210974e-01
2.404297e+00	-8.313390e-01	-8.280398e-01
2.406250e+00	-8.380931e-01	-8.348576e-01
2.408203e+00	-8.447210e-01	-8.415497e-01
2.410156e+00	-8.512217e-01	-8.481150e-01
2.412109e+00	-8.575941e-01	-8.545526e-01
2.414062e+00	-8.638375e-01	-8.608615e-01
2.416016e+00	-8.699507e-01	-8.670408e-01
2.417969e+00	-8.759329e-01	-8.730895e-01
2.419922e+00	-8.817833e-01	-8.790067e-01
2.421875e+00	-8.875008e-01	-8.847915e-01
2.423828e+00	-8.930847e-01	-8.904431e-01
2.425781e+00	-8.985340e-01	-8.959606e-01
2.427734e+00	-9.038481e-01	-9.013432e-01
2.429688e+00	-9.090260e-01	-9.065900e-01
2.431641e+00	-9.140671e-01	-9.117003e-01
2.433594e+00	-9.189705e-01	-9.166733e-01
2.435547e+00	-9.237355e-01	-9.215083e-01
2.437500e+00	-9.283614e-01	-9.262044e-01
2.439453e+00	-9.328474e-01	-9.307611e-01
2.441406e+00	-9.371930e-01	-9.351776e-01
2.443359e+00	-9.413975e-01	-9.394533e-01
2.445312e+00	-9.454602e-01	-9.435875e-01
2.447266e+00	-9.493805e-01	-9.475796e-01
2.449219e+00	-9.531578e-01	-9.514291e-01
2.451172e+00	-9.567916e-01	-9.551352e-01
2.453125e+00	-9.602813e-01	-9.586975e-01
2.455078e+00	-9.636264e-01	-9.621154e-01
2.457031e+00	-9.668263e-01	-9.653884e-01
2.458984e+00	-9.698807e-01	-9.685160e-01
2.460938e+00	-9.727890e-01	-9.714978e-01
2.462891e+00	-9.755508e-01	-9.743333e-01
2.464844e+00	-9.781657e-01	-9.770220e-01
2.466797e+00	-9.806333e-01	-9.795636e-01
2.468750e+00	-9.829532e-01	-9.819577e-01
2.470703e+00	-9.851251e-01	-9.842039e-01
2.472656e+00	-9.871486e-01	-9.863019e-01
2.474609e+00	-9.890234e-01	-9.882514e-01
2.476562e+00	-9.907494e-01	-9.900520e-01
2.478516e+00	-9.923261e-01	-9.917035e-01
2.480469e+00	-9.937533e-01	-9.932057e-01
2.482422e+00	-9.950310e-01	-9.945583e-01
2.484375e+00	-9.961587e-01	-9.957612e-01
2.486328e+00	-9.971365e-01	-9.968140e-01
2.488281e+00	-9.979641e-01	-9.977168e-01
2.490234e+00	-9.986413e-01	-9.984693e-01
2.492188e+00	-9.991682e-01	-9.990715e-01
2.494141e+00	-9.995447e-01	-9.995231e-01
2.496094e+00	-9.997706e-01	-9.998243e-01
2.498047e+00	-9.998459e-01	-9.999749e-01
2.500000e+00	-9.997707e-01	-9.999749e-01
2.501953e+00	-9.995449e-01	-9.998243e-01
2.503906e+00	-9.991686e-01	-9.995231e-01
2.505859e+00	-9.986418e-01	-9.990715e-01
2.507812e+00	-9.979646e-01	-9.984693e-01
2.509766e+00	-9.971371e-01	-9.977168e-01
2.511719e+00	-9.961595e-01	-9.968140e-01
2.513672e+00	-9.950318e-01	-9.957612e-01
2.515625e+00	-9.937543e-01	-9.945583e-01
2.517578e+00	-9.923272e-01	-9.932057e-01
2.519531e+00	-9.907506e-01	-9.917035e-01
2.521484e+00	-9.890248e-01	-9.900520e-01
2.523438e+00	-9.871500e-01	-9.882514e-01
2.525391e+00	-9.851266e-01	-9.863019e-01
2.527344e+00	-9.829548e-01	-9.842039e-01
2.529297e+00	-9.806350e-01	-9.819577e-01
2.531250e+00	-9.781676e-01	-9.795636e-01
2.533203e+00	-9.755528e-01	-9.770220e-01
2.535156e+00	-9.727911e-01	-9.743333e-01
2.537109e+00	-9.698829e-01	-9.714978e-01
2.539062e+00	-9.668286e-01	-9.685160e-01
2.541016e+00	-9.636288e-01	-9.653884e-01
2.542969e+00	-9.602838e-01	-9.621154e-01
2.544922e+00	-9.567942e-01	-9.586975e-01
2.546875e+00	-9.531605e-01	-9.551352e-01
2.548828e+00	-9.493833e-01	-9.514291e-01
2.550781e+00	-9.454631e-01	-9.475796e-01
2.552734e+00	-9.414005e-01	-9.435875e-01
2.554688e+00	-9.371962e-01	-9.394533e-01
2.556641e+00	-9.328507e-01	-9.351776e-01
2.558594e+00	-9.283647e-01	-9.307611e-01
2.560547e+00	-9.237389e-01	-9.262044e-01
2.562500e+00	-9.189740e-01	-9.215083e-01
2.564453e+00	-9.140707e-01	-9.166733e-01
2.566406e+00	-9.090298e-01	-9.117003e-01
2.568359e+00	-9.038519e-01	-9.065900e-01
2.570312e+00	-8.985380e-01	-9.013432e-01
2.572266e+00	-8.930887e-01	-8.959606e-01
2.574219e+00	-8.875049e-01	-8.904431e-01
2.576172e+00	-8.817875e-01	-8.847915e-01
2.578125e+00	-8.759373e-01	-8.790067e-01
2.580078e+00	-8.699552e-01	-8.730895e-01
2.582031e+00	-8.638420e-01	-8.670408e-01
2.583984e+00	-8.575988e-01	-8.608615e-01
2.585938e+00	-8.512264e-01	-8.545526e-01
2.587891e+00	-8.447258e-01	-8.481150e-01
2.589844e+00	-8.380980e-01	-8.415497e-01
2.591797e+00	-8.313440e-01	-8.348576e-01
2.593750e+00	-8.244648e-01	-8.280398e-01
2.595703e+00	-8.174614e-01	-8.210974e-01
2.597656e+00	-8.103350e-01	-8.140312e-01
2.599609e+00	-8.030865e-01	-8.068425e-01
2.601562e+00	-7.957170e-01	-7.995323e-01
2.603516e+00	-7.882277e-01	-7.921016e-01
2.605469e+00	-7.806198e-01	-7.845517e-01
2.607422e+00	-7.728942e-01	-7.768836e-01
2.609375e+00	-7.650523e-01	-7.690985e-01
2.611328e+00	-7.570951e-01	-7.611976e-01
2.613281e+00	-7.490240e-01	-7.531821e-01
2.615234e+00	-7.408400e-01	-7.450531e-01
2.617188e+00	-7.325445e-01	-7.368119e-01
2.619141e+00	-7.241386e-01	-7.284598e-01
2.621094e+00	-7.156237e-01	-7.199980e-01
2.623047e+00	-7.070010e-01	-7.114277e-01
2.625000e+00	-6.982719e-01	-7.027503e-01
2.626953e+00	-6.894376e-01	-6.939671e-01
2.628906e+00	-6.804994e-01	-6.850794e-01
2.630859e+00	-6.714588e-01	-6.760885e-01
2.632812e+00	-6.623171e-01	-6.669957e-01
2.634766e+00	-6.530756e-01	-6.578026e-01
2.636719e+00	-6.437358e-01	-6.485103e-01
2.638672e+00	-6.342990e-01	-6.391204e-01
2.640625e+00	-6.247667e-01	-6.296343e-01
2.642578e+00	-6.151403e-01	-6.200533e-01
2.644531e+00	-6.054213e-01	-6.103790e-01
2.646484e+00	-5.956111e-01	-6.006127e-01
2.648438e+00	-5.857113e-01	-5.907560e-01
2.650391e+00	-5.757232e-01	-5.808103e-01
2.652344e+00	-5.656484e-01	-5.707772e-01
2.654297e+00	-5.554884e-01	-5.606581e-01
2.656250e+00	-5.452447e-01	-5.504545e-01
2.658203e+00	-5.349190e-01	-5.401681e-01
2.660156e+00	-5.245127e-01	-5.298003e-01
2.662109e+00	-5.140274e-01	-5.193527e-01
2.664062e+00	-5.034647e-01	-5.088269e-01
2.666016e+00	-4.928262e-01	-4.982245e-01
2.667969e+00	-4.821134e-01	-4.875471e-01
2.669922e+00	-4.713281e-01	-4.767962e-01
2.671875e+00	-4.604718e-01	-4.659736e-01
2.673828e+00	-4.495461e-01	-4.550807e-01
2.675781e+00	-4.385527e-01	-4.441194e-01
2.677734e+00	-4.274933e-01	-4.330911e-01
2.679688e+00	-4.163695e-01	-4.219976e-01
2.681641e+00	-4.051830e-01	-4.108406e-01
2.683594e+00	-3.939355e-01	-3.996217e-01
2.685547e+00	-3.826286e-01	-3.883426e-01
2.687500e+00	-3.712642e-01	-3.770050e-01
2.689453e+00	-3.598438e-01	-3.656107e-01
2.691406e+00	-3.483692e-01	-3.541613e-01
2.693359e+00	-3.368422e-01	-3.426586e-01
2.695312e+00	-3.252644e-01	-3.311042e-01
2.697266e+00	-3.136377e-01	-3.195000e-01
2.699219e+00	-3.019637e-01	-3.078477e-01
2.701172e+00	-2.902443e-01	-2.961490e-01
2.703125e+00	-2.784811e-01	-2.844058e-01
2.705078e+00	-2.666760e-01	-2.726196e-01
2.707031e+00	-2.548307e-01	-2.607925e-01
2.708984e+00	-2.429471e-01	-2.489260e-01
2.710938e+00	-2.310269e-01	-2.370221e-01
2.712891e+00	-2.190719e-01	-2.250825e-01
2.714844e+00	-2.070839e-01	-2.131090e-01
2.716797e+00	-1.950647e-01	-2.011034e-01
2.718750e+00	-1.830161e-01	-1.890675e-01
2.720703e+00	-1.709400e-01	-1.770031e-01
2.722656e+00	-1.588381e-01	-1.649121e-01
2.724609e+00	-1.467123e-01	-1.527962e-01
2.726562e+00	-1.345644e-01	-1.406574e-01
2.728516e+00	-1.223963e-01	-1.284973e-01
2.730469e+00	-1.102097e-01	-1.163179e-01
2.732422e+00	-9.800652e-02	-1.041210e-01
2.734375e+00	-8.578858e-02	-9.190838e-02
2.736328e+00	-7.355772e-02	-7.968194e-02
2.738281e+00	-6.131578e-02	-6.744350e-02
2.740234e+00	-4.906461e-02	-5.519490e-02
2.742188e+00	-3.680605e-02	-4.293799e-02
2.744141e+00	-2.454195e-02	-3.067461e-02
2.746094e+00	-1.227415e-02	-1.840661e-02
2.748047e+00	-4.502322e-06	-6.135846e-03
2.750000e+00	1.226515e-02	6.135846e-03
2.751953e+00	2.453295e-02	1.840661e-02
2.753906e+00	3.679705e-02	3.067461e-02
2.755859e+00	4.905562e-02	4.293799e-02
2.757812e+00	6.130679e-02	5.519490e-02
2.759766e+00	7.354874e-02	6.744350e-02
2.761719e+00	8.577961e-02	7.968194e-02
2.763672e+00	9.799756e-02	9.190838e-02
2.765625e+00	1.102008e-01	1.041210e-01
2.767578e+00	1.223873e-01	1.163179e-01
2.769531e+00	1.345555e-01	1.284973e-01
2.771484e+00	1.467034e-01	1.406574e-01
2.773438e+00	1.588292e-01	1.527962e-01
2.775391e+00	1.709311e-01	1.649121e-01
2.777344e+00	1.830073e-01	1.770031e-01
2.779297e+00	1.950558e-01	1.890675e-01
2.781250e+00	2.070751e-01	2.011034e-01
2.783203e+00	2.190631e-01	2.131090e-01
2.785156e+00	2.310181e-01	2.250825e-01
2.787109e+00	2.429384e-01	2.370221e-01
2.789062e+00	2.548220e-01	2.489260e-01
2.791016e+00	2.666673e-01	2.607925e-01
2.792969e+00	2.784725e-01	2.726196e-01
2.794922e+00	2.902356e-01	2.844058e-01
2.796875e+00	3.019551e-01	2.961490e-01
2.798828e+00	3.136291e-01	3.078477e-01
2.800781e+00	3.252559e-01	3.195000e-01
2.802734e+00	3.368337e-01	3.311042e-01
2.804688e+00	3.483608e-01	3.426586e-01
2.806641e+00	3.598354e-01	3.541613e-01
2.808594e+00	3.712558e-01	3.656107e-01
2.810547e+00	3.826203e-01	3.770050e-01
2.812500e+00	3.939272e-01	3.883426e-01
2.814453e+00	4.051748e-01	3.996217e-01
2.816406e+00	4.163613e-01	4.108406e-01
2.818359e+00	4.274851e-01	4.219976e-01
2.820312e+00	4.385446e-01	4.330911e-01
2.822266e+00	4.495380e-01	4.441194e-01
2.824219e+00	4.604638e-01	4.550807e-01
2.826172e+00	4.713201e-01	4.659736e-01
2.828125e+00	4.821055e-01	4.767962e-01
2.830078e+00	4.928183e-01	4.875471e-01
2.832031e+00	5.034569e-01	4.982245e-01
2.833984e+00	5.140197e-01	5.088269e-01
2.835938e+00	5.245050e-01	5.193527e-01
2.837891e+00	5.349114e-01	5.298003e-01
2.839844e+00	5.452372e-01	5.401681e-01
2.841797e+00	5.554809e-01	5.504545e-01
2.843750e+00	5.656409e-01	5.606581e-01
2.845703e+00	5.757158e-01	5.707772e-01
2.847656e+00	5.857040e-01	5.808103e-01
2.849609e+00	5.956039e-01	5.907560e-01
2.851562e+00	6.054142e-01	6.006127e-01
2.853516e+00	6.151333e-01	6.103790e-01
2.855469e+00	6.247597e-01	6.200533e-01
2.857422e+00	6.342921e-01	6.296343e-01
2.859375e+00	6.437289e-01	6.391204e-01
2.861328e+00	6.530688e-01	6.485103e-01
2.863281e+00	6.623103e-01	6.578026e-01
2.865234e+00	6.714521e-01	6.669957e-01
2.867188e+00	6.804928e-01	6.760885e-01
2.869141e+00	6.894310e-01	6.850794e-01
2.871094e+00	6.982654e-01	6.939671e-01
2.873047e+00	7.069947e-01	7.027503e-01
2.875000e+00	7.156174e-01	7.114277e-01
2.876953e+00	7.241324e-01	7.199980e-01
2.878906e+00	7.325383e-01	7.284598e-01
2.880859e+00	7.408339e-01	7.368119e-01
2.882812e+00	7.490180e-01	7.450531e-01
2.884766e+00	7.570892e-01	7.531821e-01
2.886719e+00	7.650465e-01	7.611976e-01
2.888672e+00	7.728885e-01	7.690985e-01
2.890625e+00	7.806141e-01	7.768836e-01
2.892578e+00	7.882222e-01	7.845517e-01
2.894531e+00	7.957116e-01	7.921016e-01
2.896484e+00	8.030811e-01	7.995323e-01
2.898438e+00	8.103297e-01	8.068425e-01
2.900391e+00	8.174563e-01	8.140312e-01
2.902344e+00	8.244597e-01	8.210974e-01
2.904297e+00	8.313390e-01	8.280398e-01
2.906250e+00	8.380931e-01	8.348576e-01
2.908203e+00	8.447210e-01	8.415497e-01
2.910156e+00	8.512217e-01	8.481150e-01
2.912109e+00	8.575941e-01	8.545526e-01
2.914062e+00	8.638375e-01	8.608615e-01
2.916016e+00	8.699507e-01	8.670408e-01
2.917969e+00	8.759329e-01	8.730895e-01
2.919922e+00	8.817833e-01	8.790067e-01
2.921875e+00	8.875008e-01	8.847915e-01
2.923828e+00	8.930847e-01	8.904431e-01
2.925781e+00	8.985340e-01	8.959606e-01
2.927734e+00	9.038481e-01	9.013432e-01
2.929688e+00	9.090260e-01	9.065900e-01
2.931641e+00	9.140671e-01	9.117003e-01
2.933594e+00	9.189705e-01	9.166733e-01
2.935547e+00	9.237355e-01	9.215083e-01
2.937500e+00	9.283614e-01	9.262044e-01
2.939453e+00	9.328474e-01	9.307611e-01
2.941406e+00	9.371930e-01	9.351776e-01
2.943359e+00	9.413975e-01	9.394533e-01
2.945312e+00	9.454602e-01	9.435875e-01
2.947266e+00	9.493805e-01	9.475796e-01
2.949219e+00	9.531578e-01	9.514291e-01
2.951172e+00	9.567916e-01	9.551352e-01
2.953125e+00	9.602813e-01	9.586975e-01
2.955078e+00	9.636264e-01	9.621154e-01
2.957031e+00	9.668263e-01	9.653884e-01
2.958984e+00	9.698807e-01	9.685160e-01
2.960938e+00	9.727890e-01	9.714978e-01
2.962891e+00	9.755508e-01	9.743333e-01
2.964844e+00	9.781657e-01	9.770220e-01
2.966797e+00	9.806333e-01	9.795636e-01
2.968750e+00	9.829532e-01	9.819577e-01
2.970703e+00	9.851251e-01	9.842039e-01
2.972656e+00	9.871486e-01	9.863019e-01
2.974609e+00	9.890234e-01	9.882514e-01
2.976562e+00	9.907494e-01	9.900520e-01
2.978516e+00	9.923261e-01	9.917035e-01
2.980469e+00	9.937533e-01	9.932057e-01
2.982422e+00	9.950310e-01	9.945583e-01
2.984375e+00	9.961587e-01	9.957612e-01
2.986328e+00	9.971365e-01	9.968140e-01
2.988281e+00	9.979641e-01	9.977168e-01
2.990234e+00	9.986413e-01	9.984693e-01
2.992188e+00	9.991682e-01	9.990715e-01
2.994141e+00	9.995447e-01	9.995231e-01
2.996094e+00	9.997706e-01	9.998243e-01
2.998047e+00	9.998459e-01	9.999749e-01
3.000000e+00	9.997707e-01	9.999749e-01
3.001953e+00	9.995449e-01	9.998243e-01
3.003906e+00	9.991686e-01	9.995231e-01
3.005859e+00	9.986418e-01	9.990715e-01
3.007812e+00	9.979646e-01	9.984693e-01
3.009766e+00	9.971371e-01	9.977168e-01
3.011719e+00	9.961595e-01	9.968140e-01
3.013672e+00	9.950318e-01	9.957612e-01
3.015625e+00	9.937543e-01	9.945583e-01
3.017578e+00	9.923272e-01	9.932057e-01
3.019531e+00	9.907506e-01	9.917035e-01
3.021484e+00	9.890248e-01	9.900520e-01
3.023438e+00	9.871500e-01	9.882514e-01
3.025391e+00	9.851266e-01	9.863019e-01
3.027344e+00	9.829548e-01	9.842039e-01
3.029297e+00	9.806350e-01	9.819577e-01
3.031250e+00	9.781676e-01	9.795636e-01
3.033203e+00	9.755528e-01	9.770220e-01
3.035156e+00	9.727911e-01	9.743333e-01
3.037109e+00	9.698829e-01	9.714978e-01
3.039062e+00	9.668286e-01	9.685160e-01
3.041016e+00	9.636288e-01	9.653884e-01
3.042969e+00	9.602838e-01	9.621154e-01
3.044922e+00	9.567942e-01	9.586975e-01
3.046875e+00	9.531605e-01	9.551352e-01
3.048828e+00	9.493833e-01	9.514291e-01
3.050781e+00	9.454631e-01	9.475796e-01
3.052734e+00	9.414005e-01	9.435875e-01
3.054688e+00	9.371962e-01	9.394533e-01
3.056641e+00	9.328507e-01	9.351776e-01
3.058594e+00	9.283647e-01	9.307611e-01
3.060547e+00	9.237389e-01	9.262044e-01
3.062500e+00	9.189740e-01	9.215083e-01
3.064453e+00	9.140707e-01	9.166733e-01
3.066406e+00	9.090298e-01	9.117003e-01
3.068359e+00	9.038519e-01	9.065900e-01
3.070312e+00	8.985380e-01	9.013432e-01
3.072266e+00	8.930887e-01	8.959606e-01
3.074219e+00	8.875049e-01	8.904431e-01
3.076172e+00	8.817875e-01	8.847915e-01
3.078125e+00	8.759373e-01	8.790067e-01
3.080078e+00	8.699552e-01	8.730895e-01
3.082031e+00	8.638420e-01	8.670408e-01
3.083984e+00	8.575988e-01	8.608615e-01
3.085938e+00	8.512264e-01	8.545526e-01
3.087891e+00	8.447258e-01	8.481150e-01
3.089844e+00	8.380980e-01	8.415497e-01
3.091797e+00	8.313440e-01	8.348576e-01
3.093750e+00	8.244648e-01	8.280398e-01
3.095703e+00	8.174614e-01	8.210974e-01
3.097656e+00	8.103350e-01	8.140312e-01
3.099609e+00	8.030865e-01	8.068425e-01
3.101562e+00	7.957170e-01	7.995323e-01
3.103516e+00	7.882277e-01	7.921016e-01
3.105469e+00	7.806198e-01	7.845517e-01
3.107422e+00	7.728942e-01	7.768836e-01
3.109375e+00	7.650523e-01	7.690985e-01
3.111328e+00	7.570951e-01	7.611976e-01
3.113281e+00	7.490240e-01	7.531821e-01
3.115234e+00	7.408400e-01	7.450531e-01
3.117188e+00	7.325445e-01	7.368119e-01
3.119141e+00	7.241386e-01	7.284598e-01
3.121094e+00	7.156237e-01	7.199980e-01
3.123047e+00	7.070010e-01	7.114277e-01
3.125000e+00	6.982719e-01	7.027503e-01
3.126953e+00	6.894376e-01	6.939671e-01
3.128906e+00	6.804994e-01	6.850794e-01
3.130859e+00	6.714588e-01	6.760885e-01
3.132812e+00	6.623171e-01	6.669957e-01
3.134766e+00	6.530756e-01	6.578026e-01
3.136719e+00	6.437358e-01	6.485103e-01
3.138672e+00	6.342990e-01	6.391204e-01
3.140625e+00	6.247667e-01	6.296343e-01
3.142578e+00	6.151403e-01	6.200533e-01
3.144531e+00	6.054213e-01	6.103790e-01
3.146484e+00	5.956111e-01	6.006127e-01
3.148438e+00	5.857113e-01	5.907560e-01
3.150391e+00	5.757232e-01	5.808103e-01
3.152344e+00	5.656484e-01	5.707772e-01
3.154297e+00	5.554884e-01	5.606581e-01
3.156250e+00	5.452447e-01	5.504545e-01
3.158203e+00	5.349190e-01	5.401681e-01
3.160156e+00	5.245127e-01	5.298003e-01
3.162109e+00	5.140274e-01	5.193527e-01
3.164062e+00	5.034647e-01	5.088269e-01
3.166016e+00	4.928262e-01	4.982245e-01
3.167969e+00	4.821134e-01	4.875471e-01
3.169922e+00	4.713281e-01	4.767962e-01
3.171875e+00	4.604718e-01	4.659736e-01
3.173828e+00	4.495461e-01	4.550807e-01
3.175781e+00	4.385527e-01	4.441194e-01
3.177734e+00	4.274933e-01	4.330911e-01
3.179688e+00	4.163695e-01	4.219976e-01
3.181641e+00	4.051830e-01	4.108406e-01
3.183594e+00	3.939355e-01	3.996217e-01
3.185547e+00	3.826286e-01	3.883426e-01
3.187500e+00	3.712642e-01	3.770050e-01
3.189453e+00	3.598438e-01	3.656107e-01
3.191406e+00	3.483692e-01	3.541613e-01
3.193359e+00	3.368422e-01	3.426586e-01
3.195312e+00	3.252644e-01	3.311042e-01
3.197266e+00	3.136377e-01	3.195000e-01
3.199219e+00	3.019637e-01	3.078477e-01
3.201172e+00	2.902443e-01	2.961490e-01
3.203125e+00	2.784811e-01	2.844058e-01
3.205078e+00	2.666760e-01	2.726196e-01
3.207031e+00	2.548307e-01	2.607925e-01
3.208984e+00	2.429471e-01	2.489260e-01
3.210938e+00	2.310269e-01	2.370221e-01
3.212891e+00	2.190719e-01	2.250825e-01
3.214844e+00	2.070839e-01	2.131090e-01
3.216797e+00	1.950647e-01	2.011034e-01
3.218750e+00	1.830161e-01	1.890675e-01
3.220703e+00	1.709400e-01	1.770031e-01
3.222656e+00	1.588381e-01	1.649121e-01
3.224609e+00	1.467123e-01	1.527962e-01
3.226562e+00	1.345644e-01	1.406574e-01
3.228516e+00	1.223963e-01	1.284973e-01
3.230469e+00	1.102097e-01	1.163179e-01
3.232422e+00	9.800652e-02	1.041210e-01
3.234375e+00	8.578858e-02	9.190838e-02
3.236328e+00	7.355772e-02	7.968194e-02
3.238281e+00	6.131578e-02	6.744350e-02
3.240234e+00	4.906461e-02	5.519490e-02
3.242188e+00	3.680605e-02	4.293799e-02
3.244141e+00	2.454195e-02	3.067461e-02
3.246094e+00	1.227415e-02	1.840661e-02
3.248047e+00	4.502324e-06	6.135846e-03
3.250000e+00	-1.226515e-02	-6.135846e-03
3.251953e+00	-2.453295e-02	-1.840661e-02
3.253906e+00	-3.679705e-02	-3.067461e-02
3.255859e+00	-4.905562e-02	-4.293799e-02
3.257812e+00	-6.130679e-02	-5.519490e-02
3.259766e+00	-7.354874e-02	-6.744350e-02
3.261719e+00	-8.577961e-02	-7.968194e-02
3.263672e+00	-9.799756e-02	-9.190838e-02
3.265625e+00	-1.102008e-01	-1.041210e-01
3.267578e+00	-1.223873e-01	-1.163179e-01
3.269531e+00	-1.345555e-01	-1.284973e-01
3.271484e+00	-1.467034e-01	-1.406574e-01
3.273438e+00	-1.588292e-01	-1.527962e-01
3.275391e+00	-1.709311e-01	-1.649121e-01
3.277344e+00	-1.830073e-01	-1.770031e-01
3.279297e+00	-1.950558e-01	-1.890675e-01
3.281250e+00	-2.070751e-01	-2.011034e-01
3.283203e+00	-2.190631e-01	-2.131090e-01
3.285156e+00	-2.310181e-01	-2.250825e-01
3.287109e+00	-2.429384e-01	-2.370221e-01
3.289062e+00	-2.548220e-01	-2.489260e-01
3.291016e+00	-2.666673e-01	-2.607925e-01
3.292969e+00	-2.784725e-01	-2.726196e-01
3.294922e+00	-2.902356e-01	-2.844058e-01
3.296875e+00	-3.019551e-01	-2.961490e-01
3.298828e+00	-3.136291e-01	-3.078477e-01
3.300781e+00	-3.252559e-01	-3.195000e-01
3.302734e+00	-3.368337e-01	-3.311042e-01
3.304688e+00	-3.483608e-01	-3.426586e-01
3.306641e+00	-3.598354e-01	-3.541613e-01
3.308594e+00	-3.712558e-01	-3.656107e-01
3.310547e+00	-3.826203e-01	-3.770050e-01
3.312500e+00	-3.939272e-01	-3.883426e-01
3.314453e+00	-4.051748e-01	-3.996217e-01
3.316406e+00	-4.163613e-01	-4.108406e-01
3.318359e+00	-4.274851e-01	-4.219976e-01
3.320312e+00	-4.385446e-01	-4.330911e-01
3.322266e+00	-4.495380e-01	-4.441194e-01
3.324219e+00	-4.604638e-01	-4.550807e-01
3.326172e+00	-4.713201e-01	-4.659736e-01
3.328125e+00	-4.821055e-01	-4.767962e-01
3.330078e+00	-4.928183e-01	-4.875471e-01
3.332031e+00	-5.034569e-01	-4.982245e-01
3.333984e+00	-5.140197e-01	-5.088269e-01
3.335938e+00	-5.245050e-01	-5.193527e-01
3.337891e+00	-5.349114e-01	-5.298003e-01
3.339844e+00	-5.452372e-01	-5.401681e-01
3.341797e+00	-5.554809e-01	-5.504545e-01
3.343750e+00	-5.656409e-01	-5.606581e-01
3.345703e+00	-5.757158e-01	-5.707772e-01
3.347656e+00	-5.857040e-01	-5.808103e-01
3.349609e+00	-5.956039e-01	-5.907560e-01
3.351562e+00	-6.054142e-01	-6.006127e-01
3.353516e+00	-6.151333e-01	-6.103790e-01
3.355469e+00	-6.247597e-01	-6.200533e-01
3.357422e+00	-6.342921e-01	-6.296343e-01
3.359375e+00	-6.437289e-01	-6.391204e-01
3.361328e+00	-6.530688e-01	-6.485103e-01
3.363281e+00	-6.623103e-01	-6.578026e-01
3.365234e+00	-6.714521e-01	-6.669957e-01
3.367188e+00	-6.804928e-01	-6.760885e-01
3.369141e+00	-6.894310e-01	-6.850794e-01
3.371094e+00	-6.982654e-01	-6.939671e-01
3.373047e+00	-7.069947e-01	-7.027503e-01
3.375000e+00	-7.156174e-01	-7.114277e-01
3.376953e+00	-7.241324e-01	-7.199980e-01
3.378906e+00	-7.325383e-01	-7.284598e-01
3.380859e+00	-7.408339e-01	-7.368119e-01
3.382812e+00	-7.490180e-01	-7.450531e-01
3.384766e+00	-7.570892e-01	-7.531821e-01
3.386719e+00	-7.650465e-01	-7.611976e-01
3.388672e+00	-7.728885e-01	-7.690985e-01
3.390625e+00	-7.806141e-01	-7.768836e-01
3.392578e+00	-7.882222e-01	-7.845517e-01
3.394531e+00	-7.957116e-01	-7.921016e-01
3.396484e+00	-8.030811e-01	-7.995323e-01
3.398438e+00	-8.103297e-01	-8.068425e-01
3.400391e+00	-8.174563e-01	-8.140312e-01
3.402344e+00	-8.244597e-01	-8.210974e-01
3.404297e+00	-8.313390e-01	-8.280398e-01
3.406250e+00	-8.380931e-01	-8.348576e-01
3.408203e+00	-8.447210e-01	-8.415497e-01
3.410156e+00	-8.512217e-01	-8.481150e-01
3.412109e+00	-8.575941e-01	-8.545526e-01
3.414062e+00	-8.638375e-01	-8.608615e-01
3.416016e+00	-8.699507e-01	-8.670408e-01
3.417969e+00	-8.759329e-01	-8.730895e-01
3.419922e+00	-8.817833e-01	-8.790067e-01
3.421875e+00	-8.875008e-01	-8.847915e-01
3.423828e+00	-8.930847e-01	-8.904431e-01
3.425781e+00	-8.985340e-01	-8.959606e-01
3.427734e+00	-9.038481e-01	-9.013432e-01
3.429688e+00	-9.090260e-01	-9.065900e-01
3.431641e+00	-9.140671e-01	-9.117003e-01
3.433594e+00	-9.189705e-01	-9.166733e-01
3.435547e+00	-9.237355e-01	-9.215083e-01
3.437500e+00	-9.283614e-01	-9.262044e-01
3.439453e+00	-9.328474e-01	-9.307611e-01
3.441406e+00	-9.371930e-01	-9.351776e-01
3.443359e+00	-9.413975e-01	-9.394533e-01
3.445312e+00	-9.454602e-01	-9.435875e-01
3.447266e+00	-9.493805e-01	-9.475796e-01
3.449219e+00	-9.531578e-01	-9.514291e-01
3.451172e+00	-9.567916e-01	-9.551352e-01
3.453125e+00	-9.602813e-01	-9.586975e-01
3.455078e+00	-9.636264e-01	-9.621154e-01
3.457031e+00	-9.668263e-01	-9.653884e-01
3.458984e+00	-9.698807e-01	-9.685160e-01
3.460938e+00	-9.727890e-01	-9.714978e-01
3.462891e+00	-9.755508e-01	-9.743333e-01
3.464844e+00	-9.781657e-01	-9.770220e-01
3.466797e+00	-9.806333e-01	-9.795636e-01
3.468750e+00	-9.829532e-01	-9.819577e-01
3.470703e+00	-9.851251e-01	-9.842039e-01
3.472656e+00	-9.871486e-01	-9.863019e-01
3.474609e+00	-9.890234e-01	-9.882514e-01
3.476562e+00	-9.907494e-01	-9.900520e-01
3.478516e+00	-9.923261e-01	-9.917035e-01
3.480469e+00	-9.937533e-01	-9.932057e-01
3.482422e+00	-9.950310e-01	-9.945583e-01
3.484375e+00	-9.961587e-01	-9.957612e-01
3.486328e+00	-9.971365e-01	-9.968140e-01
3.488281e+00	-9.979641e-01	-9.977168e-01
3.490234e+00	-9.986413e-01	-9.984693e-01
3.492188e+00	-9.991682e-01	-9.990715e-01
3.494141e+00	-9.995447e-01	-9.995231e-01
3.496094e+00	-9.997706e-01	-9.998243e-01
3.498047e+00	-9.998459e-01	-9.999749e-01
3.500000e+00	-9.997707e-01	-9.999749e-01
3.501953e+00	-9.995449e-01	-9.998243e-01
3.503906e+00	-9.991686e-01	-9.995231e-01
3.505859e+00	-9.986418e-01	-9.990715e-01
3.507812e+00	-9.979646e-01	-9.984693e-01
3.509766e+00	-9.971371e-01	-9.977168e-01
3.511719e+00	-9.961595e-01	-9.968140e-01
3.513672e+00	-9.950318e-01	-9.957612e-01
3.515625e+00	-9.937543e-01	-9.945583e-01
3.517578e+00	-9.923272e-01	-9.932057e-01
3.519531e+00	-9.907506e-01	-9.917035e-01
3.521484e+00	-9.890248e-01	-9.900520e-01
3.523438e+00	-9.871500e-01	-9.882514e-01
3.525391e+00	-9.851266e-01	-9.863019e-01
3.527344e+00	-9.829548e-01	-9.842039e-01
3.529297e+00	-9.806350e-01	-9.819577e-01
3.531250e+00	-9.781676e-01	-9.795636e-01
3.533203e+00	-9.755528e-01	-9.770220e-01
3.535156e+00	-9.727911e-01	-9.743333e-01
3.537109e+00	-9.698829e-01	-9.714978e-01
3.539062e+00	-9.668286e-01	-9.685160e-01
3.541016e+00	-9.636288e-01	-9.653884e-01
3.542969e+00	-9.602838e-01	-9.621154e-01
3.544922e+00	-9.567942e-01	-9.586975e-01
3.546875e+00	-9.531605e-01	-9.551352e-01
3.548828e+00	-9.493833e-01	-9.514291e-01
3.550781e+00	-9.454631e-01	-9.475796e-01
3.552734e+00	-9.414005e-01	-9.435875e-01
3.554688e+00	-9.371962e-01	-9.394533e-01
3.556641e+00	-9.328507e-01	-9.351776e-01
3.558594e+00	-9.283647e-01	-9.307611e-01
3.560547e+00	-9.237389e-01	-9.262044e-01
3.562500e+00	-9.189740e-01	-9.215083e-01
3.564453e+00	-9.140707e-01	-9.166733e-01
3.566406e+00	-9.090298e-01	-9.117003e-01
3.568359e+00	-9.038519e-01	-9.065900e-01
3.570312e+00	-8.985380e-01	-9.013432e-01
3.572266e+00	-8.930887e-01	-8.959606e-01
3.574219e+00	-8.875049e-01	-8.904431e-01
3.576172e+00	-8.817875e-01	-8.847915e-01
3.578125e+00	-8.759373e-01	-8.790067e-01
3.580078e+00	-8.699552e-01	-8.730895e-01
3.582031e+00	-8.638420e-01	-8.670408e-01
3.583984e+00	-8.575988e-01	-8.608615e-01
3.585938e+00	-8.512264e-01	-8.545526e-01
3.587891e+00	-8.447258e-01	-8.481150e-01
3.589844e+00	-8.380980e-01	-8.415497e-01
3.591797e+00	-8.313440e-01	-8.348576e-01
3.593750e+00	-8.244648e-01	-8.280398e-01
3.595703e+00	-8.174614e-01	-8.210974e-01
3.597656e+00	-8.103350e-01	-8.140312e-01
3.599609e+00	-8.030865e-01	-8.068425e-01
3.601562e+00	-7.957170e-01	-7.995323e-01
3.603516e+00	-7.882277e-01	-7.921016e-01
3.605469e+00	-7.806197e-01	-7.845517e-01
3.607422e+00	-7.728942e-01	-7.768836e-01
3.609375e+00	-7.650523e-01	-7.690985e-01
3.611328e+00	-7.570951e-01	-7.611976e-01
3.613281e+00	-7.490240e-01	-7.531821e-01
3.615234e+00	-7.408400e-01	-7.450531e-01
3.617188e+00	-7.325445e-01	-7.368119e-01
3.619141e+00	-7.241386e-01	-7.284598e-01
3.621094e+00	-7.156237e-01	-7.199980e-01
3.623047e+00	-7.070010e-01	-7.114277e-01
3.625000e+00	-6.982719e-01	-7.027503e-01
3.626953e+00	-6.894376e-01	-6.939671e-01
3.628906e+00	-6.804994e-01	-6.850794e-01
3.630859e+00	-6.714588e-01	-6.760885e-01
3.632812e+00	-6.623171e-01	-6.669957e-01
3.634766e+00	-6.530756e-01	-6.578026e-01
3.636719e+00	-6.437358e-01	-6.485103e-01
3.638672e+00	-6.342990e-01	-6.391204e-01
3.640625e+00	-6.247667e-01	-6.296343e-01
3.642578e+00	-6.151403e-01	-6.200533e-01
3.644531e+00	-6.054213e-01	-6.103790e-01
3.646484e+00	-5.956111e-01	-6.006127e-01
3.648438e+00	-5.857112e-01	-5.907560e-01
3.650391e+00	-5.757232e-01	-5.808103e-01
3.652344e+00	-5.656484e-01	-5.707772e-01
3.654297e+00	-5.554884e-01	-5.606581e-01
3.656250e+00	-5.452447e-01	-5.504545e-01
3.658203e+00	-5.349190e-01	-5.401681e-01
3.660156e+00	-5.245127e-01	-5.298003e-01
3.662109e+00	-5.140274e-01	-5.193527e-01
3.664062e+00	-5.034647e-01	-5.088269e-01
3.666016e+00	-4.928262e-01	-4.982245e-01
3.667969e+00	-4.821134e-01	-4.875471e-01
3.669922e+00	-4.713281e-01	-4.767962e-01
3.671875e+00	-4.604717e-01	-4.659736e-01
3.673828e+00	-4.495461e-01	-4.550807e-01
3.675781e+00	-4.385527e-01	-4.441194e-01
3.677734e+00	-4.274933e-01	-4.330911e-01
3.679688e+00	-4.163695e-01	-4.219976e-01
3.681641e+00	-4.051830e-01	-4.108406e-01
3.683594e+00	-3.939355e-01	-3.996217e-01
3.685547e+00	-3.826286e-01	-3.883426e-01
3.687500e+00	-3.712642e-01	-3.770050e-01
3.689453e+00	-3.598438e-01	-3.656107e-01
3.691406e+00	-3.483692e-01	-3.541613e-01
3.693359e+00	-3.368422e-01	-3.426586e-01
3.695312e+00	-3.252644e-01	-3.311042e-01
3.697266e+00	-3.136377e-01	-3.195000e-01
3.699219e+00	-3.019637e-01	-3.078477e-01
3.701172e+00	-2.902442e-01	-2.961490e-01
3.703125e+00	-2.784811e-01	-2.844058e-01
3.705078e+00	-2.666760e-01	-2.726196e-01
3.707031e+00	-2.548307e-01	-2.607925e-01
3.708984e+00	-2.429471e-01	-2.489260e-01
3.710938e+00	-2.310269e-01	-2.370221e-01
3.712891e+00	-2.190719e-01	-2.250825e-01
3.714844e+00	-2.070838e-01	-2.131090e-01
3.716797e+00	-1.950647e-01	-2.011034e-01
3.718750e+00	-1.830161e-01	-1.890675e-01
3.720703e+00	-1.709400e-01	-1.770031e-01
3.722656e+00	-1.588381e-01	-1.649121e-01
3.724609e+00	-1.467123e-01	-1.527962e-01
3.726562e+00	-1.345644e-01	-1.406574e-01
3.728516e+00	-1.223963e-01	-1.284973e-01
3.730469e+00	-1.102097e-01	-1.163179e-01
3.732422e+00	-9.800649e-02	-1.041210e-01
3.734375e+00	-8.578855e-02	-9.190838e-02
3.736328e+00	-7.355769e-02	-7.968194e-02
3.738281e+00	-6.131575e-02	-6.744350e-02
3.740234e+00	-4.906457e-02	-5.519490e-02
3.742188e+00	-3.680601e-02	-4.293799e-02
3.744141e+00	-2.454191e-02	-3.067461e-02
3.746094e+00	-1.227411e-02	-1.840661e-02
3.748047e+00	-4.458862e-06	-6.135846e-03
3.750000e+00	1.226519e-02	6.135846e-03
3.751953e+00	2.453299e-02	1.840661e-02
3.753906e+00	3.679710e-02	3.067461e-02
3.755859e+00	4.905567e-02	4.293799e-02
3.757812e+00	6.130685e-02	5.519490e-02
3.759766e+00	7.354879e-02	6.744350e-02
3.761719e+00	8.577967e-02	7.968194e-02
3.763672e+00	9.799762e-02	9.190838e-02
3.765625e+00	1.102008e-01	1.041210e-01
3.767578e+00	1.223874e-01	1.163179e-01
3.769531e+00	1.345556e-01	1.284973e-01
3.771484e+00	1.467035e-01	1.406574e-01
3.773438e+00	1.588293e-01	1.527962e-01
3.775391e+00	1.709312e-01	1.649121e-01
3.777344e+00	1.830073e-01	1.770031e-01
3.779297e+00	1.950559e-01	1.890675e-01
3.781250e+00	2.070751e-01	2.011034e-01
3.783203e+00	2.190632e-01	2.131090e-01
3.785156e+00	2.310182e-01	2.250825e-01
3.787109e+00	2.429385e-01	2.370221e-01
3.789062e+00	2.548221e-01	2.489260e-01
3.791016e+00	2.666674e-01	2.607925e-01
3.792969e+00	2.784726e-01	2.726196e-01
3.794922e+00	2.902358e-01	2.844058e-01
3.796875e+00	3.019552e-01	2.961490e-01
3.798828e+00	3.136293e-01	3.078477e-01
3.800781e+00	3.252560e-01	3.195000e-01
3.802734e+00	3.368338e-01	3.311042e-01
3.804688e+00	3.483609e-01	3.426586e-01
3.806641e+00	3.598355e-01	3.541613e-01
3.808594e+00	3.712560e-01	3.656107e-01
3.810547e+00	3.826205e-01	3.770050e-01
3.812500e+00	3.939274e-01	3.883426e-01
3.814453e+00	4.051749e-01	3.996217e-01
3.816406e+00	4.163615e-01	4.108406e-01
3.818359e+00	4.274853e-01	4.219976e-01
3.820312e+00	4.385448e-01	4.330911e-01
3.822266e+00	4.495382e-01	4.441194e-01
3.824219e+00	4.604640e-01	4.550807e-01
3.826172e+00	4.713203e-01	4.659736e-01
3.828125e+00	4.821058e-01	4.767962e-01
3.830078e+00	4.928186e-01	4.875471e-01
3.832031e+00	5.034571e-01	4.982245e-01
3.833984e+00	5.140199e-01	5.088269e-01
3.835938e+00	5.245053e-01	5.193527e-01
3.837891e+00	5.349116e-01	5.298003e-01
3.839844e+00	5.452375e-01	5.401681e-01
3.841797e+00	5.554812e-01	5.504545e-01
3.843750e+00	5.656412e-01	5.606581e-01
3.845703e+00	5.757161e-01	5.707772e-01
3.847656e+00	5.857043e-01	5.808103e-01
3.849609e+00	5.956042e-01	5.907560e-01
3.851562e+00	6.054145e-01	6.006127e-01
3.853516e+00	6.151336e-01	6.103790e-01
3.855469e+00	6.247601e-01	6.200533e-01
3.857422e+00	6.342924e-01	6.296343e-01
3.859375e+00	6.437293e-01	6.391204e-01
3.861328e+00	6.530692e-01	6.485103e-01
3.863281e+00	6.623108e-01	6.578026e-01
3.865234e+00	6.714526e-01	6.669957e-01
3.867188e+00	6.804933e-01	6.760885e-01
3.869141e+00	6.894315e-01	6.850794e-01
3.871094e+00	6.982659e-01	6.939671e-01
3.873047e+00	7.069952e-01	7.027503e-01
3.875000e+00	7.156179e-01	7.114277e-01
3.876953e+00	7.241329e-01	7.199980e-01
3.878906e+00	7.325389e-01	7.284598e-01
3.880859e+00	7.408345e-01	7.368119e-01
3.882812e+00	7.490186e-01	7.450531e-01
3.884766e+00	7.570899e-01	7.531821e-01
3.886719e+00	7.650471e-01	7.611976e-01
3.888672e+00	7.728892e-01	7.690985e-01
3.890625e+00	7.806148e-01	7.768836e-01
3.892578e+00	7.882229e-01	7.845517e-01
3.894531e+00	7.957123e-01	7.921016e-01
3.896484e+00	8.030819e-01	7.995323e-01
3.898438e+00	8.103305e-01	8.068425e-01
3.900391e+00	8.174571e-01	8.140312e-01
3.902344e+00	8.244606e-01	8.210974e-01
3.904297e+00	8.313399e-01	8.280398e-01
3.906250e+00	8.380940e-01	8.348576e-01
3.908203e+00	8.447219e-01	8.415497e-01
3.910156e+00	8.512226e-01	8.481150e-01
3.912109e+00	8.575952e-01	8.545526e-01
3.914062e+00	8.638385e-01	8.608615e-01
3.916016e+00	8.699518e-01	8.670408e-01
3.917969e+00	8.759341e-01	8.730895e-01
3.919922e+00	8.817844e-01	8.790067e-01
3.921875e+00	8.875020e-01	8.847915e-01
3.923828e+00	8.930859e-01	8.904431e-01
3.925781e+00	8.985353e-01	8.959606e-01
3.927734e+00	9.038494e-01	9.013432e-01
3.929688e+00	9.090274e-01	9.065900e-01
3.931641e+00	9.140685e-01	9.117003e-01
3.933594e+00	9.189719e-01	9.166733e-01
3.935547e+00	9.237370e-01	9.215083e-01
3.937500e+00	9.283629e-01	9.262044e-01
3.939453e+00	9.328491e-01	9.307611e-01
3.941406e+00	9.371947e-01	9.351776e-01
3.943359e+00	9.413992e-01	9.394533e-01
3.945312e+00	9.454620e-01	9.435875e-01
3.947266e+00	9.493823e-01	9.475796e-01
3.949219e+00	9.531597e-01	9.514291e-01
3.951172e+00	9.567936e-01	9.551352e-01
3.953125e+00	9.602834e-01	9.586975e-01
3.955078e+00	9.636285e-01	9.621154e-01
3.957031e+00	9.668286e-01	9.653884e-01
3.958984e+00	9.698830e-01	9.685160e-01
3.960938e+00	9.727914e-01	9.714978e-01
3.962891e+00	9.755533e-01	9.743333e-01
3.964844e+00	9.781684e-01	9.770220e-01
3.966797e+00	9.806361e-01	9.795636e-01
3.968750e+00	9.829562e-01	9.819577e-01
3.970703e+00	9.851284e-01	9.842039e-01
3.972656e+00	9.871523e-01	9.863019e-01
3.974609e+00	9.890277e-01	9.882514e-01
3.976562e+00	9.907543e-01	9.900520e-01
3.978516e+00	9.923321e-01	9.917035e-01
3.980469e+00	9.937608e-01	9.932057e-01
3.982422e+00	9.950407e-01	9.945583e-01
3.984375e+00	9.961717e-01	9.957612e-01
3.986328e+00	9.971542e-01	9.968140e-01
3.988281e+00	9.979888e-01	9.977168e-01
3.990234e+00	9.986764e-01	9.984693e-01
3.992188e+00	9.992188e-01	9.990715e-01
3.994141e+00	9.996181e-01	9.995231e-01
3.996094e+00	9.998780e-01	9.998243e-01
3.998047e+00	1.000004e+00	9.999749e-01
