Position [m]	T (fluid)  	T (solid)
0.000000e+00	9.994699e-01	9.998996e-01
3.906250e-03	9.988674e-01	9.992973e-01
7.812500e-03	9.976631e-01	9.980931e-01
1.171875e-02	9.958580e-01	9.962876e-01
1.562500e-02	9.934529e-01	9.938820e-01
1.953125e-02	9.904494e-01	9.908778e-01
2.343750e-02	9.868494e-01	9.872766e-01
2.734375e-02	9.826548e-01	9.830808e-01
3.125000e-02	9.778684e-01	9.782928e-01
3.515625e-02	9.724930e-01	9.729155e-01
3.906250e-02	9.665317e-01	9.669522e-01
4.296875e-02	9.599883e-01	9.604064e-01
4.687500e-02	9.528666e-01	9.532821e-01
5.078125e-02	9.451709e-01	9.455836e-01
5.468750e-02	9.369059e-01	9.373155e-01
5.859375e-02	9.280766e-01	9.284828e-01
6.250000e-02	9.186882e-01	9.190908e-01
6.640625e-02	9.087464e-01	9.091452e-01
7.031250e-02	8.982573e-01	8.986519e-01
7.421875e-02	8.872270e-01	8.876173e-01
7.812500e-02	8.756624e-01	8.760481e-01
8.203125e-02	8.635702e-01	8.639512e-01
8.593750e-02	8.509579e-01	8.513338e-01
8.984375e-02	8.378330e-01	8.382037e-01
9.375000e-02	8.242035e-01	8.245686e-01
9.765625e-02	8.100774e-01	8.104369e-01
1.015625e-01	7.954635e-01	7.958169e-01
1.054688e-01	7.803703e-01	7.807176e-01
1.093750e-01	7.648071e-01	7.651481e-01
1.132812e-01	7.487832e-01	7.491176e-01
1.171875e-01	7.323083e-01	7.326359e-01
1.210938e-01	7.153923e-01	7.157129e-01
1.250000e-01	6.980453e-01	6.983587e-01
1.289062e-01	6.802779e-01	6.805839e-01
1.328125e-01	6.621006e-01	6.623992e-01
1.367188e-01	6.435246e-01	6.438154e-01
1.406250e-01	6.245610e-01	6.248438e-01
1.445312e-01	6.052211e-01	6.054958e-01
1.484375e-01	5.855167e-01	5.857832e-01
1.523438e-01	5.654595e-01	5.657176e-01
1.562500e-01	5.450618e-01	5.453113e-01
1.601562e-01	5.243358e-01	5.245765e-01
1.640625e-01	5.032939e-01	5.035257e-01
1.679688e-01	4.819488e-01	4.821717e-01
1.718750e-01	4.603135e-01	4.605272e-01
1.757812e-01	4.384008e-01	4.386052e-01
1.796875e-01	4.162241e-01	4.164191e-01
1.835938e-01	3.937967e-01	3.939822e-01
1.875000e-01	3.711321e-01	3.713079e-01
1.914062e-01	3.482439e-01	3.484099e-01
1.953125e-01	3.251460e-01	3.253021e-01
1.992188e-01	3.018522e-01	3.019984e-01
2.031250e-01	2.783766e-01	2.785127e-01
2.070312e-01	2.547333e-01	2.548593e-01
2.109375e-01	2.309365e-01	2.310523e-01
2.148438e-01	2.070007e-01	2.071062e-01
2.187500e-01	1.829402e-01	1.830353e-01
2.226562e-01	1.587695e-01	1.588542e-01
2.265625e-01	1.345031e-01	1.345773e-01
2.304688e-01	1.101557e-01	1.102194e-01
2.343750e-01	8.574201e-02	8.579516e-02
2.382812e-01	6.127665e-02	6.131920e-02
2.421875e-01	3.677437e-02	3.680630e-02
2.460938e-01	1.224995e-02	1.227123e-02
2.500000e-01	-1.228185e-02	-1.227123e-02
2.539062e-01	-3.680625e-02	-3.680630e-02
2.578125e-01	-6.130847e-02	-6.131920e-02
2.617188e-01	-8.577376e-02	-8.579516e-02
2.656250e-01	-1.101874e-01	-1.102194e-01
2.695312e-01	-1.345346e-01	-1.345773e-01
2.734375e-01	-1.588008e-01	-1.588542e-01
2.773438e-01	-1.829714e-01	-1.830353e-01
2.812500e-01	-2.070317e-01	-2.071062e-01
2.851562e-01	-2.309673e-01	-2.310523e-01
2.890625e-01	-2.547638e-01	-2.548593e-01
2.929688e-01	-2.784068e-01	-2.785127e-01
2.968750e-01	-3.018822e-01	-3.019984e-01
3.007812e-01	-3.251756e-01	-3.253021e-01
3.046875e-01	-3.482732e-01	-3.484099e-01
3.085938e-01	-3.711610e-01	-3.713079e-01
3.125000e-01	-3.938253e-01	-3.939822e-01
3.164062e-01	-4.162523e-01	-4.164191e-01
3.203125e-01	-4.384286e-01	-4.386052e-01
3.242188e-01	-4.603407e-01	-4.605272e-01
3.281250e-01	-4.819756e-01	-4.821717e-01
3.320312e-01	-5.033202e-01	-5.035257e-01
3.359375e-01	-5.243615e-01	-5.245765e-01
3.398438e-01	-5.450870e-01	-5.453113e-01
3.437500e-01	-5.654842e-01	-5.657176e-01
3.476562e-01	-5.855407e-01	-5.857832e-01
3.515625e-01	-6.052446e-01	-6.054958e-01
3.554688e-01	-6.245838e-01	-6.248438e-01
3.593750e-01	-6.435468e-01	-6.438154e-01
3.632812e-01	-6.621222e-01	-6.623992e-01
3.671875e-01	-6.802987e-01	-6.805839e-01
3.710938e-01	-6.980655e-01	-6.983587e-01
3.750000e-01	-7.154117e-01	-7.157129e-01
3.789062e-01	-7.323270e-01	-7.326359e-01
3.828125e-01	-7.488012e-01	-7.491176e-01
3.867188e-01	-7.648243e-01	-7.651481e-01
3.906250e-01	-7.803868e-01	-7.807176e-01
3.945312e-01	-7.954791e-01	-7.958169e-01
3.984375e-01	-8.100923e-01	-8.104369e-01
4.023438e-01	-8.242175e-01	-8.245686e-01
4.062500e-01	-8.378462e-01	-8.382037e-01
4.101562e-01	-8.509703e-01	-8.513338e-01
4.140625e-01	-8.635817e-01	-8.639512e-01
4.179688e-01	-8.756729e-01	-8.760481e-01
4.218750e-01	-8.872367e-01	-8.876173e-01
4.257812e-01	-8.982661e-01	-8.986519e-01
4.296875e-01	-9.087543e-01	-9.091452e-01
4.335938e-01	-9.186952e-01	-9.190908e-01
4.375000e-01	-9.280826e-01	-9.284828e-01
4.414062e-01	-9.369110e-01	-9.373155e-01
4.453125e-01	-9.451751e-01	-9.455836e-01
4.492188e-01	-9.528698e-01	-9.532821e-01
4.531250e-01	-9.599905e-01	-9.604064e-01
4.570312e-01	-9.665330e-01	-9.669522e-01
4.609375e-01	-9.724933e-01	-9.729155e-01
4.648438e-01	-9.778677e-01	-9.782928e-01
4.687500e-01	-9.826532e-01	-9.830808e-01
4.726562e-01	-9.868467e-01	-9.872766e-01
4.765625e-01	-9.904458e-01	-9.908778e-01
4.804688e-01	-9.934482e-01	-9.938820e-01
4.843750e-01	-9.958523e-01	-9.962876e-01
4.882812e-01	-9.976565e-01	-9.980931e-01
4.921875e-01	-9.988597e-01	-9.992973e-01
4.960938e-01	-9.994613e-01	-9.998996e-01
5.000000e-01	-9.994608e-01	-9.998996e-01
5.039062e-01	-9.988583e-01	-9.992973e-01
5.078125e-01	-9.976541e-01	-9.980931e-01
5.117188e-01	-9.958489e-01	-9.962876e-01
5.156250e-01	-9.934439e-01	-9.938820e-01
5.195312e-01	-9.904405e-01	-9.908778e-01
5.234375e-01	-9.868404e-01	-9.872766e-01
5.273438e-01	-9.826459e-01	-9.830808e-01
5.312500e-01	-9.778596e-01	-9.782928e-01
5.351562e-01	-9.724841e-01	-9.729155e-01
5.390625e-01	-9.665229e-01	-9.669522e-01
5.429688e-01	-9.599795e-01	-9.604064e-01
5.468750e-01	-9.528579e-01	-9.532821e-01
5.507812e-01	-9.451622e-01	-9.455836e-01
5.546875e-01	-9.368973e-01	-9.373155e-01
5.585938e-01	-9.280680e-01	-9.284828e-01
5.625000e-01	-9.186796e-01	-9.190908e-01
5.664062e-01	-9.087379e-01	-9.091452e-01
5.703125e-01	-8.982488e-01	-8.986519e-01
5.742188e-01	-8.872186e-01	-8.876173e-01
5.781250e-01	-8.756539e-01	-8.760481e-01
5.820312e-01	-8.635619e-01	-8.639512e-01
5.859375e-01	-8.509496e-01	-8.513338e-01
5.898438e-01	-8.378247e-01	-8.382037e-01
5.937500e-01	-8.241952e-01	-8.245686e-01
5.976562e-01	-8.100692e-01	-8.104369e-01
6.015625e-01	-7.954553e-01	-7.958169e-01
6.054688e-01	-7.803622e-01	-7.807176e-01
6.093750e-01	-7.647990e-01	-7.651481e-01
6.132812e-01	-7.487752e-01	-7.491176e-01
6.171875e-01	-7.323003e-01	-7.326359e-01
6.210938e-01	-7.153843e-01	-7.157129e-01
6.250000e-01	-6.980374e-01	-6.983587e-01
6.289062e-01	-6.802700e-01	-6.805839e-01
6.328125e-01	-6.620928e-01	-6.623992e-01
6.367188e-01	-6.435168e-01	-6.438154e-01
6.406250e-01	-6.245532e-01	-6.248438e-01
6.445312e-01	-6.052134e-01	-6.054958e-01
6.484375e-01	-5.855090e-01	-5.857832e-01
6.523438e-01	-5.654519e-01	-5.657176e-01
6.562500e-01	-5.450542e-01	-5.453113e-01
6.601562e-01	-5.243282e-01	-5.245765e-01
6.640625e-01	-5.032864e-01	-5.035257e-01
6.679688e-01	-4.819414e-01	-4.821717e-01
6.718750e-01	-4.603061e-01	-4.605272e-01
6.757812e-01	-4.383935e-01	-4.386052e-01
6.796875e-01	-4.162168e-01	-4.164191e-01
6.835938e-01	-3.937895e-01	-3.939822e-01
6.875000e-01	-3.711249e-01	-3.713079e-01
6.914062e-01	-3.482368e-01	-3.484099e-01
6.953125e-01	-3.251389e-01	-3.253021e-01
6.992188e-01	-3.018451e-01	-3.019984e-01
7.031250e-01	-2.783696e-01	-2.785127e-01
7.070312e-01	-2.547263e-01	-2.548593e-01
7.109375e-01	-2.309296e-01	-2.310523e-01
7.148438e-01	-2.069938e-01	-2.071062e-01
7.187500e-01	-1.829334e-01	-1.830353e-01
7.226562e-01	-1.587627e-01	-1.588542e-01
7.265625e-01	-1.344964e-01	-1.345773e-01
7.304688e-01	-1.101490e-01	-1.102194e-01
7.343750e-01	-8.573537e-02	-8.579516e-02
7.382812e-01	-6.127006e-02	-6.131920e-02
7.421875e-01	-3.676783e-02	-3.680630e-02
7.460938e-01	-1.224345e-02	-1.227123e-02
7.500000e-01	1.228830e-02	1.227123e-02
7.539062e-01	3.681265e-02	3.680630e-02
7.578125e-01	6.131482e-02	6.131920e-02
7.617188e-01	8.578007e-02	8.579516e-02
7.656250e-01	1.101936e-01	1.102194e-01
7.695312e-01	1.345408e-01	1.345773e-01
7.734375e-01	1.588070e-01	1.588542e-01
7.773438e-01	1.829775e-01	1.830353e-01
7.812500e-01	2.070378e-01	2.071062e-01
7.851562e-01	2.309734e-01	2.310523e-01
7.890625e-01	2.547698e-01	2.548593e-01
7.929688e-01	2.784128e-01	2.785127e-01
7.968750e-01	3.018880e-01	3.019984e-01
8.007812e-01	3.251815e-01	3.253021e-01
8.046875e-01	3.482790e-01	3.484099e-01
8.085938e-01	3.711668e-01	3.713079e-01
8.125000e-01	3.938310e-01	3.939822e-01
8.164062e-01	4.162579e-01	4.164191e-01
8.203125e-01	4.384342e-01	4.386052e-01
8.242188e-01	4.603463e-01	4.605272e-01
8.281250e-01	4.819811e-01	4.821717e-01
8.320312e-01	5.033256e-01	5.035257e-01
8.359375e-01	5.243669e-01	5.245765e-01
8.398438e-01	5.450924e-01	5.453113e-01
8.437500e-01	5.654895e-01	5.657176e-01
8.476562e-01	5.855460e-01	5.857832e-01
8.515625e-01	6.052498e-01	6.054958e-01
8.554688e-01	6.245890e-01	6.248438e-01
8.593750e-01	6.435520e-01	6.438154e-01
8.632812e-01	6.621273e-01	6.623992e-01
8.671875e-01	6.803038e-01	6.805839e-01
8.710938e-01	6.980705e-01	6.983587e-01
8.750000e-01	7.154167e-01	7.157129e-01
8.789062e-01	7.323320e-01	7.326359e-01
8.828125e-01	7.488061e-01	7.491176e-01
8.867188e-01	7.648292e-01	7.651481e-01
8.906250e-01	7.803915e-01	7.807176e-01
8.945312e-01	7.954839e-01	7.958169e-01
8.984375e-01	8.100970e-01	8.104369e-01
9.023438e-01	8.242221e-01	8.245686e-01
9.062500e-01	8.378508e-01	8.382037e-01
9.101562e-01	8.509748e-01	8.513338e-01
9.140625e-01	8.635862e-01	8.639512e-01
9.179688e-01	8.756774e-01	8.760481e-01
9.218750e-01	8.872412e-01	8.876173e-01
9.257812e-01	8.982704e-01	8.986519e-01
9.296875e-01	9.087586e-01	9.091452e-01
9.335938e-01	9.186995e-01	9.190908e-01
9.375000e-01	9.280869e-01	9.284828e-01
9.414062e-01	9.369152e-01	9.373155e-01
9.453125e-01	9.451792e-01	9.455836e-01
9.492188e-01	9.528739e-01	9.532821e-01
9.531250e-01	9.599946e-01	9.604064e-01
9.570312e-01	9.665370e-01	9.669522e-01
9.609375e-01	9.724973e-01	9.729155e-01
9.648438e-01	9.778717e-01	9.782928e-01
9.687500e-01	9.826571e-01	9.830808e-01
9.726562e-01	9.868506e-01	9.872766e-01
9.765625e-01	9.904496e-01	9.908778e-01
9.804688e-01	9.934520e-01	9.938820e-01
9.843750e-01	9.958561e-01	9.962876e-01
9.882812e-01	9.976602e-01	9.980931e-01
9.921875e-01	9.988634e-01	9.992973e-01
9.960938e-01	9.994649e-01	9.998996e-01
1.000000e+00	9.994644e-01	9.998996e-01
1.003906e+00	9.988618e-01	9.992973e-01
1.007812e+00	9.976576e-01	9.980931e-01
1.011719e+00	9.958524e-01	9.962876e-01
1.015625e+00	9.934473e-01	9.938820e-01
1.019531e+00	9.904439e-01	9.908778e-01
1.023438e+00	9.868438e-01	9.872766e-01
1.027344e+00	9.826493e-01	9.830808e-01
1.031250e+00	9.778629e-01	9.782928e-01
1.035156e+00	9.724874e-01	9.729155e-01
1.039062e+00	9.665262e-01	9.669522e-01
1.042969e+00	9.599827e-01	9.604064e-01
1.046875e+00	9.528610e-01	9.532821e-01
1.050781e+00	9.451654e-01	9.455836e-01
1.054688e+00	9.369004e-01	9.373155e-01
1.058594e+00	9.280710e-01	9.284828e-01
1.062500e+00	9.186826e-01	9.190908e-01
1.066406e+00	9.087409e-01	9.091452e-01
1.070312e+00	8.982517e-01	8.986519e-01
1.074219e+00	8.872215e-01	8.876173e-01
1.078125e+00	8.756568e-01	8.760481e-01
1.082031e+00	8.635647e-01	8.639512e-01
1.085938e+00	8.509524e-01	8.513338e-01
1.089844e+00	8.378275e-01	8.382037e-01
1.093750e+00	8.241980e-01	8.245686e-01
1.097656e+00	8.100719e-01	8.104369e-01
1.101562e+00	7.954580e-01	7.958169e-01
1.105469e+00	7.803648e-01	7.807176e-01
1.109375e+00	7.648016e-01	7.651481e-01
1.113281e+00	7.487778e-01	7.491176e-01
1.117188e+00	7.323028e-01	7.326359e-01
1.121094e+00	7.153868e-01	7.157129e-01
1.125000e+00	6.980399e-01	6.983587e-01
1.128906e+00	6.802724e-01	6.805839e-01
1.132812e+00	6.620952e-01	6.623992e-01
1.136719e+00	6.435192e-01	6.438154e-01
1.140625e+00	6.245556e-01	6.248438e-01
1.144531e+00	6.052157e-01	6.054958e-01
1.148438e+00	5.855113e-01	5.857832e-01
1.152344e+00	5.654542e-01	5.657176e-01
1.156250e+00	5.450565e-01	5.453113e-01
1.160156e+00	5.243305e-01	5.245765e-01
1.164062e+00	5.032886e-01	5.035257e-01
1.167969e+00	4.819435e-01	4.821717e-01
1.171875e+00	4.603082e-01	4.605272e-01
1.175781e+00	4.383956e-01	4.386052e-01
1.179688e+00	4.162189e-01	4.164191e-01
1.183594e+00	3.937915e-01	3.939822e-01
1.187500e+00	3.711269e-01	3.713079e-01
1.191406e+00	3.482388e-01	3.484099e-01
1.195312e+00	3.251408e-01	3.253021e-01
1.199219e+00	3.018471e-01	3.019984e-01
1.203125e+00	2.783715e-01	2.785127e-01
1.207031e+00	2.547282e-01	2.548593e-01
1.210938e+00	2.309315e-01	2.310523e-01
1.214844e+00	2.069957e-01	2.071062e-01
1.218750e+00	1.829352e-01	1.830353e-01
1.222656e+00	1.587645e-01	1.588542e-01
1.226562e+00	1.344981e-01	1.345773e-01
1.230469e+00	1.101508e-01	1.102194e-01
1.234375e+00	8.573709e-02	8.579516e-02
1.238281e+00	6.127174e-02	6.131920e-02
1.242188e+00	3.676949e-02	3.680630e-02
1.246094e+00	1.224510e-02	1.227123e-02
1.250000e+00	-1.228668e-02	-1.227123e-02
1.253906e+00	-3.681105e-02	-3.680630e-02
1.257812e+00	-6.131325e-02	-6.131920e-02
1.261719e+00	-8.577852e-02	-8.579516e-02
1.265625e+00	-1.101921e-01	-1.102194e-01
1.269531e+00	-1.345393e-01	-1.345773e-01
1.273438e+00	-1.588055e-01	-1.588542e-01
1.277344e+00	-1.829760e-01	-1.830353e-01
1.281250e+00	-2.070363e-01	-2.071062e-01
1.285156e+00	-2.309719e-01	-2.310523e-01
1.289062e+00	-2.547684e-01	-2.548593e-01
1.292969e+00	-2.784114e-01	-2.785127e-01
1.296875e+00	-3.018867e-01	-3.019984e-01
1.300781e+00	-3.251801e-01	-3.253021e-01
1.304688e+00	-3.482777e-01	-3.484099e-01
1.308594e+00	-3.711655e-01	-3.713079e-01
1.312500e+00	-3.938297e-01	-3.939822e-01
1.316406e+00	-4.162567e-01	-4.164191e-01
1.320312e+00	-4.384329e-01	-4.386052e-01
1.324219e+00	-4.603451e-01	-4.605272e-01
1.328125e+00	-4.819799e-01	-4.821717e-01
1.332031e+00	-5.033244e-01	-5.035257e-01
1.335938e+00	-5.243658e-01	-5.245765e-01
1.339844e+00	-5.450913e-01	-5.453113e-01
1.343750e+00	-5.654884e-01	-5.657176e-01
1.347656e+00	-5.855449e-01	-5.857832e-01
1.351562e+00	-6.052487e-01	-6.054958e-01
1.355469e+00	-6.245879e-01	-6.248438e-01
1.359375e+00	-6.435509e-01	-6.438154e-01
1.363281e+00	-6.621263e-01	-6.623992e-01
1.367188e+00	-6.803028e-01	-6.805839e-01
1.371094e+00	-6.980695e-01	-6.983587e-01
1.375000e+00	-7.154157e-01	-7.157129e-01
1.378906e+00	-7.323310e-01	-7.326359e-01
1.382812e+00	-7.488051e-01	-7.491176e-01
1.386719e+00	-7.648282e-01	-7.651481e-01
1.390625e+00	-7.803906e-01	-7.807176e-01
1.394531e+00	-7.954829e-01	-7.958169e-01
1.398438e+00	-8.100961e-01	-8.104369e-01
1.402344e+00	-8.242212e-01	-8.245686e-01
1.406250e+00	-8.378499e-01	-8.382037e-01
1.410156e+00	-8.509740e-01	-8.513338e-01
1.414062e+00	-8.635854e-01	-8.639512e-01
1.417969e+00	-8.756766e-01	-8.760481e-01
1.421875e+00	-8.872403e-01	-8.876173e-01
1.425781e+00	-8.982696e-01	-8.986519e-01
1.429688e+00	-9.087579e-01	-9.091452e-01
1.433594e+00	-9.186987e-01	-9.190908e-01
1.437500e+00	-9.280861e-01	-9.284828e-01
1.441406e+00	-9.369145e-01	-9.373155e-01
1.445312e+00	-9.451785e-01	-9.455836e-01
1.449219e+00	-9.528732e-01	-9.532821e-01
1.453125e+00	-9.599939e-01	-9.604064e-01
1.457031e+00	-9.665363e-01	-9.669522e-01
1.460938e+00	-9.724966e-01	-9.729155e-01
1.464844e+00	-9.778710e-01	-9.782928e-01
1.468750e+00	-9.826564e-01	-9.830808e-01
1.472656e+00	-9.868499e-01	-9.872766e-01
1.476562e+00	-9.904490e-01	-9.908778e-01
1.480469e+00	-9.934514e-01	-9.938820e-01
1.484375e+00	-9.958554e-01	-9.962876e-01
1.488281e+00	-9.976596e-01	-9.980931e-01
1.492188e+00	-9.988628e-01	-9.992973e-01
1.496094e+00	-9.994643e-01	-9.998996e-01
1.500000e+00	-9.994638e-01	-9.998996e-01
1.503906e+00	-9.988612e-01	-9.992973e-01
1.507812e+00	-9.976570e-01	-9.980931e-01
1.511719e+00	-9.958518e-01	-9.962876e-01
1.515625e+00	-9.934468e-01	-9.938820e-01
1.519531e+00	-9.904433e-01	-9.908778e-01
1.523438e+00	-9.868433e-01	-9.872766e-01
1.527344e+00	-9.826488e-01	-9.830808e-01
1.531250e+00	-9.778623e-01	-9.782928e-01
1.535156e+00	-9.724869e-01	-9.729155e-01
1.539062e+00	-9.665257e-01	-9.669522e-01
1.542969e+00	-9.599822e-01	-9.604064e-01
1.546875e+00	-9.528605e-01	-9.532821e-01
1.550781e+00	-9.451649e-01	-9.455836e-01
1.554688e+00	-9.368999e-01	-9.373155e-01
1.558594e+00	-9.280706e-01	-9.284828e-01
1.562500e+00	-9.186822e-01	-9.190908e-01
1.566406e+00	-9.087404e-01	-9.091452e-01
1.570312e+00	-8.982513e-01	-8.986519e-01
1.574219e+00	-8.872211e-01	-8.876173e-01
1.578125e+00	-8.756564e-01	-8.760481e-01
1.582031e+00	-8.635643e-01	-8.639512e-01
1.585938e+00	-8.509520e-01	-8.513338e-01
1.589844e+00	-8.378271e-01	-8.382037e-01
1.593750e+00	-8.241976e-01	-8.245686e-01
1.597656e+00	-8.100716e-01	-8.104369e-01
1.601562e+00	-7.954576e-01	-7.958169e-01
1.605469e+00	-7.803645e-01	-7.807176e-01
1.609375e+00	-7.648013e-01	-7.651481e-01
1.613281e+00	-7.487774e-01	-7.491176e-01
1.617188e+00	-7.323025e-01	-7.326359e-01
1.621094e+00	-7.153865e-01	-7.157129e-01
1.625000e+00	-6.980395e-01	-6.983587e-01
1.628906e+00	-6.802721e-01	-6.805839e-01
1.632812e+00	-6.620949e-01	-6.623992e-01
1.636719e+00	-6.435189e-01	-6.438154e-01
1.640625e+00	-6.245553e-01	-6.248438e-01
1.644531e+00	-6.052154e-01	-6.054958e-01
1.648438e+00	-5.855110e-01	-5.857832e-01
1.652344e+00	-5.654539e-01	-5.657176e-01
1.656250e+00	-5.450562e-01	-5.453113e-01
1.660156e+00	-5.243302e-01	-5.245765e-01
1.664062e+00	-5.032883e-01	-5.035257e-01
1.667969e+00	-4.819433e-01	-4.821717e-01
1.671875e+00	-4.603080e-01	-4.605272e-01
1.675781e+00	-4.383953e-01	-4.386052e-01
1.679688e+00	-4.162187e-01	-4.164191e-01
1.683594e+00	-3.937913e-01	-3.939822e-01
1.687500e+00	-3.711267e-01	-3.713079e-01
1.691406e+00	-3.482385e-01	-3.484099e-01
1.695312e+00	-3.251406e-01	-3.253021e-01
1.699219e+00	-3.018468e-01	-3.019984e-01
1.703125e+00	-2.783713e-01	-2.785127e-01
1.707031e+00	-2.547280e-01	-2.548593e-01
1.710938e+00	-2.309313e-01	-2.310523e-01
1.714844e+00	-2.069955e-01	-2.071062e-01
1.718750e+00	-1.829350e-01	-1.830353e-01
1.722656e+00	-1.587643e-01	-1.588542e-01
1.726562e+00	-1.344979e-01	-1.345773e-01
1.730469e+00	-1.101506e-01	-1.102194e-01
1.734375e+00	-8.573690e-02	-8.579516e-02
1.738281e+00	-6.127156e-02	-6.131920e-02
1.742188e+00	-3.676931e-02	-3.680630e-02
1.746094e+00	-1.224492e-02	-1.227123e-02
1.750000e+00	1.228685e-02	1.227123e-02
1.753906e+00	3.681122e-02	3.680630e-02
1.757812e+00	6.131342e-02	6.131920e-02
1.761719e+00	8.577868e-02	8.579516e-02
1.765625e+00	1.101923e-01	1.102194e-01
1.769531e+00	1.345395e-01	1.345773e-01
1.773438e+00	1.588057e-01	1.588542e-01
1.777344e+00	1.829762e-01	1.830353e-01
1.781250e+00	2.070365e-01	2.071062e-01
1.785156e+00	2.309721e-01	2.310523e-01
1.789062e+00	2.547685e-01	2.548593e-01
1.792969e+00	2.784115e-01	2.785127e-01
1.796875e+00	3.018868e-01	3.019984e-01
1.800781e+00	3.251803e-01	3.253021e-01
1.804688e+00	3.482778e-01	3.484099e-01
1.808594e+00	3.711656e-01	3.713079e-01
1.812500e+00	3.938298e-01	3.939822e-01
1.816406e+00	4.162568e-01	4.164191e-01
1.820312e+00	4.384330e-01	4.386052e-01
1.824219e+00	4.603452e-01	4.605272e-01
1.828125e+00	4.819800e-01	4.821717e-01
1.832031e+00	5.033245e-01	5.035257e-01
1.835938e+00	5.243659e-01	5.245765e-01
1.839844e+00	5.450914e-01	5.453113e-01
1.843750e+00	5.654885e-01	5.657176e-01
1.847656e+00	5.855450e-01	5.857832e-01
1.851562e+00	6.052488e-01	6.054958e-01
1.855469e+00	6.245880e-01	6.248438e-01
1.859375e+00	6.435510e-01	6.438154e-01
1.863281e+00	6.621263e-01	6.623992e-01
1.867188e+00	6.803028e-01	6.805839e-01
1.871094e+00	6.980696e-01	6.983587e-01
1.875000e+00	7.154158e-01	7.157129e-01
1.878906e+00	7.323310e-01	7.326359e-01
1.882812e+00	7.488052e-01	7.491176e-01
1.886719e+00	7.648283e-01	7.651481e-01
1.890625e+00	7.803907e-01	7.807176e-01
1.894531e+00	7.954830e-01	7.958169e-01
1.898438e+00	8.100961e-01	8.104369e-01
1.902344e+00	8.242213e-01	8.245686e-01
1.906250e+00	8.378500e-01	8.382037e-01
1.910156e+00	8.509740e-01	8.513338e-01
1.914062e+00	8.635854e-01	8.639512e-01
1.917969e+00	8.756766e-01	8.760481e-01
1.921875e+00	8.872404e-01	8.876173e-01
1.925781e+00	8.982697e-01	8.986519e-01
1.929688e+00	9.087579e-01	9.091452e-01
1.933594e+00	9.186987e-01	9.190908e-01
1.937500e+00	9.280862e-01	9.284828e-01
1.941406e+00	9.369145e-01	9.373155e-01
1.945312e+00	9.451786e-01	9.455836e-01
1.949219e+00	9.528732e-01	9.532821e-01
1.953125e+00	9.599939e-01	9.604064e-01
1.957031e+00	9.665364e-01	9.669522e-01
1.960938e+00	9.724966e-01	9.729155e-01
1.964844e+00	9.778711e-01	9.782928e-01
1.968750e+00	9.826565e-01	9.830808e-01
1.972656e+00	9.868500e-01	9.872766e-01
1.976562e+00	9.904490e-01	9.908778e-01
1.980469e+00	9.934514e-01	9.938820e-01
1.984375e+00	9.958555e-01	9.962876e-01
1.988281e+00	9.976596e-01	9.980931e-01
1.992188e+00	9.988628e-01	9.992973e-01
1.996094e+00	9.994644e-01	9.998996e-01
2.000000e+00	9.994638e-01	9.998996e-01
2.003906e+00	9.988613e-01	9.992973e-01
2.007812e+00	9.976571e-01	9.980931e-01
2.011719e+00	9.958519e-01	9.962876e-01
2.015625e+00	9.934468e-01	9.938820e-01
2.019531e+00	9.904434e-01	9.908778e-01
2.023438e+00	9.868433e-01	9.872766e-01
2.027344e+00	9.826488e-01	9.830808e-01
2.031250e+00	9.778624e-01	9.782928e-01
2.035156e+00	9.724869e-01	9.729155e-01
2.039062e+00	9.665257e-01	9.669522e-01
2.042969e+00	9.599823e-01	9.604064e-01
2.046875e+00	9.528606e-01	9.532821e-01
2.050781e+00	9.451649e-01	9.455836e-01
2.054688e+00	9.368999e-01	9.373155e-01
2.058594e+00	9.280706e-01	9.284828e-01
2.062500e+00	9.186822e-01	9.190908e-01
2.066406e+00	9.087405e-01	9.091452e-01
2.070312e+00	8.982513e-01	8.986519e-01
2.074219e+00	8.872211e-01	8.876173e-01
2.078125e+00	8.756564e-01	8.760481e-01
2.082031e+00	8.635643e-01	8.639512e-01
2.085938e+00	8.509520e-01	8.513338e-01
2.089844e+00	8.378272e-01	8.382037e-01
2.093750e+00	8.241976e-01	8.245686e-01
2.097656e+00	8.100716e-01	8.104369e-01
2.101562e+00	7.954576e-01	7.958169e-01
2.105469e+00	7.803645e-01	7.807176e-01
2.109375e+00	7.648013e-01	7.651481e-01
2.113281e+00	7.487774e-01	7.491176e-01
2.117188e+00	7.323025e-01	7.326359e-01
2.121094e+00	7.153865e-01	7.157129e-01
2.125000e+00	6.980395e-01	6.983587e-01
2.128906e+00	6.802721e-01	6.805839e-01
2.132812e+00	6.620949e-01	6.623992e-01
2.136719e+00	6.435189e-01	6.438154e-01
2.140625e+00	6.245553e-01	6.248438e-01
2.144531e+00	6.052154e-01	6.054958e-01
2.148438e+00	5.855110e-01	5.857832e-01
2.152344e+00	5.654539e-01	5.657176e-01
2.156250e+00	5.450562e-01	5.453113e-01
2.160156e+00	5.243302e-01	5.245765e-01
2.164062e+00	5.032883e-01	5.035257e-01
2.167969e+00	4.819433e-01	4.821717e-01
2.171875e+00	4.603080e-01	4.605272e-01
2.175781e+00	4.383954e-01	4.386052e-01
2.179688e+00	4.162187e-01	4.164191e-01
2.183594e+00	3.937913e-01	3.939822e-01
2.187500e+00	3.711267e-01	3.713079e-01
2.191406e+00	3.482385e-01	3.484099e-01
2.195312e+00	3.251406e-01	3.253021e-01
2.199219e+00	3.018469e-01	3.019984e-01
2.203125e+00	2.783713e-01	2.785127e-01
2.207031e+00	2.547280e-01	2.548593e-01
2.210938e+00	2.309313e-01	2.310523e-01
2.214844e+00	2.069955e-01	2.071062e-01
2.218750e+00	1.829350e-01	1.830353e-01
2.222656e+00	1.587643e-01	1.588542e-01
2.226562e+00	1.344979e-01	1.345773e-01
2.230469e+00	1.101506e-01	1.102194e-01
2.234375e+00	8.573691e-02	8.579516e-02
2.238281e+00	6.127157e-02	6.131920e-02
2.242188e+00	3.676933e-02	3.680630e-02
2.246094e+00	1.224493e-02	1.227123e-02
2.250000e+00	-1.228684e-02	-1.227123e-02
2.253906e+00	-3.681121e-02	-3.680630e-02
2.257812e+00	-6.131341e-02	-6.131920e-02
2.261719e+00	-8.577867e-02	-8.579516e-02
2.265625e+00	-1.101923e-01	-1.102194e-01
2.269531e+00	-1.345395e-01	-1.345773e-01
2.273438e+00	-1.588057e-01	-1.588542e-01
2.277344e+00	-1.829762e-01	-1.830353e-01
2.281250e+00	-2.070365e-01	-2.071062e-01
2.285156e+00	-2.309721e-01	-2.310523e-01
2.289062e+00	-2.547685e-01	-2.548593e-01
2.292969e+00	-2.784115e-01	-2.785127e-01
2.296875e+00	-3.018868e-01	-3.019984e-01
2.300781e+00	-3.251803e-01	-3.253021e-01
2.304688e+00	-3.482778e-01	-3.484099e-01
2.308594e+00	-3.711656e-01	-3.713079e-01
2.312500e+00	-3.938298e-01	-3.939822e-01
2.316406e+00	-4.162568e-01	-4.164191e-01
2.320312e+00	-4.384330e-01	-4.386052e-01
2.324219e+00	-4.603452e-01	-4.605272e-01
2.328125e+00	-4.819800e-01	-4.821717e-01
2.332031e+00	-5.033245e-01	-5.035257e-01
2.335938e+00	-5.243659e-01	-5.245765e-01
2.339844e+00	-5.450914e-01	-5.453113e-01
2.343750e+00	-5.654885e-01	-5.657176e-01
2.347656e+00	-5.855450e-01	-5.857832e-01
2.351562e+00	-6.052488e-01	-6.054958e-01
2.355469e+00	-6.245880e-01	-6.248438e-01
2.359375e+00	-6.435510e-01	-6.438154e-01
2.363281e+00	-6.621263e-01	-6.623992e-01
2.367188e+00	-6.803028e-01	-6.805839e-01
2.371094e+00	-6.980695e-01	-6.983587e-01
2.375000e+00	-7.154158e-01	-7.157129e-01
2.378906e+00	-7.323310e-01	-7.326359e-01
2.382812e+00	-7.488052e-01	-7.491176e-01
2.386719e+00	-7.648283e-01	-7.651481e-01
2.390625e+00	-7.803907e-01	-7.807176e-01
2.394531e+00	-7.954830e-01	-7.958169e-01
2.398438e+00	-8.100961e-01	-8.104369e-01
2.402344e+00	-8.242213e-01	-8.245686e-01
2.406250e+00	-8.378500e-01	-8.382037e-01
2.410156e+00	-8.509740e-01	-8.513338e-01
2.414062e+00	-8.635854e-01	-8.639512e-01
2.417969e+00	-8.756766e-01	-8.760481e-01
2.421875e+00	-8.872404e-01	-8.876173e-01
2.425781e+00	-8.982697e-01	-8.986519e-01
2.429688e+00	-9.087579e-01	-9.091452e-01
2.433594e+00	-9.186987e-01	-9.190908e-01
2.437500e+00	-9.280861e-01	-9.284828e-01
2.441406e+00	-9.369145e-01	-9.373155e-01
2.445312e+00	-9.451785e-01	-9.455836e-01
2.449219e+00	-9.528732e-01	-9.532821e-01
2.453125e+00	-9.599939e-01	-9.604064e-01
2.457031e+00	-9.665364e-01	-9.669522e-01
2.460938e+00	-9.724966e-01	-9.729155e-01
2.464844e+00	-9.778710e-01	-9.782928e-01
2.468750e+00	-9.826564e-01	-9.830808e-01
2.472656e+00	-9.868499e-01	-9.872766e-01
2.476562e+00	-9.904490e-01	-9.908778e-01
2.480469e+00	-9.934514e-01	-9.938820e-01
2.484375e+00	-9.958554e-01	-9.962876e-01
2.488281e+00	-9.976596e-01	-9.980931e-01
2.492188e+00	-9.988628e-01	-9.992973e-01
2.496094e+00	-9.994643e-01	-9.998996e-01
2.500000e+00	-9.994638e-01	-9.998996e-01
2.503906e+00	-9.988613e-01	-9.992973e-01
2.507812e+00	-9.976570e-01	-9.980931e-01
2.511719e+00	-9.958518e-01	-9.962876e-01
2.515625e+00	-9.934468e-01	-9.938820e-01
2.519531e+00	-9.904433e-01	-9.908778e-01
2.523438e+00	-9.868433e-01	-9.872766e-01
2.527344e+00	-9.826488e-01	-9.830808e-01
2.531250e+00	-9.778623e-01	-9.782928e-01
2.535156e+00	-9.724869e-01	-9.729155e-01
2.539062e+00	-9.665257e-01	-9.669522e-01
2.542969e+00	-9.599822e-01	-9.604064e-01
2.546875e+00	-9.528605e-01	-9.532821e-01
2.550781e+00	-9.451649e-01	-9.455836e-01
2.554688e+00	-9.368999e-01	-9.373155e-01
2.558594e+00	-9.280706e-01	-9.284828e-01
2.562500e+00	-9.186822e-01	-9.190908e-01
2.566406e+00	-9.087404e-01	-9.091452e-01
2.570312e+00	-8.982513e-01	-8.986519e-01
2.574219e+00	-8.872210e-01	-8.876173e-01
2.578125e+00	-8.756564e-01	-8.760481e-01
2.582031e+00	-8.635643e-01	-8.639512e-01
2.585938e+00	-8.509520e-01	-8.513338e-01
2.589844e+00	-8.378271e-01	-8.382037e-01
2.593750e+00	-8.241976e-01	-8.245686e-01
2.597656e+00	-8.100715e-01	-8.104369e-01
2.601562e+00	-7.954576e-01	-7.958169e-01
2.605469e+00	-7.803644e-01	-7.807176e-01
2.609375e+00	-7.648013e-01	-7.651481e-01
2.613281e+00	-7.487774e-01	-7.491176e-01
2.617188e+00	-7.323025e-01	-7.326359e-01
2.621094e+00	-7.153864e-01	-7.157129e-01
2.625000e+00	-6.980395e-01	-6.983587e-01
2.628906e+00	-6.802721e-01	-6.805839e-01
2.632812e+00	-6.620949e-01	-6.623992e-01
2.636719e+00	-6.435189e-01	-6.438154e-01
2.640625e+00	-6.245552e-01	-6.248438e-01
2.644531e+00	-6.052154e-01	-6.054958e-01
2.648438e+00	-5.855110e-01	-5.857832e-01
2.652344e+00	-5.654539e-01	-5.657176e-01
2.656250e+00	-5.450562e-01	-5.453113e-01
2.660156e+00	-5.243301e-01	-5.245765e-01
2.664062e+00	-5.032883e-01	-5.035257e-01
2.667969e+00	-4.819432e-01	-4.821717e-01
2.671875e+00	-4.603079e-01	-4.605272e-01
2.675781e+00	-4.383953e-01	-4.386052e-01
2.679688e+00	-4.162186e-01	-4.164191e-01
2.683594e+00	-3.937912e-01	-3.939822e-01
2.687500e+00	-3.711266e-01	-3.713079e-01
2.691406e+00	-3.482384e-01	-3.484099e-01
2.695312e+00	-3.251405e-01	-3.253021e-01
2.699219e+00	-3.018468e-01	-3.019984e-01
2.703125e+00	-2.783712e-01	-2.785127e-01
2.707031e+00	-2.547279e-01	-2.548593e-01
2.710938e+00	-2.309312e-01	-2.310523e-01
2.714844e+00	-2.069954e-01	-2.071062e-01
2.718750e+00	-1.829349e-01	-1.830353e-01
2.722656e+00	-1.587642e-01	-1.588542e-01
2.726562e+00	-1.344978e-01	-1.345773e-01
2.730469e+00	-1.101505e-01	-1.102194e-01
2.734375e+00	-8.573679e-02	-8.579516e-02
2.738281e+00	-6.127145e-02	-6.131920e-02
2.742188e+00	-3.676920e-02	-3.680630e-02
2.746094e+00	-1.224480e-02	-1.227123e-02
2.750000e+00	1.228697e-02	1.227123e-02
2.753906e+00	3.681135e-02	3.680630e-02
2.757812e+00	6.131355e-02	6.131920e-02
2.761719e+00	8.577881e-02	8.579516e-02
2.765625e+00	1.101924e-01	1.102194e-01
2.769531e+00	1.345396e-01	1.345773e-01
2.773438e+00	1.588058e-01	1.588542e-01
2.777344e+00	1.829763e-01	1.830353e-01
2.781250e+00	2.070366e-01	2.071062e-01
2.785156e+00	2.309722e-01	2.310523e-01
2.789062e+00	2.547687e-01	2.548593e-01
2.792969e+00	2.784117e-01	2.785127e-01
2.796875e+00	3.018870e-01	3.019984e-01
2.800781e+00	3.251804e-01	3.253021e-01
2.804688e+00	3.482780e-01	3.484099e-01
2.808594e+00	3.711658e-01	3.713079e-01
2.812500e+00	3.938300e-01	3.939822e-01
2.816406e+00	4.162570e-01	4.164191e-01
2.820312e+00	4.384332e-01	4.386052e-01
2.824219e+00	4.603454e-01	4.605272e-01
2.828125e+00	4.819802e-01	4.821717e-01
2.832031e+00	5.033248e-01	5.035257e-01
2.835938e+00	5.243661e-01	5.245765e-01
2.839844e+00	5.450916e-01	5.453113e-01
2.843750e+00	5.654887e-01	5.657176e-01
2.847656e+00	5.855452e-01	5.857832e-01
2.851562e+00	6.052490e-01	6.054958e-01
2.855469e+00	6.245883e-01	6.248438e-01
2.859375e+00	6.435513e-01	6.438154e-01
2.863281e+00	6.621266e-01	6.623992e-01
2.867188e+00	6.803031e-01	6.805839e-01
2.871094e+00	6.980698e-01	6.983587e-01
2.875000e+00	7.154161e-01	7.157129e-01
2.878906e+00	7.323313e-01	7.326359e-01
2.882812e+00	7.488055e-01	7.491176e-01
2.886719e+00	7.648286e-01	7.651481e-01
2.890625e+00	7.803910e-01	7.807176e-01
2.894531e+00	7.954833e-01	7.958169e-01
2.898438e+00	8.100965e-01	8.104369e-01
2.902344e+00	8.242217e-01	8.245686e-01
2.906250e+00	8.378504e-01	8.382037e-01
2.910156e+00	8.509744e-01	8.513338e-01
2.914062e+00	8.635858e-01	8.639512e-01
2.917969e+00	8.756770e-01	8.760481e-01
2.921875e+00	8.872408e-01	8.876173e-01
2.925781e+00	8.982701e-01	8.986519e-01
2.929688e+00	9.087583e-01	9.091452e-01
2.933594e+00	9.186991e-01	9.190908e-01
2.937500e+00	9.280866e-01	9.284828e-01
2.941406e+00	9.369150e-01	9.373155e-01
2.945312e+00	9.451790e-01	9.455836e-01
2.949219e+00	9.528737e-01	9.532821e-01
2.953125e+00	9.599944e-01	9.604064e-01
2.957031e+00	9.665369e-01	9.669522e-01
2.960938e+00	9.724971e-01	9.729155e-01
2.964844e+00	9.778715e-01	9.782928e-01
2.968750e+00	9.826570e-01	9.830808e-01
2.972656e+00	9.868505e-01	9.872766e-01
2.976562e+00	9.904495e-01	9.908778e-01
2.980469e+00	9.934520e-01	9.938820e-01
2.984375e+00	9.958560e-01	9.962876e-01
2.988281e+00	9.976602e-01	9.980931e-01
2.992188e+00	9.988634e-01	9.992973e-01
2.996094e+00	9.994649e-01	9.998996e-01
3.000000e+00	9.994644e-01	9.998996e-01
3.003906e+00	9.988619e-01	9.992973e-01
3.007812e+00	9.976577e-01	9.980931e-01
3.011719e+00	9.958525e-01	9.962876e-01
3.015625e+00	9.934475e-01	9.938820e-01
3.019531e+00	9.904440e-01	9.908778e-01
3.023438e+00	9.868440e-01	9.872766e-01
3.027344e+00	9.826495e-01	9.830808e-01
3.031250e+00	9.778631e-01	9.782928e-01
3.035156e+00	9.724877e-01	9.729155e-01
3.039062e+00	9.665265e-01	9.669522e-01
3.042969e+00	9.599830e-01	9.604064e-01
3.046875e+00	9.528614e-01	9.532821e-01
3.050781e+00	9.451657e-01	9.455836e-01
3.054688e+00	9.369008e-01	9.373155e-01
3.058594e+00	9.280714e-01	9.284828e-01
3.062500e+00	9.186831e-01	9.190908e-01
3.066406e+00	9.087413e-01	9.091452e-01
3.070312e+00	8.982522e-01	8.986519e-01
3.074219e+00	8.872220e-01	8.876173e-01
3.078125e+00	8.756574e-01	8.760481e-01
3.082031e+00	8.635653e-01	8.639512e-01
3.085938e+00	8.509530e-01	8.513338e-01
3.089844e+00	8.378281e-01	8.382037e-01
3.093750e+00	8.241986e-01	8.245686e-01
3.097656e+00	8.100726e-01	8.104369e-01
3.101562e+00	7.954587e-01	7.958169e-01
3.105469e+00	7.803656e-01	7.807176e-01
3.109375e+00	7.648024e-01	7.651481e-01
3.113281e+00	7.487786e-01	7.491176e-01
3.117188e+00	7.323037e-01	7.326359e-01
3.121094e+00	7.153877e-01	7.157129e-01
3.125000e+00	6.980407e-01	6.983587e-01
3.128906e+00	6.802734e-01	6.805839e-01
3.132812e+00	6.620962e-01	6.623992e-01
3.136719e+00	6.435202e-01	6.438154e-01
3.140625e+00	6.245566e-01	6.248438e-01
3.144531e+00	6.052168e-01	6.054958e-01
3.148438e+00	5.855124e-01	5.857832e-01
3.152344e+00	5.654553e-01	5.657176e-01
3.156250e+00	5.450576e-01	5.453113e-01
3.160156e+00	5.243316e-01	5.245765e-01
3.164062e+00	5.032898e-01	5.035257e-01
3.167969e+00	4.819448e-01	4.821717e-01
3.171875e+00	4.603095e-01	4.605272e-01
3.175781e+00	4.383969e-01	4.386052e-01
3.179688e+00	4.162203e-01	4.164191e-01
3.183594e+00	3.937929e-01	3.939822e-01
3.187500e+00	3.711284e-01	3.713079e-01
3.191406e+00	3.482402e-01	3.484099e-01
3.195312e+00	3.251424e-01	3.253021e-01
3.199219e+00	3.018486e-01	3.019984e-01
3.203125e+00	2.783731e-01	2.785127e-01
3.207031e+00	2.547298e-01	2.548593e-01
3.210938e+00	2.309332e-01	2.310523e-01
3.214844e+00	2.069974e-01	2.071062e-01
3.218750e+00	1.829369e-01	1.830353e-01
3.222656e+00	1.587663e-01	1.588542e-01
3.226562e+00	1.345000e-01	1.345773e-01
3.230469e+00	1.101527e-01	1.102194e-01
3.234375e+00	8.573903e-02	8.579516e-02
3.238281e+00	6.127374e-02	6.131920e-02
3.242188e+00	3.677153e-02	3.680630e-02
3.246094e+00	1.224718e-02	1.227123e-02
3.250000e+00	-1.228455e-02	-1.227123e-02
3.253906e+00	-3.680887e-02	-3.680630e-02
3.257812e+00	-6.131102e-02	-6.131920e-02
3.261719e+00	-8.577624e-02	-8.579516e-02
3.265625e+00	-1.101898e-01	-1.102194e-01
3.269531e+00	-1.345370e-01	-1.345773e-01
3.273438e+00	-1.588031e-01	-1.588542e-01
3.277344e+00	-1.829735e-01	-1.830353e-01
3.281250e+00	-2.070338e-01	-2.071062e-01
3.285156e+00	-2.309693e-01	-2.310523e-01
3.289062e+00	-2.547657e-01	-2.548593e-01
3.292969e+00	-2.784087e-01	-2.785127e-01
3.296875e+00	-3.018839e-01	-3.019984e-01
3.300781e+00	-3.251773e-01	-3.253021e-01
3.304688e+00	-3.482748e-01	-3.484099e-01
3.308594e+00	-3.711625e-01	-3.713079e-01
3.312500e+00	-3.938267e-01	-3.939822e-01
3.316406e+00	-4.162536e-01	-4.164191e-01
3.320312e+00	-4.384298e-01	-4.386052e-01
3.324219e+00	-4.603419e-01	-4.605272e-01
3.328125e+00	-4.819767e-01	-4.821717e-01
3.332031e+00	-5.033211e-01	-5.035257e-01
3.335938e+00	-5.243624e-01	-5.245765e-01
3.339844e+00	-5.450878e-01	-5.453113e-01
3.343750e+00	-5.654849e-01	-5.657176e-01
3.347656e+00	-5.855413e-01	-5.857832e-01
3.351562e+00	-6.052450e-01	-6.054958e-01
3.355469e+00	-6.245842e-01	-6.248438e-01
3.359375e+00	-6.435471e-01	-6.438154e-01
3.363281e+00	-6.621224e-01	-6.623992e-01
3.367188e+00	-6.802988e-01	-6.805839e-01
3.371094e+00	-6.980654e-01	-6.983587e-01
3.375000e+00	-7.154116e-01	-7.157129e-01
3.378906e+00	-7.323268e-01	-7.326359e-01
3.382812e+00	-7.488008e-01	-7.491176e-01
3.386719e+00	-7.648239e-01	-7.651481e-01
3.390625e+00	-7.803862e-01	-7.807176e-01
3.394531e+00	-7.954784e-01	-7.958169e-01
3.398438e+00	-8.100915e-01	-8.104369e-01
3.402344e+00	-8.242166e-01	-8.245686e-01
3.406250e+00	-8.378452e-01	-8.382037e-01
3.410156e+00	-8.509691e-01	-8.513338e-01
3.414062e+00	-8.635804e-01	-8.639512e-01
3.417969e+00	-8.756715e-01	-8.760481e-01
3.421875e+00	-8.872352e-01	-8.876173e-01
3.425781e+00	-8.982644e-01	-8.986519e-01
3.429688e+00	-9.087525e-01	-9.091452e-01
3.433594e+00	-9.186932e-01	-9.190908e-01
3.437500e+00	-9.280806e-01	-9.284828e-01
3.441406e+00	-9.369088e-01	-9.373155e-01
3.445312e+00	-9.451728e-01	-9.455836e-01
3.449219e+00	-9.528673e-01	-9.532821e-01
3.453125e+00	-9.599879e-01	-9.604064e-01
3.457031e+00	-9.665303e-01	-9.669522e-01
3.460938e+00	-9.724904e-01	-9.729155e-01
3.464844e+00	-9.778647e-01	-9.782928e-01
3.468750e+00	-9.826500e-01	-9.830808e-01
3.472656e+00	-9.868434e-01	-9.872766e-01
3.476562e+00	-9.904424e-01	-9.908778e-01
3.480469e+00	-9.934447e-01	-9.938820e-01
3.484375e+00	-9.958486e-01	-9.962876e-01
3.488281e+00	-9.976526e-01	-9.980931e-01
3.492188e+00	-9.988557e-01	-9.992973e-01
3.496094e+00	-9.994571e-01	-9.998996e-01
3.500000e+00	-9.994565e-01	-9.998996e-01
3.503906e+00	-9.988538e-01	-9.992973e-01
3.507812e+00	-9.976494e-01	-9.980931e-01
3.511719e+00	-9.958441e-01	-9.962876e-01
3.515625e+00	-9.934390e-01	-9.938820e-01
3.519531e+00	-9.904354e-01	-9.908778e-01
3.523438e+00	-9.868352e-01	-9.872766e-01
3.527344e+00	-9.826405e-01	-9.830808e-01
3.531250e+00	-9.778540e-01	-9.782928e-01
3.535156e+00	-9.724784e-01	-9.729155e-01
3.539062e+00	-9.665170e-01	-9.669522e-01
3.542969e+00	-9.599734e-01	-9.604064e-01
3.546875e+00	-9.528516e-01	-9.532821e-01
3.550781e+00	-9.451558e-01	-9.455836e-01
3.554688e+00	-9.368907e-01	-9.373155e-01
3.558594e+00	-9.280612e-01	-9.284828e-01
3.562500e+00	-9.186726e-01	-9.190908e-01
3.566406e+00	-9.087307e-01	-9.091452e-01
3.570312e+00	-8.982414e-01	-8.986519e-01
3.574219e+00	-8.872110e-01	-8.876173e-01
3.578125e+00	-8.756462e-01	-8.760481e-01
3.582031e+00	-8.635539e-01	-8.639512e-01
3.585938e+00	-8.509415e-01	-8.513338e-01
3.589844e+00	-8.378164e-01	-8.382037e-01
3.593750e+00	-8.241867e-01	-8.245686e-01
3.597656e+00	-8.100605e-01	-8.104369e-01
3.601562e+00	-7.954464e-01	-7.958169e-01
3.605469e+00	-7.803531e-01	-7.807176e-01
3.609375e+00	-7.647897e-01	-7.651481e-01
3.613281e+00	-7.487657e-01	-7.491176e-01
3.617188e+00	-7.322906e-01	-7.326359e-01
3.621094e+00	-7.153744e-01	-7.157129e-01
3.625000e+00	-6.980272e-01	-6.983587e-01
3.628906e+00	-6.802596e-01	-6.805839e-01
3.632812e+00	-6.620822e-01	-6.623992e-01
3.636719e+00	-6.435060e-01	-6.438154e-01
3.640625e+00	-6.245422e-01	-6.248438e-01
3.644531e+00	-6.052021e-01	-6.054958e-01
3.648438e+00	-5.854975e-01	-5.857832e-01
3.652344e+00	-5.654402e-01	-5.657176e-01
3.656250e+00	-5.450423e-01	-5.453113e-01
3.660156e+00	-5.243160e-01	-5.245765e-01
3.664062e+00	-5.032740e-01	-5.035257e-01
3.667969e+00	-4.819287e-01	-4.821717e-01
3.671875e+00	-4.602932e-01	-4.605272e-01
3.675781e+00	-4.383803e-01	-4.386052e-01
3.679688e+00	-4.162034e-01	-4.164191e-01
3.683594e+00	-3.937758e-01	-3.939822e-01
3.687500e+00	-3.711110e-01	-3.713079e-01
3.691406e+00	-3.482226e-01	-3.484099e-01
3.695312e+00	-3.251245e-01	-3.253021e-01
3.699219e+00	-3.018304e-01	-3.019984e-01
3.703125e+00	-2.783546e-01	-2.785127e-01
3.707031e+00	-2.547111e-01	-2.548593e-01
3.710938e+00	-2.309141e-01	-2.310523e-01
3.714844e+00	-2.069781e-01	-2.071062e-01
3.718750e+00	-1.829173e-01	-1.830353e-01
3.722656e+00	-1.587464e-01	-1.588542e-01
3.726562e+00	-1.344798e-01	-1.345773e-01
3.730469e+00	-1.101322e-01	-1.102194e-01
3.734375e+00	-8.571822e-02	-8.579516e-02
3.738281e+00	-6.125261e-02	-6.131920e-02
3.742188e+00	-3.675009e-02	-3.680630e-02
3.746094e+00	-1.222542e-02	-1.227123e-02
3.750000e+00	1.230662e-02	1.227123e-02
3.753906e+00	3.683127e-02	3.680630e-02
3.757812e+00	6.133375e-02	6.131920e-02
3.761719e+00	8.579930e-02	8.579516e-02
3.765625e+00	1.102132e-01	1.102194e-01
3.769531e+00	1.345607e-01	1.345773e-01
3.773438e+00	1.588272e-01	1.588542e-01
3.777344e+00	1.829980e-01	1.830353e-01
3.781250e+00	2.070586e-01	2.071062e-01
3.785156e+00	2.309945e-01	2.310523e-01
3.789062e+00	2.547913e-01	2.548593e-01
3.792969e+00	2.784346e-01	2.785127e-01
3.796875e+00	3.019102e-01	3.019984e-01
3.800781e+00	3.252039e-01	3.253021e-01
3.804688e+00	3.483018e-01	3.484099e-01
3.808594e+00	3.711899e-01	3.713079e-01
3.812500e+00	3.938545e-01	3.939822e-01
3.816406e+00	4.162818e-01	4.164191e-01
3.820312e+00	4.384584e-01	4.386052e-01
3.824219e+00	4.603708e-01	4.605272e-01
3.828125e+00	4.820060e-01	4.821717e-01
3.832031e+00	5.033509e-01	5.035257e-01
3.835938e+00	5.243926e-01	5.245765e-01
3.839844e+00	5.451184e-01	5.453113e-01
3.843750e+00	5.655159e-01	5.657176e-01
3.847656e+00	5.855728e-01	5.857832e-01
3.851562e+00	6.052769e-01	6.054958e-01
3.855469e+00	6.246165e-01	6.248438e-01
3.859375e+00	6.435799e-01	6.438154e-01
3.863281e+00	6.621556e-01	6.623992e-01
3.867188e+00	6.803325e-01	6.805839e-01
3.871094e+00	6.980996e-01	6.983587e-01
3.875000e+00	7.154462e-01	7.157129e-01
3.878906e+00	7.323619e-01	7.326359e-01
3.882812e+00	7.488364e-01	7.491176e-01
3.886719e+00	7.648599e-01	7.651481e-01
3.890625e+00	7.804227e-01	7.807176e-01
3.894531e+00	7.955154e-01	7.958169e-01
3.898438e+00	8.101290e-01	8.104369e-01
3.902344e+00	8.242546e-01	8.245686e-01
3.906250e+00	8.378837e-01	8.382037e-01
3.910156e+00	8.510081e-01	8.513338e-01
3.914062e+00	8.636199e-01	8.639512e-01
3.917969e+00	8.757116e-01	8.760481e-01
3.921875e+00	8.872758e-01	8.876173e-01
3.925781e+00	8.983055e-01	8.986519e-01
3.929688e+00	9.087942e-01	9.091452e-01
3.933594e+00	9.187354e-01	9.190908e-01
3.937500e+00	9.281233e-01	9.284828e-01
3.941406e+00	9.369521e-01	9.373155e-01
3.945312e+00	9.452166e-01	9.455836e-01
3.949219e+00	9.529117e-01	9.532821e-01
3.953125e+00	9.600329e-01	9.604064e-01
3.957031e+00	9.665758e-01	9.669522e-01
3.960938e+00	9.725365e-01	9.729155e-01
3.964844e+00	9.779114e-01	9.782928e-01
3.968750e+00	9.826973e-01	9.830808e-01
3.972656e+00	9.868913e-01	9.872766e-01
3.976562e+00	9.904909e-01	9.908778e-01
3.980469e+00	9.934938e-01	9.938820e-01
3.984375e+00	9.958983e-01	9.962876e-01
3.988281e+00	9.977030e-01	9.980931e-01
3.992188e+00	9.989067e-01	9.992973e-01
3.996094e+00	9.995087e-01	9.998996e-01
