Position [m]	T (fluid)  	T (solid)
0.000000e+00	8.629358e+02	6.785589e+02	
3.125000e-02	8.520369e+02	6.598342e+02	
6.250000e-02	8.403316e+02	6.410390e+02	
9.375000e-02	8.278528e+02	6.222380e+02	
1.250000e-01	8.146376e+02	6.034949e+02	
1.562500e-01	8.007267e+02	5.848721e+02	
1.875000e-01	7.861646e+02	5.664301e+02	
2.187500e-01	7.709991e+02	5.482273e+02	
2.500000e-01	7.552808e+02	5.303200e+02	
2.812500e-01	7.390632e+02	5.127617e+02	
3.125000e-01	7.224018e+02	4.956029e+02	
3.437500e-01	7.053542e+02	4.788912e+02	
3.750000e-01	6.879794e+02	4.626707e+02	
4.062500e-01	6.703377e+02	4.469821e+02	
4.375000e-01	6.524902e+02	4.318624e+02	
4.687500e-01	6.344982e+02	4.173447e+02	
5.000000e-01	6.164227e+02	4.034584e+02	
5.312500e-01	5.983223e+02	3.902289e+02	
5.625000e-01	5.802479e+02	3.776778e+02	
5.937500e-01	5.622274e+02	3.658233e+02	
6.250000e-01	5.442283e+02	3.546811e+02	
6.562500e-01	5.260833e+02	3.442678e+02	
6.875000e-01	5.073754e+02	3.346073e+02	
7.187500e-01	4.873333e+02	3.257409e+02	
7.500000e-01	4.648739e+02	3.177423e+02	
7.812500e-01	4.389885e+02	3.107257e+02	
8.125000e-01	4.095296e+02	3.048367e+02	
8.437500e-01	3.780491e+02	3.002096e+02	
8.750000e-01	3.479215e+02	2.968967e+02	
9.062500e-01	3.231619e+02	2.948038e+02	
9.375000e-01	3.063921e+02	2.936817e+02	
9.687500e-01	2.974716e+02	2.931958e+02	
