Position [m]	T (fluid)  	T (solid)
0.000000e+00	8.726999e+02	6.956328e+02	
9.765625e-04	8.723989e+02	6.950404e+02	
1.953125e-03	8.720971e+02	6.944477e+02	
2.929688e-03	8.717943e+02	6.938548e+02	
3.906250e-03	8.714906e+02	6.932616e+02	
4.882812e-03	8.711861e+02	6.926683e+02	
5.859375e-03	8.708806e+02	6.920748e+02	
6.835938e-03	8.705743e+02	6.914811e+02	
7.812500e-03	8.702671e+02	6.908871e+02	
8.789062e-03	8.699590e+02	6.902930e+02	
9.765625e-03	8.696500e+02	6.896986e+02	
1.074219e-02	8.693401e+02	6.891041e+02	
1.171875e-02	8.690293e+02	6.885094e+02	
1.269531e-02	8.687176e+02	6.879144e+02	
1.367188e-02	8.684051e+02	6.873193e+02	
1.464844e-02	8.680917e+02	6.867240e+02	
1.562500e-02	8.677773e+02	6.861285e+02	
1.660156e-02	8.674621e+02	6.855328e+02	
1.757812e-02	8.671460e+02	6.849370e+02	
1.855469e-02	8.668291e+02	6.843410e+02	
1.953125e-02	8.665112e+02	6.837448e+02	
2.050781e-02	8.661925e+02	6.831484e+02	
2.148438e-02	8.658729e+02	6.825518e+02	
2.246094e-02	8.655524e+02	6.819551e+02	
2.343750e-02	8.652310e+02	6.813582e+02	
2.441406e-02	8.649087e+02	6.807611e+02	
2.539062e-02	8.645856e+02	6.801639e+02	
2.636719e-02	8.642616e+02	6.795665e+02	
2.734375e-02	8.639367e+02	6.789690e+02	
2.832031e-02	8.636110e+02	6.783713e+02	
2.929688e-02	8.632843e+02	6.777734e+02	
3.027344e-02	8.629568e+02	6.771754e+02	
3.125000e-02	8.626285e+02	6.765772e+02	
3.222656e-02	8.622992e+02	6.759789e+02	
3.320312e-02	8.619691e+02	6.753805e+02	
3.417969e-02	8.616381e+02	6.747819e+02	
3.515625e-02	8.613063e+02	6.741831e+02	
3.613281e-02	8.609735e+02	6.735843e+02	
3.710938e-02	8.606399e+02	6.729852e+02	
3.808594e-02	8.603055e+02	6.723861e+02	
3.906250e-02	8.599701e+02	6.717868e+02	
4.003906e-02	8.596339e+02	6.711874e+02	
4.101562e-02	8.592969e+02	6.705878e+02	
4.199219e-02	8.589590e+02	6.699882e+02	
4.296875e-02	8.586202e+02	6.693884e+02	
4.394531e-02	8.582805e+02	6.687884e+02	
4.492188e-02	8.579400e+02	6.681884e+02	
4.589844e-02	8.575987e+02	6.675883e+02	
4.687500e-02	8.572564e+02	6.669880e+02	
4.785156e-02	8.569133e+02	6.663876e+02	
4.882812e-02	8.565694e+02	6.657871e+02	
4.980469e-02	8.562246e+02	6.651865e+02	
5.078125e-02	8.558789e+02	6.645858e+02	
5.175781e-02	8.555324e+02	6.639850e+02	
5.273438e-02	8.551851e+02	6.633841e+02	
5.371094e-02	8.548368e+02	6.627830e+02	
5.468750e-02	8.544878e+02	6.621819e+02	
5.566406e-02	8.541378e+02	6.615807e+02	
5.664062e-02	8.537871e+02	6.609794e+02	
5.761719e-02	8.534355e+02	6.603780e+02	
5.859375e-02	8.530830e+02	6.597765e+02	
5.957031e-02	8.527297e+02	6.591750e+02	
6.054688e-02	8.523755e+02	6.585733e+02	
6.152344e-02	8.520205e+02	6.579716e+02	
6.250000e-02	8.516646e+02	6.573697e+02	
6.347656e-02	8.513079e+02	6.567678e+02	
6.445312e-02	8.509504e+02	6.561659e+02	
6.542969e-02	8.505920e+02	6.555638e+02	
6.640625e-02	8.502328e+02	6.549617e+02	
6.738281e-02	8.498727e+02	6.543595e+02	
6.835938e-02	8.495118e+02	6.537573e+02	
6.933594e-02	8.491501e+02	6.531549e+02	
7.031250e-02	8.487875e+02	6.525526e+02	
7.128906e-02	8.484241e+02	6.519501e+02	
7.226562e-02	8.480598e+02	6.513476e+02	
7.324219e-02	8.476947e+02	6.507450e+02	
7.421875e-02	8.473288e+02	6.501424e+02	
7.519531e-02	8.469621e+02	6.495398e+02	
7.617188e-02	8.465945e+02	6.489370e+02	
7.714844e-02	8.462261e+02	6.483343e+02	
7.812500e-02	8.458568e+02	6.477315e+02	
7.910156e-02	8.454868e+02	6.471286e+02	
8.007812e-02	8.451159e+02	6.465257e+02	
8.105469e-02	8.447441e+02	6.459228e+02	
8.203125e-02	8.443716e+02	6.453198e+02	
8.300781e-02	8.439982e+02	6.447168e+02	
8.398438e-02	8.436240e+02	6.441138e+02	
8.496094e-02	8.432490e+02	6.435107e+02	
8.593750e-02	8.428732e+02	6.429076e+02	
8.691406e-02	8.424965e+02	6.423045e+02	
8.789062e-02	8.421191e+02	6.417014e+02	
8.886719e-02	8.417408e+02	6.410982e+02	
8.984375e-02	8.413617e+02	6.404950e+02	
9.082031e-02	8.409817e+02	6.398918e+02	
9.179688e-02	8.406010e+02	6.392886e+02	
9.277344e-02	8.402195e+02	6.386853e+02	
9.375000e-02	8.398371e+02	6.380821e+02	
9.472656e-02	8.394539e+02	6.374789e+02	
9.570312e-02	8.390700e+02	6.368756e+02	
9.667969e-02	8.386852e+02	6.362723e+02	
9.765625e-02	8.382996e+02	6.356691e+02	
9.863281e-02	8.379132e+02	6.350658e+02	
9.960938e-02	8.375260e+02	6.344625e+02	
1.005859e-01	8.371379e+02	6.338593e+02	
1.015625e-01	8.367491e+02	6.332560e+02	
1.025391e-01	8.363595e+02	6.326528e+02	
1.035156e-01	8.359691e+02	6.320496e+02	
1.044922e-01	8.355779e+02	6.314463e+02	
1.054688e-01	8.351859e+02	6.308431e+02	
1.064453e-01	8.347930e+02	6.302399e+02	
1.074219e-01	8.343994e+02	6.296368e+02	
1.083984e-01	8.340050e+02	6.290336e+02	
1.093750e-01	8.336098e+02	6.284305e+02	
1.103516e-01	8.332139e+02	6.278274e+02	
1.113281e-01	8.328171e+02	6.272243e+02	
1.123047e-01	8.324195e+02	6.266213e+02	
1.132812e-01	8.320211e+02	6.260183e+02	
1.142578e-01	8.316220e+02	6.254153e+02	
1.152344e-01	8.312221e+02	6.248124e+02	
1.162109e-01	8.308213e+02	6.242095e+02	
1.171875e-01	8.304198e+02	6.236066e+02	
1.181641e-01	8.300175e+02	6.230038e+02	
1.191406e-01	8.296145e+02	6.224010e+02	
1.201172e-01	8.292106e+02	6.217983e+02	
1.210938e-01	8.288060e+02	6.211956e+02	
1.220703e-01	8.284006e+02	6.205930e+02	
1.230469e-01	8.279944e+02	6.199904e+02	
1.240234e-01	8.275875e+02	6.193879e+02	
1.250000e-01	8.271797e+02	6.187854e+02	
1.259766e-01	8.267712e+02	6.181830e+02	
1.269531e-01	8.263619e+02	6.175807e+02	
1.279297e-01	8.259519e+02	6.169784e+02	
1.289062e-01	8.255411e+02	6.163762e+02	
1.298828e-01	8.251295e+02	6.157741e+02	
1.308594e-01	8.247171e+02	6.151720e+02	
1.318359e-01	8.243040e+02	6.145700e+02	
1.328125e-01	8.238901e+02	6.139681e+02	
1.337891e-01	8.234755e+02	6.133663e+02	
1.347656e-01	8.230601e+02	6.127645e+02	
1.357422e-01	8.226439e+02	6.121628e+02	
1.367188e-01	8.222270e+02	6.115612e+02	
1.376953e-01	8.218093e+02	6.109597e+02	
1.386719e-01	8.213909e+02	6.103583e+02	
1.396484e-01	8.209717e+02	6.097569e+02	
1.406250e-01	8.205517e+02	6.091557e+02	
1.416016e-01	8.201310e+02	6.085545e+02	
1.425781e-01	8.197096e+02	6.079534e+02	
1.435547e-01	8.192874e+02	6.073525e+02	
1.445312e-01	8.188644e+02	6.067516e+02	
1.455078e-01	8.184407e+02	6.061508e+02	
1.464844e-01	8.180163e+02	6.055502e+02	
1.474609e-01	8.175911e+02	6.049496e+02	
1.484375e-01	8.171652e+02	6.043492e+02	
1.494141e-01	8.167385e+02	6.037489e+02	
1.503906e-01	8.163111e+02	6.031486e+02	
1.513672e-01	8.158829e+02	6.025485e+02	
1.523438e-01	8.154541e+02	6.019485e+02	
1.533203e-01	8.150244e+02	6.013487e+02	
1.542969e-01	8.145941e+02	6.007489e+02	
1.552734e-01	8.141630e+02	6.001493e+02	
1.562500e-01	8.137312e+02	5.995498e+02	
1.572266e-01	8.132986e+02	5.989504e+02	
1.582031e-01	8.128653e+02	5.983511e+02	
1.591797e-01	8.124313e+02	5.977520e+02	
1.601562e-01	8.119966e+02	5.971530e+02	
1.611328e-01	8.115611e+02	5.965542e+02	
1.621094e-01	8.111249e+02	5.959554e+02	
1.630859e-01	8.106880e+02	5.953569e+02	
1.640625e-01	8.102504e+02	5.947584e+02	
1.650391e-01	8.098120e+02	5.941601e+02	
1.660156e-01	8.093729e+02	5.935620e+02	
1.669922e-01	8.089331e+02	5.929640e+02	
1.679688e-01	8.084926e+02	5.923661e+02	
1.689453e-01	8.080514e+02	5.917684e+02	
1.699219e-01	8.076095e+02	5.911709e+02	
1.708984e-01	8.071669e+02	5.905735e+02	
1.718750e-01	8.067235e+02	5.899763e+02	
1.728516e-01	8.062795e+02	5.893792e+02	
1.738281e-01	8.058347e+02	5.887823e+02	
1.748047e-01	8.053892e+02	5.881855e+02	
1.757812e-01	8.049430e+02	5.875889e+02	
1.767578e-01	8.044962e+02	5.869925e+02	
1.777344e-01	8.040486e+02	5.863963e+02	
1.787109e-01	8.036003e+02	5.858002e+02	
1.796875e-01	8.031514e+02	5.852043e+02	
1.806641e-01	8.027017e+02	5.846085e+02	
1.816406e-01	8.022513e+02	5.840130e+02	
1.826172e-01	8.018003e+02	5.834176e+02	
1.835938e-01	8.013485e+02	5.828224e+02	
1.845703e-01	8.008961e+02	5.822274e+02	
1.855469e-01	8.004429e+02	5.816326e+02	
1.865234e-01	7.999891e+02	5.810380e+02	
1.875000e-01	7.995346e+02	5.804435e+02	
1.884766e-01	7.990794e+02	5.798493e+02	
1.894531e-01	7.986236e+02	5.792552e+02	
1.904297e-01	7.981670e+02	5.786614e+02	
1.914062e-01	7.977098e+02	5.780677e+02	
1.923828e-01	7.972519e+02	5.774742e+02	
1.933594e-01	7.967933e+02	5.768810e+02	
1.943359e-01	7.963340e+02	5.762879e+02	
1.953125e-01	7.958741e+02	5.756950e+02	
1.962891e-01	7.954135e+02	5.751024e+02	
1.972656e-01	7.949522e+02	5.745100e+02	
1.982422e-01	7.944903e+02	5.739177e+02	
1.992188e-01	7.940276e+02	5.733257e+02	
2.001953e-01	7.935644e+02	5.727339e+02	
2.011719e-01	7.931004e+02	5.721423e+02	
2.021484e-01	7.926358e+02	5.715510e+02	
2.031250e-01	7.921705e+02	5.709598e+02	
2.041016e-01	7.917046e+02	5.703689e+02	
2.050781e-01	7.912380e+02	5.697782e+02	
2.060547e-01	7.907708e+02	5.691878e+02	
2.070312e-01	7.903029e+02	5.685975e+02	
2.080078e-01	7.898343e+02	5.680075e+02	
2.089844e-01	7.893651e+02	5.674178e+02	
2.099609e-01	7.888953e+02	5.668282e+02	
2.109375e-01	7.884248e+02	5.662389e+02	
2.119141e-01	7.879536e+02	5.656499e+02	
2.128906e-01	7.874818e+02	5.650610e+02	
2.138672e-01	7.870094e+02	5.644725e+02	
2.148438e-01	7.865363e+02	5.638841e+02	
2.158203e-01	7.860626e+02	5.632961e+02	
2.167969e-01	7.855882e+02	5.627082e+02	
2.177734e-01	7.851132e+02	5.621206e+02	
2.187500e-01	7.846376e+02	5.615333e+02	
2.197266e-01	7.841613e+02	5.609462e+02	
2.207031e-01	7.836844e+02	5.603594e+02	
2.216797e-01	7.832069e+02	5.597728e+02	
2.226562e-01	7.827287e+02	5.591865e+02	
2.236328e-01	7.822499e+02	5.586005e+02	
2.246094e-01	7.817705e+02	5.580147e+02	
2.255859e-01	7.812905e+02	5.574292e+02	
2.265625e-01	7.808098e+02	5.568439e+02	
2.275391e-01	7.803285e+02	5.562590e+02	
2.285156e-01	7.798466e+02	5.556743e+02	
2.294922e-01	7.793641e+02	5.550898e+02	
2.304688e-01	7.788809e+02	5.545057e+02	
2.314453e-01	7.783972e+02	5.539218e+02	
2.324219e-01	7.779128e+02	5.533382e+02	
2.333984e-01	7.774279e+02	5.527549e+02	
2.343750e-01	7.769423e+02	5.521719e+02	
2.353516e-01	7.764561e+02	5.515891e+02	
2.363281e-01	7.759693e+02	5.510066e+02	
2.373047e-01	7.754819e+02	5.504245e+02	
2.382812e-01	7.749939e+02	5.498426e+02	
2.392578e-01	7.745052e+02	5.492610e+02	
2.402344e-01	7.740160e+02	5.486797e+02	
2.412109e-01	7.735262e+02	5.480987e+02	
2.421875e-01	7.730358e+02	5.475180e+02	
2.431641e-01	7.725448e+02	5.469376e+02	
2.441406e-01	7.720532e+02	5.463575e+02	
2.451172e-01	7.715611e+02	5.457777e+02	
2.460938e-01	7.710683e+02	5.451982e+02	
2.470703e-01	7.705749e+02	5.446190e+02	
2.480469e-01	7.700810e+02	5.440401e+02	
2.490234e-01	7.695865e+02	5.434616e+02	
2.500000e-01	7.690914e+02	5.428833e+02	
2.509766e-01	7.685957e+02	5.423054e+02	
2.519531e-01	7.680994e+02	5.417277e+02	
2.529297e-01	7.676026e+02	5.411504e+02	
2.539062e-01	7.671051e+02	5.405734e+02	
2.548828e-01	7.666071e+02	5.399968e+02	
2.558594e-01	7.661086e+02	5.394204e+02	
2.568359e-01	7.656094e+02	5.388444e+02	
2.578125e-01	7.651097e+02	5.382687e+02	
2.587891e-01	7.646095e+02	5.376934e+02	
2.597656e-01	7.641086e+02	5.371184e+02	
2.607422e-01	7.636072e+02	5.365437e+02	
2.617188e-01	7.631053e+02	5.359693e+02	
2.626953e-01	7.626027e+02	5.353953e+02	
2.636719e-01	7.620997e+02	5.348216e+02	
2.646484e-01	7.615960e+02	5.342482e+02	
2.656250e-01	7.610918e+02	5.336752e+02	
2.666016e-01	7.605871e+02	5.331026e+02	
2.675781e-01	7.600818e+02	5.325303e+02	
2.685547e-01	7.595760e+02	5.319583e+02	
2.695312e-01	7.590696e+02	5.313867e+02	
2.705078e-01	7.585626e+02	5.308154e+02	
2.714844e-01	7.580551e+02	5.302445e+02	
2.724609e-01	7.575471e+02	5.296739e+02	
2.734375e-01	7.570386e+02	5.291037e+02	
2.744141e-01	7.565295e+02	5.285339e+02	
2.753906e-01	7.560198e+02	5.279644e+02	
2.763672e-01	7.555097e+02	5.273953e+02	
2.773438e-01	7.549989e+02	5.268265e+02	
2.783203e-01	7.544877e+02	5.262581e+02	
2.792969e-01	7.539759e+02	5.256901e+02	
2.802734e-01	7.534637e+02	5.251224e+02	
2.812500e-01	7.529508e+02	5.245551e+02	
2.822266e-01	7.524375e+02	5.239882e+02	
2.832031e-01	7.519236e+02	5.234216e+02	
2.841797e-01	7.514092e+02	5.228554e+02	
2.851562e-01	7.508943e+02	5.222896e+02	
2.861328e-01	7.503789e+02	5.217242e+02	
2.871094e-01	7.498630e+02	5.211592e+02	
2.880859e-01	7.493465e+02	5.205945e+02	
2.890625e-01	7.488296e+02	5.200303e+02	
2.900391e-01	7.483121e+02	5.194664e+02	
2.910156e-01	7.477941e+02	5.189029e+02	
2.919922e-01	7.472756e+02	5.183398e+02	
2.929688e-01	7.467567e+02	5.177770e+02	
2.939453e-01	7.462372e+02	5.172147e+02	
2.949219e-01	7.457172e+02	5.166528e+02	
2.958984e-01	7.451967e+02	5.160912e+02	
2.968750e-01	7.446757e+02	5.155301e+02	
2.978516e-01	7.441542e+02	5.149694e+02	
2.988281e-01	7.436323e+02	5.144090e+02	
2.998047e-01	7.431098e+02	5.138491e+02	
3.007812e-01	7.425868e+02	5.132895e+02	
3.017578e-01	7.420634e+02	5.127304e+02	
3.027344e-01	7.415395e+02	5.121717e+02	
3.037109e-01	7.410151e+02	5.116134e+02	
3.046875e-01	7.404902e+02	5.110555e+02	
3.056641e-01	7.399648e+02	5.104980e+02	
3.066406e-01	7.394390e+02	5.099409e+02	
3.076172e-01	7.389127e+02	5.093843e+02	
3.085938e-01	7.383859e+02	5.088280e+02	
3.095703e-01	7.378586e+02	5.082722e+02	
3.105469e-01	7.373309e+02	5.077168e+02	
3.115234e-01	7.368026e+02	5.071618e+02	
3.125000e-01	7.362740e+02	5.066073e+02	
3.134766e-01	7.357448e+02	5.060531e+02	
3.144531e-01	7.352152e+02	5.054994e+02	
3.154297e-01	7.346852e+02	5.049462e+02	
3.164062e-01	7.341547e+02	5.043933e+02	
3.173828e-01	7.336237e+02	5.038409e+02	
3.183594e-01	7.330922e+02	5.032889e+02	
3.193359e-01	7.325604e+02	5.027374e+02	
3.203125e-01	7.320280e+02	5.021863e+02	
3.212891e-01	7.314952e+02	5.016356e+02	
3.222656e-01	7.309620e+02	5.010854e+02	
3.232422e-01	7.304283e+02	5.005356e+02	
3.242188e-01	7.298942e+02	4.999863e+02	
3.251953e-01	7.293596e+02	4.994374e+02	
3.261719e-01	7.288246e+02	4.988889e+02	
3.271484e-01	7.282892e+02	4.983409e+02	
3.281250e-01	7.277533e+02	4.977934e+02	
3.291016e-01	7.272170e+02	4.972463e+02	
3.300781e-01	7.266802e+02	4.966996e+02	
3.310547e-01	7.261431e+02	4.961535e+02	
3.320312e-01	7.256054e+02	4.956077e+02	
3.330078e-01	7.250674e+02	4.950624e+02	
3.339844e-01	7.245290e+02	4.945176e+02	
3.349609e-01	7.239901e+02	4.939733e+02	
3.359375e-01	7.234508e+02	4.934294e+02	
3.369141e-01	7.229111e+02	4.928859e+02	
3.378906e-01	7.223709e+02	4.923430e+02	
3.388672e-01	7.218304e+02	4.918005e+02	
3.398438e-01	7.212894e+02	4.912585e+02	
3.408203e-01	7.207480e+02	4.907169e+02	
3.417969e-01	7.202063e+02	4.901758e+02	
3.427734e-01	7.196641e+02	4.896352e+02	
3.437500e-01	7.191215e+02	4.890951e+02	
3.447266e-01	7.185785e+02	4.885554e+02	
3.457031e-01	7.180351e+02	4.880162e+02	
3.466797e-01	7.174913e+02	4.874775e+02	
3.476562e-01	7.169471e+02	4.869393e+02	
3.486328e-01	7.164025e+02	4.864015e+02	
3.496094e-01	7.158575e+02	4.858643e+02	
3.505859e-01	7.153121e+02	4.853275e+02	
3.515625e-01	7.147664e+02	4.847912e+02	
3.525391e-01	7.142202e+02	4.842554e+02	
3.535156e-01	7.136737e+02	4.837201e+02	
3.544922e-01	7.131268e+02	4.831853e+02	
3.554688e-01	7.125795e+02	4.826510e+02	
3.564453e-01	7.120318e+02	4.821171e+02	
3.574219e-01	7.114837e+02	4.815838e+02	
3.583984e-01	7.109353e+02	4.810509e+02	
3.593750e-01	7.103865e+02	4.805186e+02	
3.603516e-01	7.098373e+02	4.799868e+02	
3.613281e-01	7.092877e+02	4.794554e+02	
3.623047e-01	7.087378e+02	4.789246e+02	
3.632812e-01	7.081875e+02	4.783943e+02	
3.642578e-01	7.076369e+02	4.778644e+02	
3.652344e-01	7.070859e+02	4.773351e+02	
3.662109e-01	7.065345e+02	4.768063e+02	
3.671875e-01	7.059828e+02	4.762780e+02	
3.681641e-01	7.054307e+02	4.757502e+02	
3.691406e-01	7.048783e+02	4.752229e+02	
3.701172e-01	7.043255e+02	4.746962e+02	
3.710938e-01	7.037723e+02	4.741699e+02	
3.720703e-01	7.032188e+02	4.736442e+02	
3.730469e-01	7.026650e+02	4.731190e+02	
3.740234e-01	7.021108e+02	4.725943e+02	
3.750000e-01	7.015563e+02	4.720702e+02	
3.759766e-01	7.010015e+02	4.715465e+02	
3.769531e-01	7.004463e+02	4.710234e+02	
3.779297e-01	6.998907e+02	4.705008e+02	
3.789062e-01	6.993349e+02	4.699787e+02	
3.798828e-01	6.987787e+02	4.694572e+02	
3.808594e-01	6.982222e+02	4.689362e+02	
3.818359e-01	6.976653e+02	4.684157e+02	
3.828125e-01	6.971081e+02	4.678958e+02	
3.837891e-01	6.965506e+02	4.673764e+02	
3.847656e-01	6.959928e+02	4.668575e+02	
3.857422e-01	6.954347e+02	4.663391e+02	
3.867188e-01	6.948762e+02	4.658213e+02	
3.876953e-01	6.943174e+02	4.653041e+02	
3.886719e-01	6.937583e+02	4.647874e+02	
3.896484e-01	6.931989e+02	4.642712e+02	
3.906250e-01	6.926392e+02	4.637556e+02	
3.916016e-01	6.920792e+02	4.632405e+02	
3.925781e-01	6.915189e+02	4.627259e+02	
3.935547e-01	6.909582e+02	4.622119e+02	
3.945312e-01	6.903973e+02	4.616985e+02	
3.955078e-01	6.898361e+02	4.611856e+02	
3.964844e-01	6.892746e+02	4.606732e+02	
3.974609e-01	6.887127e+02	4.601615e+02	
3.984375e-01	6.881506e+02	4.596502e+02	
3.994141e-01	6.875882e+02	4.591395e+02	
4.003906e-01	6.870255e+02	4.586294e+02	
4.013672e-01	6.864625e+02	4.581198e+02	
4.023438e-01	6.858993e+02	4.576108e+02	
4.033203e-01	6.853357e+02	4.571024e+02	
4.042969e-01	6.847719e+02	4.565945e+02	
4.052734e-01	6.842078e+02	4.560872e+02	
4.062500e-01	6.836434e+02	4.555804e+02	
4.072266e-01	6.830787e+02	4.550742e+02	
4.082031e-01	6.825138e+02	4.545686e+02	
4.091797e-01	6.819486e+02	4.540636e+02	
4.101562e-01	6.813831e+02	4.535591e+02	
4.111328e-01	6.808173e+02	4.530551e+02	
4.121094e-01	6.802513e+02	4.525518e+02	
4.130859e-01	6.796851e+02	4.520490e+02	
4.140625e-01	6.791185e+02	4.515468e+02	
4.150391e-01	6.785517e+02	4.510452e+02	
4.160156e-01	6.779847e+02	4.505442e+02	
4.169922e-01	6.774174e+02	4.500437e+02	
4.179688e-01	6.768498e+02	4.495438e+02	
4.189453e-01	6.762820e+02	4.490445e+02	
4.199219e-01	6.757140e+02	4.485458e+02	
4.208984e-01	6.751457e+02	4.480477e+02	
4.218750e-01	6.745771e+02	4.475501e+02	
4.228516e-01	6.740084e+02	4.470531e+02	
4.238281e-01	6.734393e+02	4.465568e+02	
4.248047e-01	6.728701e+02	4.460610e+02	
4.257812e-01	6.723006e+02	4.455658e+02	
4.267578e-01	6.717308e+02	4.450711e+02	
4.277344e-01	6.711609e+02	4.445771e+02	
4.287109e-01	6.705907e+02	4.440837e+02	
4.296875e-01	6.700203e+02	4.435909e+02	
4.306641e-01	6.694496e+02	4.430986e+02	
4.316406e-01	6.688787e+02	4.426070e+02	
4.326172e-01	6.683076e+02	4.421159e+02	
4.335938e-01	6.677363e+02	4.416255e+02	
4.345703e-01	6.671648e+02	4.411356e+02	
4.355469e-01	6.665930e+02	4.406464e+02	
4.365234e-01	6.660211e+02	4.401577e+02	
4.375000e-01	6.654489e+02	4.396697e+02	
4.384766e-01	6.648765e+02	4.391823e+02	
4.394531e-01	6.643039e+02	4.386954e+02	
4.404297e-01	6.637311e+02	4.382092e+02	
4.414062e-01	6.631581e+02	4.377236e+02	
4.423828e-01	6.625850e+02	4.372386e+02	
4.433594e-01	6.620116e+02	4.367542e+02	
4.443359e-01	6.614380e+02	4.362704e+02	
4.453125e-01	6.608642e+02	4.357872e+02	
4.462891e-01	6.602902e+02	4.353047e+02	
4.472656e-01	6.597160e+02	4.348227e+02	
4.482422e-01	6.591417e+02	4.343414e+02	
4.492188e-01	6.585671e+02	4.338607e+02	
4.501953e-01	6.579924e+02	4.333806e+02	
4.511719e-01	6.574175e+02	4.329011e+02	
4.521484e-01	6.568424e+02	4.324222e+02	
4.531250e-01	6.562671e+02	4.319440e+02	
4.541016e-01	6.556916e+02	4.314664e+02	
4.550781e-01	6.551160e+02	4.309894e+02	
4.560547e-01	6.545402e+02	4.305130e+02	
4.570312e-01	6.539643e+02	4.300373e+02	
4.580078e-01	6.533881e+02	4.295622e+02	
4.589844e-01	6.528118e+02	4.290877e+02	
4.599609e-01	6.522354e+02	4.286138e+02	
4.609375e-01	6.516587e+02	4.281406e+02	
4.619141e-01	6.510820e+02	4.276680e+02	
4.628906e-01	6.505050e+02	4.271961e+02	
4.638672e-01	6.499279e+02	4.267247e+02	
4.648438e-01	6.493507e+02	4.262540e+02	
4.658203e-01	6.487733e+02	4.257840e+02	
4.667969e-01	6.481957e+02	4.253145e+02	
4.677734e-01	6.476180e+02	4.248457e+02	
4.687500e-01	6.470402e+02	4.243776e+02	
4.697266e-01	6.464622e+02	4.239101e+02	
4.707031e-01	6.458841e+02	4.234432e+02	
4.716797e-01	6.453058e+02	4.229770e+02	
4.726562e-01	6.447274e+02	4.225114e+02	
4.736328e-01	6.441489e+02	4.220464e+02	
4.746094e-01	6.435702e+02	4.215821e+02	
4.755859e-01	6.429914e+02	4.211185e+02	
4.765625e-01	6.424125e+02	4.206554e+02	
4.775391e-01	6.418334e+02	4.201931e+02	
4.785156e-01	6.412542e+02	4.197314e+02	
4.794922e-01	6.406749e+02	4.192703e+02	
4.804688e-01	6.400955e+02	4.188099e+02	
4.814453e-01	6.395160e+02	4.183501e+02	
4.824219e-01	6.389363e+02	4.178910e+02	
4.833984e-01	6.383565e+02	4.174325e+02	
4.843750e-01	6.377766e+02	4.169747e+02	
4.853516e-01	6.371967e+02	4.165175e+02	
4.863281e-01	6.366166e+02	4.160610e+02	
4.873047e-01	6.360363e+02	4.156052e+02	
4.882812e-01	6.354560e+02	4.151500e+02	
4.892578e-01	6.348756e+02	4.146955e+02	
4.902344e-01	6.342951e+02	4.142416e+02	
4.912109e-01	6.337145e+02	4.137884e+02	
4.921875e-01	6.331338e+02	4.133359e+02	
4.931641e-01	6.325530e+02	4.128840e+02	
4.941406e-01	6.319721e+02	4.124327e+02	
4.951172e-01	6.313911e+02	4.119822e+02	
4.960938e-01	6.308101e+02	4.115323e+02	
4.970703e-01	6.302289e+02	4.110831e+02	
4.980469e-01	6.296477e+02	4.106345e+02	
4.990234e-01	6.290664e+02	4.101866e+02	
5.000000e-01	6.284850e+02	4.097394e+02	
5.009766e-01	6.279035e+02	4.092928e+02	
5.019531e-01	6.273220e+02	4.088469e+02	
5.029297e-01	6.267404e+02	4.084017e+02	
5.039062e-01	6.261587e+02	4.079571e+02	
5.048828e-01	6.255769e+02	4.075133e+02	
5.058594e-01	6.249951e+02	4.070701e+02	
5.068359e-01	6.244132e+02	4.066275e+02	
5.078125e-01	6.238313e+02	4.061857e+02	
5.087891e-01	6.232493e+02	4.057445e+02	
5.097656e-01	6.226672e+02	4.053040e+02	
5.107422e-01	6.220851e+02	4.048642e+02	
5.117188e-01	6.215029e+02	4.044250e+02	
5.126953e-01	6.209207e+02	4.039866e+02	
5.136719e-01	6.203384e+02	4.035488e+02	
5.146484e-01	6.197561e+02	4.031117e+02	
5.156250e-01	6.191737e+02	4.026753e+02	
5.166016e-01	6.185913e+02	4.022395e+02	
5.175781e-01	6.180088e+02	4.018045e+02	
5.185547e-01	6.174263e+02	4.013701e+02	
5.195312e-01	6.168438e+02	4.009364e+02	
5.205078e-01	6.162612e+02	4.005034e+02	
5.214844e-01	6.156786e+02	4.000711e+02	
5.224609e-01	6.150960e+02	3.996394e+02	
5.234375e-01	6.145133e+02	3.992085e+02	
5.244141e-01	6.139306e+02	3.987782e+02	
5.253906e-01	6.133479e+02	3.983487e+02	
5.263672e-01	6.127652e+02	3.979198e+02	
5.273438e-01	6.121824e+02	3.974916e+02	
5.283203e-01	6.115997e+02	3.970641e+02	
5.292969e-01	6.110169e+02	3.966373e+02	
5.302734e-01	6.104341e+02	3.962112e+02	
5.312500e-01	6.098512e+02	3.957858e+02	
5.322266e-01	6.092684e+02	3.953611e+02	
5.332031e-01	6.086856e+02	3.949371e+02	
5.341797e-01	6.081027e+02	3.945137e+02	
5.351562e-01	6.075199e+02	3.940911e+02	
5.361328e-01	6.069370e+02	3.936692e+02	
5.371094e-01	6.063542e+02	3.932479e+02	
5.380859e-01	6.057713e+02	3.928274e+02	
5.390625e-01	6.051885e+02	3.924076e+02	
5.400391e-01	6.046056e+02	3.919884e+02	
5.410156e-01	6.040228e+02	3.915700e+02	
5.419922e-01	6.034399e+02	3.911523e+02	
5.429688e-01	6.028571e+02	3.907353e+02	
5.439453e-01	6.022743e+02	3.903189e+02	
5.449219e-01	6.016915e+02	3.899033e+02	
5.458984e-01	6.011088e+02	3.894884e+02	
5.468750e-01	6.005260e+02	3.890742e+02	
5.478516e-01	5.999433e+02	3.886607e+02	
5.488281e-01	5.993606e+02	3.882479e+02	
5.498047e-01	5.987779e+02	3.878358e+02	
5.507812e-01	5.981953e+02	3.874244e+02	
5.517578e-01	5.976127e+02	3.870137e+02	
5.527344e-01	5.970301e+02	3.866037e+02	
5.537109e-01	5.964475e+02	3.861945e+02	
5.546875e-01	5.958650e+02	3.857859e+02	
5.556641e-01	5.952826e+02	3.853781e+02	
5.566406e-01	5.947001e+02	3.849710e+02	
5.576172e-01	5.941177e+02	3.845646e+02	
5.585938e-01	5.935354e+02	3.841589e+02	
5.595703e-01	5.929531e+02	3.837539e+02	
5.605469e-01	5.923708e+02	3.833496e+02	
5.615234e-01	5.917886e+02	3.829460e+02	
5.625000e-01	5.912065e+02	3.825432e+02	
5.634766e-01	5.906244e+02	3.821411e+02	
5.644531e-01	5.900423e+02	3.817397e+02	
5.654297e-01	5.894604e+02	3.813390e+02	
5.664062e-01	5.888785e+02	3.809390e+02	
5.673828e-01	5.882966e+02	3.805397e+02	
5.683594e-01	5.877148e+02	3.801412e+02	
5.693359e-01	5.871331e+02	3.797434e+02	
5.703125e-01	5.865514e+02	3.793463e+02	
5.712891e-01	5.859698e+02	3.789499e+02	
5.722656e-01	5.853883e+02	3.785542e+02	
5.732422e-01	5.848069e+02	3.781593e+02	
5.742188e-01	5.842255e+02	3.777651e+02	
5.751953e-01	5.836443e+02	3.773716e+02	
5.761719e-01	5.830630e+02	3.769788e+02	
5.771484e-01	5.824819e+02	3.765868e+02	
5.781250e-01	5.819009e+02	3.761954e+02	
5.791016e-01	5.813200e+02	3.758048e+02	
5.800781e-01	5.807391e+02	3.754150e+02	
5.810547e-01	5.801583e+02	3.750258e+02	
5.820312e-01	5.795777e+02	3.746374e+02	
5.830078e-01	5.789971e+02	3.742497e+02	
5.839844e-01	5.784166e+02	3.738627e+02	
5.849609e-01	5.778362e+02	3.734765e+02	
5.859375e-01	5.772559e+02	3.730910e+02	
5.869141e-01	5.766757e+02	3.727062e+02	
5.878906e-01	5.760957e+02	3.723221e+02	
5.888672e-01	5.755157e+02	3.719388e+02	
5.898438e-01	5.749358e+02	3.715562e+02	
5.908203e-01	5.743561e+02	3.711744e+02	
5.917969e-01	5.737765e+02	3.707932e+02	
5.927734e-01	5.731969e+02	3.704128e+02	
5.937500e-01	5.726175e+02	3.700332e+02	
5.947266e-01	5.720383e+02	3.696542e+02	
5.957031e-01	5.714591e+02	3.692760e+02	
5.966797e-01	5.708800e+02	3.688986e+02	
5.976562e-01	5.703011e+02	3.685218e+02	
5.986328e-01	5.697223e+02	3.681458e+02	
5.996094e-01	5.691437e+02	3.677706e+02	
6.005859e-01	5.685651e+02	3.673960e+02	
6.015625e-01	5.679867e+02	3.670222e+02	
6.025391e-01	5.674085e+02	3.666492e+02	
6.035156e-01	5.668304e+02	3.662768e+02	
6.044922e-01	5.662524e+02	3.659053e+02	
6.054688e-01	5.656745e+02	3.655344e+02	
6.064453e-01	5.650968e+02	3.651643e+02	
6.074219e-01	5.645192e+02	3.647949e+02	
6.083984e-01	5.639418e+02	3.644263e+02	
6.093750e-01	5.633646e+02	3.640584e+02	
6.103516e-01	5.627874e+02	3.636912e+02	
6.113281e-01	5.622105e+02	3.633248e+02	
6.123047e-01	5.616337e+02	3.629591e+02	
6.132812e-01	5.610570e+02	3.625942e+02	
6.142578e-01	5.604805e+02	3.622300e+02	
6.152344e-01	5.599042e+02	3.618665e+02	
6.162109e-01	5.593280e+02	3.615038e+02	
6.171875e-01	5.587520e+02	3.611419e+02	
6.181641e-01	5.581762e+02	3.607806e+02	
6.191406e-01	5.576005e+02	3.604201e+02	
6.201172e-01	5.570250e+02	3.600604e+02	
6.210938e-01	5.564496e+02	3.597014e+02	
6.220703e-01	5.558745e+02	3.593431e+02	
6.230469e-01	5.552995e+02	3.589856e+02	
6.240234e-01	5.547247e+02	3.586288e+02	
6.250000e-01	5.541500e+02	3.582728e+02	
6.259766e-01	5.535756e+02	3.579175e+02	
6.269531e-01	5.530013e+02	3.575630e+02	
6.279297e-01	5.524273e+02	3.572092e+02	
6.289062e-01	5.518534e+02	3.568561e+02	
6.298828e-01	5.512797e+02	3.565038e+02	
6.308594e-01	5.507061e+02	3.561523e+02	
6.318359e-01	5.501328e+02	3.558015e+02	
6.328125e-01	5.495597e+02	3.554514e+02	
6.337891e-01	5.489868e+02	3.551021e+02	
6.347656e-01	5.484140e+02	3.547535e+02	
6.357422e-01	5.478415e+02	3.544057e+02	
6.367188e-01	5.472692e+02	3.540586e+02	
6.376953e-01	5.466971e+02	3.537123e+02	
6.386719e-01	5.461252e+02	3.533667e+02	
6.396484e-01	5.455534e+02	3.530219e+02	
6.406250e-01	5.449819e+02	3.526778e+02	
6.416016e-01	5.444107e+02	3.523345e+02	
6.425781e-01	5.438396e+02	3.519919e+02	
6.435547e-01	5.432687e+02	3.516501e+02	
6.445312e-01	5.426981e+02	3.513090e+02	
6.455078e-01	5.421277e+02	3.509687e+02	
6.464844e-01	5.415575e+02	3.506291e+02	
6.474609e-01	5.409875e+02	3.502902e+02	
6.484375e-01	5.404178e+02	3.499522e+02	
6.494141e-01	5.398482e+02	3.496148e+02	
6.503906e-01	5.392789e+02	3.492783e+02	
6.513672e-01	5.387099e+02	3.489424e+02	
6.523438e-01	5.381410e+02	3.486074e+02	
6.533203e-01	5.375724e+02	3.482730e+02	
6.542969e-01	5.370041e+02	3.479395e+02	
6.552734e-01	5.364360e+02	3.476066e+02	
6.562500e-01	5.358681e+02	3.472746e+02	
6.572266e-01	5.353005e+02	3.469433e+02	
6.582031e-01	5.347331e+02	3.466127e+02	
6.591797e-01	5.341659e+02	3.462829e+02	
6.601562e-01	5.335990e+02	3.459538e+02	
6.611328e-01	5.330324e+02	3.456255e+02	
6.621094e-01	5.324660e+02	3.452980e+02	
6.630859e-01	5.318998e+02	3.449712e+02	
6.640625e-01	5.313339e+02	3.446451e+02	
6.650391e-01	5.307683e+02	3.443198e+02	
6.660156e-01	5.302029e+02	3.439953e+02	
6.669922e-01	5.296378e+02	3.436715e+02	
6.679688e-01	5.290729e+02	3.433485e+02	
6.689453e-01	5.285084e+02	3.430262e+02	
6.699219e-01	5.279440e+02	3.427047e+02	
6.708984e-01	5.273800e+02	3.423839e+02	
6.718750e-01	5.268162e+02	3.420639e+02	
6.728516e-01	5.262527e+02	3.417447e+02	
6.738281e-01	5.256894e+02	3.414262e+02	
6.748047e-01	5.251265e+02	3.411084e+02	
6.757812e-01	5.245638e+02	3.407914e+02	
6.767578e-01	5.240014e+02	3.404752e+02	
6.777344e-01	5.234392e+02	3.401597e+02	
6.787109e-01	5.228774e+02	3.398450e+02	
6.796875e-01	5.223158e+02	3.395310e+02	
6.806641e-01	5.217546e+02	3.392178e+02	
6.816406e-01	5.211936e+02	3.389053e+02	
6.826172e-01	5.206329e+02	3.385936e+02	
6.835938e-01	5.200725e+02	3.382827e+02	
6.845703e-01	5.195124e+02	3.379725e+02	
6.855469e-01	5.189525e+02	3.376631e+02	
6.865234e-01	5.183930e+02	3.373544e+02	
6.875000e-01	5.178338e+02	3.370464e+02	
6.884766e-01	5.172749e+02	3.367393e+02	
6.894531e-01	5.167163e+02	3.364329e+02	
6.904297e-01	5.161579e+02	3.361272e+02	
6.914062e-01	5.155999e+02	3.358223e+02	
6.923828e-01	5.150422e+02	3.355182e+02	
6.933594e-01	5.144848e+02	3.352148e+02	
6.943359e-01	5.139278e+02	3.349121e+02	
6.953125e-01	5.133710e+02	3.346103e+02	
6.962891e-01	5.128145e+02	3.343091e+02	
6.972656e-01	5.122584e+02	3.340088e+02	
6.982422e-01	5.117026e+02	3.337092e+02	
6.992188e-01	5.111471e+02	3.334103e+02	
7.001953e-01	5.105919e+02	3.331122e+02	
7.011719e-01	5.100371e+02	3.328149e+02	
7.021484e-01	5.094825e+02	3.325183e+02	
7.031250e-01	5.089283e+02	3.322224e+02	
7.041016e-01	5.083745e+02	3.319274e+02	
7.050781e-01	5.078209e+02	3.316330e+02	
7.060547e-01	5.072677e+02	3.313395e+02	
7.070312e-01	5.067148e+02	3.310467e+02	
7.080078e-01	5.061623e+02	3.307546e+02	
7.089844e-01	5.056101e+02	3.304633e+02	
7.099609e-01	5.050582e+02	3.301728e+02	
7.109375e-01	5.045067e+02	3.298830e+02	
7.119141e-01	5.039555e+02	3.295940e+02	
7.128906e-01	5.034047e+02	3.293057e+02	
7.138672e-01	5.028542e+02	3.290182e+02	
7.148438e-01	5.023041e+02	3.287314e+02	
7.158203e-01	5.017543e+02	3.284454e+02	
7.167969e-01	5.012048e+02	3.281602e+02	
7.177734e-01	5.006557e+02	3.278757e+02	
7.187500e-01	5.001070e+02	3.275919e+02	
7.197266e-01	4.995586e+02	3.273089e+02	
7.207031e-01	4.990106e+02	3.270267e+02	
7.216797e-01	4.984629e+02	3.267452e+02	
7.226562e-01	4.979157e+02	3.264645e+02	
7.236328e-01	4.973687e+02	3.261846e+02	
7.246094e-01	4.968221e+02	3.259053e+02	
7.255859e-01	4.962759e+02	3.256269e+02	
7.265625e-01	4.957301e+02	3.253492e+02	
7.275391e-01	4.951846e+02	3.250722e+02	
7.285156e-01	4.946395e+02	3.247960e+02	
7.294922e-01	4.940948e+02	3.245206e+02	
7.304688e-01	4.935505e+02	3.242459e+02	
7.314453e-01	4.930065e+02	3.239720e+02	
7.324219e-01	4.924629e+02	3.236988e+02	
7.333984e-01	4.919197e+02	3.234264e+02	
7.343750e-01	4.913768e+02	3.231547e+02	
7.353516e-01	4.908343e+02	3.228838e+02	
7.363281e-01	4.902923e+02	3.226136e+02	
7.373047e-01	4.897506e+02	3.223442e+02	
7.382812e-01	4.892092e+02	3.220755e+02	
7.392578e-01	4.886683e+02	3.218076e+02	
7.402344e-01	4.881278e+02	3.215405e+02	
7.412109e-01	4.875876e+02	3.212741e+02	
7.421875e-01	4.870478e+02	3.210084e+02	
7.431641e-01	4.865084e+02	3.207435e+02	
7.441406e-01	4.859694e+02	3.204793e+02	
7.451172e-01	4.854308e+02	3.202160e+02	
7.460938e-01	4.848925e+02	3.199533e+02	
7.470703e-01	4.843546e+02	3.196914e+02	
7.480469e-01	4.838172e+02	3.194303e+02	
7.490234e-01	4.832801e+02	3.191699e+02	
7.500000e-01	4.827433e+02	3.189102e+02	
7.509766e-01	4.822069e+02	3.186513e+02	
7.519531e-01	4.816709e+02	3.183932e+02	
7.529297e-01	4.811353e+02	3.181358e+02	
7.539062e-01	4.806000e+02	3.178792e+02	
7.548828e-01	4.800651e+02	3.176233e+02	
7.558594e-01	4.795305e+02	3.173681e+02	
7.568359e-01	4.789962e+02	3.171137e+02	
7.578125e-01	4.784623e+02	3.168601e+02	
7.587891e-01	4.779286e+02	3.166072e+02	
7.597656e-01	4.773953e+02	3.163550e+02	
7.607422e-01	4.768622e+02	3.161036e+02	
7.617188e-01	4.763294e+02	3.158530e+02	
7.626953e-01	4.757968e+02	3.156031e+02	
7.636719e-01	4.752644e+02	3.153540e+02	
7.646484e-01	4.747322e+02	3.151056e+02	
7.656250e-01	4.742002e+02	3.148579e+02	
7.666016e-01	4.736683e+02	3.146110e+02	
7.675781e-01	4.731364e+02	3.143649e+02	
7.685547e-01	4.726046e+02	3.141195e+02	
7.695312e-01	4.720728e+02	3.138748e+02	
7.705078e-01	4.715409e+02	3.136309e+02	
7.714844e-01	4.710089e+02	3.133878e+02	
7.724609e-01	4.704767e+02	3.131454e+02	
7.734375e-01	4.699443e+02	3.129037e+02	
7.744141e-01	4.694115e+02	3.126628e+02	
7.753906e-01	4.688782e+02	3.124227e+02	
7.763672e-01	4.683445e+02	3.121833e+02	
7.773438e-01	4.678101e+02	3.119447e+02	
7.783203e-01	4.672750e+02	3.117068e+02	
7.792969e-01	4.667390e+02	3.114697e+02	
7.802734e-01	4.662020e+02	3.112334e+02	
7.812500e-01	4.656639e+02	3.109978e+02	
7.822266e-01	4.651244e+02	3.107630e+02	
7.832031e-01	4.645834e+02	3.105289e+02	
7.841797e-01	4.640407e+02	3.102956e+02	
7.851562e-01	4.634962e+02	3.100631e+02	
7.861328e-01	4.629495e+02	3.098314e+02	
7.871094e-01	4.624004e+02	3.096004e+02	
7.880859e-01	4.618487e+02	3.093702e+02	
7.890625e-01	4.612941e+02	3.091408e+02	
7.900391e-01	4.607364e+02	3.089122e+02	
7.910156e-01	4.601750e+02	3.086844e+02	
7.919922e-01	4.596099e+02	3.084574e+02	
7.929688e-01	4.590405e+02	3.082312e+02	
7.939453e-01	4.584664e+02	3.080058e+02	
7.949219e-01	4.578874e+02	3.077813e+02	
7.958984e-01	4.573029e+02	3.075575e+02	
7.968750e-01	4.567125e+02	3.073346e+02	
7.978516e-01	4.561156e+02	3.071126e+02	
7.988281e-01	4.555119e+02	3.068914e+02	
7.998047e-01	4.549006e+02	3.066710e+02	
8.007812e-01	4.542814e+02	3.064516e+02	
8.017578e-01	4.536535e+02	3.062330e+02	
8.027344e-01	4.530164e+02	3.060153e+02	
8.037109e-01	4.523694e+02	3.057985e+02	
8.046875e-01	4.517118e+02	3.055827e+02	
8.056641e-01	4.510430e+02	3.053678e+02	
8.066406e-01	4.503623e+02	3.051538e+02	
8.076172e-01	4.496688e+02	3.049409e+02	
8.085938e-01	4.489618e+02	3.047289e+02	
8.095703e-01	4.482406e+02	3.045180e+02	
8.105469e-01	4.475043e+02	3.043080e+02	
8.115234e-01	4.467521e+02	3.040992e+02	
8.125000e-01	4.459832e+02	3.038914e+02	
8.134766e-01	4.451966e+02	3.036847e+02	
8.144531e-01	4.443916e+02	3.034791e+02	
8.154297e-01	4.435672e+02	3.032747e+02	
8.164062e-01	4.427227e+02	3.030714e+02	
8.173828e-01	4.418570e+02	3.028694e+02	
8.183594e-01	4.409693e+02	3.026686e+02	
8.193359e-01	4.400587e+02	3.024690e+02	
8.203125e-01	4.391244e+02	3.022708e+02	
8.212891e-01	4.381655e+02	3.020739e+02	
8.222656e-01	4.371811e+02	3.018783e+02	
8.232422e-01	4.361704e+02	3.016842e+02	
8.242188e-01	4.351327e+02	3.014915e+02	
8.251953e-01	4.340671e+02	3.013003e+02	
8.261719e-01	4.329728e+02	3.011105e+02	
8.271484e-01	4.318493e+02	3.009223e+02	
8.281250e-01	4.306958e+02	3.007358e+02	
8.291016e-01	4.295117e+02	3.005508e+02	
8.300781e-01	4.282965e+02	3.003675e+02	
8.310547e-01	4.270496e+02	3.001859e+02	
8.320312e-01	4.257706e+02	3.000061e+02	
8.330078e-01	4.244591e+02	2.998281e+02	
8.339844e-01	4.231148e+02	2.996519e+02	
8.349609e-01	4.217374e+02	2.994777e+02	
8.359375e-01	4.203269e+02	2.993053e+02	
8.369141e-01	4.188831e+02	2.991349e+02	
8.378906e-01	4.174061e+02	2.989666e+02	
8.388672e-01	4.158958e+02	2.988003e+02	
8.398438e-01	4.143526e+02	2.986361e+02	
8.408203e-01	4.127767e+02	2.984741e+02	
8.417969e-01	4.111684e+02	2.983142e+02	
8.427734e-01	4.095283e+02	2.981566e+02	
8.437500e-01	4.078568e+02	2.980013e+02	
8.447266e-01	4.061548e+02	2.978483e+02	
8.457031e-01	4.044229e+02	2.976976e+02	
8.466797e-01	4.026620e+02	2.975494e+02	
8.476562e-01	4.008731e+02	2.974036e+02	
8.486328e-01	3.990573e+02	2.972602e+02	
8.496094e-01	3.972157e+02	2.971194e+02	
8.505859e-01	3.953496e+02	2.969811e+02	
8.515625e-01	3.934603e+02	2.968453e+02	
8.525391e-01	3.915492e+02	2.967122e+02	
8.535156e-01	3.896180e+02	2.965816e+02	
8.544922e-01	3.876682e+02	2.964537e+02	
8.554688e-01	3.857014e+02	2.963285e+02	
8.564453e-01	3.837195e+02	2.962060e+02	
8.574219e-01	3.817242e+02	2.960862e+02	
8.583984e-01	3.797175e+02	2.959690e+02	
8.593750e-01	3.777012e+02	2.958547e+02	
8.603516e-01	3.756774e+02	2.957430e+02	
8.613281e-01	3.736480e+02	2.956341e+02	
8.623047e-01	3.716152e+02	2.955280e+02	
8.632812e-01	3.695810e+02	2.954246e+02	
8.642578e-01	3.675475e+02	2.953240e+02	
8.652344e-01	3.655168e+02	2.952261e+02	
8.662109e-01	3.634911e+02	2.951309e+02	
8.671875e-01	3.614724e+02	2.950385e+02	
8.681641e-01	3.594629e+02	2.949488e+02	
8.691406e-01	3.574646e+02	2.948618e+02	
8.701172e-01	3.554797e+02	2.947775e+02	
8.710938e-01	3.535101e+02	2.946959e+02	
8.720703e-01	3.515578e+02	2.946168e+02	
8.730469e-01	3.496248e+02	2.945404e+02	
8.740234e-01	3.477129e+02	2.944666e+02	
8.750000e-01	3.458240e+02	2.943953e+02	
8.759766e-01	3.439599e+02	2.943266e+02	
8.769531e-01	3.421222e+02	2.942603e+02	
8.779297e-01	3.403125e+02	2.941965e+02	
8.789062e-01	3.385324e+02	2.941351e+02	
8.798828e-01	3.367833e+02	2.940760e+02	
8.808594e-01	3.350666e+02	2.940193e+02	
8.818359e-01	3.333836e+02	2.939648e+02	
8.828125e-01	3.317354e+02	2.939125e+02	
8.837891e-01	3.301230e+02	2.938625e+02	
8.847656e-01	3.285475e+02	2.938145e+02	
8.857422e-01	3.270097e+02	2.937686e+02	
8.867188e-01	3.255105e+02	2.937248e+02	
8.876953e-01	3.240504e+02	2.936829e+02	
8.886719e-01	3.226300e+02	2.936429e+02	
8.896484e-01	3.212498e+02	2.936048e+02	
8.906250e-01	3.199101e+02	2.935686e+02	
8.916016e-01	3.186113e+02	2.935340e+02	
8.925781e-01	3.173534e+02	2.935012e+02	
8.935547e-01	3.161366e+02	2.934700e+02	
8.945312e-01	3.149609e+02	2.934403e+02	
8.955078e-01	3.138260e+02	2.934123e+02	
8.964844e-01	3.127319e+02	2.933856e+02	
8.974609e-01	3.116782e+02	2.933605e+02	
8.984375e-01	3.106646e+02	2.933366e+02	
8.994141e-01	3.096906e+02	2.933141e+02	
9.003906e-01	3.087558e+02	2.932929e+02	
9.013672e-01	3.078596e+02	2.932728e+02	
9.023438e-01	3.070013e+02	2.932539e+02	
9.033203e-01	3.061803e+02	2.932362e+02	
9.042969e-01	3.053959e+02	2.932195e+02	
9.052734e-01	3.046472e+02	2.932037e+02	
9.062500e-01	3.039334e+02	2.931890e+02	
9.072266e-01	3.032536e+02	2.931752e+02	
9.082031e-01	3.026070e+02	2.931622e+02	
9.091797e-01	3.019926e+02	2.931501e+02	
9.101562e-01	3.014095e+02	2.931387e+02	
9.111328e-01	3.008567e+02	2.931281e+02	
9.121094e-01	3.003333e+02	2.931183e+02	
9.130859e-01	2.998381e+02	2.931090e+02	
9.140625e-01	2.993702e+02	2.931004e+02	
9.150391e-01	2.989286e+02	2.930924e+02	
9.160156e-01	2.985123e+02	2.930850e+02	
9.169922e-01	2.981203e+02	2.930781e+02	
9.179688e-01	2.977515e+02	2.930717e+02	
9.189453e-01	2.974050e+02	2.930657e+02	
9.199219e-01	2.970798e+02	2.930602e+02	
9.208984e-01	2.967749e+02	2.930551e+02	
9.218750e-01	2.964894e+02	2.930504e+02	
9.228516e-01	2.962223e+02	2.930461e+02	
9.238281e-01	2.959728e+02	2.930421e+02	
9.248047e-01	2.957399e+02	2.930384e+02	
9.257812e-01	2.955227e+02	2.930350e+02	
9.267578e-01	2.953205e+02	2.930319e+02	
9.277344e-01	2.951323e+02	2.930290e+02	
9.287109e-01	2.949575e+02	2.930263e+02	
9.296875e-01	2.947953e+02	2.930239e+02	
9.306641e-01	2.946449e+02	2.930217e+02	
9.316406e-01	2.945055e+02	2.930197e+02	
9.326172e-01	2.943766e+02	2.930178e+02	
9.335938e-01	2.942575e+02	2.930161e+02	
9.345703e-01	2.941476e+02	2.930146e+02	
9.355469e-01	2.940462e+02	2.930131e+02	
9.365234e-01	2.939529e+02	2.930119e+02	
9.375000e-01	2.938670e+02	2.930107e+02	
9.384766e-01	2.937880e+02	2.930096e+02	
9.394531e-01	2.937155e+02	2.930087e+02	
9.404297e-01	2.936491e+02	2.930078e+02	
9.414062e-01	2.935882e+02	2.930070e+02	
9.423828e-01	2.935325e+02	2.930063e+02	
9.433594e-01	2.934816e+02	2.930056e+02	
9.443359e-01	2.934351e+02	2.930050e+02	
9.453125e-01	2.933928e+02	2.930045e+02	
9.462891e-01	2.933541e+02	2.930040e+02	
9.472656e-01	2.933190e+02	2.930036e+02	
9.482422e-01	2.932871e+02	2.930032e+02	
9.492188e-01	2.932581e+02	2.930029e+02	
9.501953e-01	2.932318e+02	2.930025e+02	
9.511719e-01	2.932079e+02	2.930023e+02	
9.521484e-01	2.931864e+02	2.930020e+02	
9.531250e-01	2.931669e+02	2.930018e+02	
9.541016e-01	2.931493e+02	2.930016e+02	
9.550781e-01	2.931334e+02	2.930014e+02	
9.560547e-01	2.931191e+02	2.930012e+02	
9.570312e-01	2.931062e+02	2.930011e+02	
9.580078e-01	2.930946e+02	2.930010e+02	
9.589844e-01	2.930842e+02	2.930009e+02	
9.599609e-01	2.930748e+02	2.930008e+02	
9.609375e-01	2.930665e+02	2.930007e+02	
9.619141e-01	2.930590e+02	2.930006e+02	
9.628906e-01	2.930523e+02	2.930005e+02	
9.638672e-01	2.930463e+02	2.930005e+02	
9.648438e-01	2.930410e+02	2.930004e+02	
9.658203e-01	2.930362e+02	2.930003e+02	
9.667969e-01	2.930320e+02	2.930003e+02	
9.677734e-01	2.930282e+02	2.930003e+02	
9.687500e-01	2.930248e+02	2.930002e+02	
9.697266e-01	2.930219e+02	2.930002e+02	
9.707031e-01	2.930192e+02	2.930002e+02	
9.716797e-01	2.930169e+02	2.930002e+02	
9.726562e-01	2.930148e+02	2.930001e+02	
9.736328e-01	2.930130e+02	2.930001e+02	
9.746094e-01	2.930114e+02	2.930001e+02	
9.755859e-01	2.930099e+02	2.930001e+02	
9.765625e-01	2.930087e+02	2.930001e+02	
9.775391e-01	2.930076e+02	2.930001e+02	
9.785156e-01	2.930066e+02	2.930001e+02	
9.794922e-01	2.930058e+02	2.930001e+02	
9.804688e-01	2.930050e+02	2.930000e+02	
9.814453e-01	2.930044e+02	2.930000e+02	
9.824219e-01	2.930038e+02	2.930000e+02	
9.833984e-01	2.930033e+02	2.930000e+02	
9.843750e-01	2.930029e+02	2.930000e+02	
9.853516e-01	2.930025e+02	2.930000e+02	
9.863281e-01	2.930021e+02	2.930000e+02	
9.873047e-01	2.930018e+02	2.930000e+02	
9.882812e-01	2.930016e+02	2.930000e+02	
9.892578e-01	2.930014e+02	2.930000e+02	
9.902344e-01	2.930012e+02	2.930000e+02	
9.912109e-01	2.930010e+02	2.930000e+02	
9.921875e-01	2.930009e+02	2.930000e+02	
9.931641e-01	2.930008e+02	2.930000e+02	
9.941406e-01	2.930006e+02	2.930000e+02	
9.951172e-01	2.930006e+02	2.930000e+02	
9.960938e-01	2.930005e+02	2.930000e+02	
9.970703e-01	2.930004e+02	2.930000e+02	
9.980469e-01	2.930003e+02	2.930000e+02	
9.990234e-01	2.930003e+02	2.930000e+02	
