1000
1
h	L1 error (fluid)	L-Inf error (fluid)	L1 error (solid)	L-Inf error (solid)	nsteps	Runtime [s]
0.5	0.249325	0.382046	0.0170978	0.0241799	987	0.006008
0.25	0.12482	0.194923	0.00413561	0.00633052	1732	0.011315
0.125	0.0624534	0.097973	0.00102545	0.00160044	3118	0.032187
0.0625	0.0312379	0.0490557	0.000255838	0.000401224	5689	0.103497
0.03125	0.0156217	0.0245377	6.39258e-05	0.000100374	10585	0.344445
0.015625	0.00781158	0.0122704	1.59762e-05	2.50928e-05	29452	1.77864
0.0078125	0.00390604	0.00613548	3.98081e-06	6.25288e-06	79055	9.7401
0.00390625	0.00195305	0.00306783	9.42772e-07	1.48089e-06	161186	36.8646
0.00195312	0.000976535	0.00153393	4.73961e-08	7.44496e-08	47086	21.4196
0.000976562	0.000488272	0.000766971	1.14757e-08	1.80259e-08	181770	169.44
0.000488281	0.000244146	0.000383487	2.77782e-09	4.36229e-09	702060	1329.29
0.000244141	0.00012212	0.000191744	6.62365e-10	1.02964e-09	2697088	9995.96
0.00012207	6.13308e-05	9.58721e-05	1.52285e-15	5.14033e-14	10185273	44255
