0.001
2
h	L1 error (fluid)	L-Inf error (fluid)	L1 error (solid)	L-Inf error (solid)	nsteps	Runtime [s]
0.5	0.214543	0.292893	0.0782914	0.0782914	7745479	75.8209
0.25	0.0519418	0.076118	0.0170978	0.0241799	24181062	295.568
0.125	0.0128835	0.019205	0.00413561	0.00633052	69762115	1148.99
0.0625	0.00318221	0.00477647	0.00102545	0.00160045	171450635	4180.32
0.03125	0.000651627	0.00104933	0.000255838	0.000401224	255822560	10022.1
0.015625	6.26809e-05	9.84723e-05	6.39268e-05	0.000100376	38205	2.57243
0.0078125	1.53426e-05	2.41087e-05	1.59796e-05	2.50983e-05	108268	13.9999
0.00390625	3.62113e-06	5.68994e-06	3.99478e-06	6.27483e-06	256037	62.2918
0.00195312	5.91662e-07	9.29555e-07	9.94363e-07	1.56193e-06	304308	144.163
0.000976562	4.15172e-09	6.53734e-09	2.60026e-08	4.08448e-08	24599	24.428
0.000488281	5.85319e-15	1.28786e-14	6.97665e-14	1.0969e-13	1	0.001892
0.000244141	2.45763e-16	5.55112e-16	4.36699e-15	6.99441e-15	1	0.003813
0.00012207	1.10366e-16	3.33067e-16	3.81063e-16	1.11022e-15	1	0.007528
