1000
4
h	L1 error (fluid)	L-Inf error (fluid)	L1 error (solid)	L-Inf error (solid)	nsteps	Runtime [s]
0.5	0.986205	1	4.41395e-16	2.24537e-15	26	0.000344
0.25	0.488572	0.698118	0.0782914	0.0782914	164	0.003259
0.125	0.246368	0.380003	0.0170978	0.0241799	269	0.006599
0.0625	0.124002	0.194335	0.00413561	0.00633052	502	0.01721
0.03125	0.0622279	0.0977954	0.00102545	0.00160045	988	0.04906
0.015625	0.0311737	0.0489966	0.000255838	0.000401224	3049	0.242737
0.0078125	0.0156095	0.0245157	6.39259e-05	0.000100374	9784	1.40064
0.00390625	0.00780735	0.0122633	1.59762e-05	2.50928e-05	29452	7.51461
0.00195312	0.00390435	0.00613285	3.98081e-06	6.25288e-06	79055	39.503
0.000976562	0.00195234	0.00306672	9.64147e-07	1.51447e-06	188122	185.018
0.000488281	0.000976221	0.00153343	2.40125e-07	3.77187e-07	730059	1437.25
0.000244141	0.000488158	0.000766758	5.97745e-08	9.38935e-08	2829292	9300.51
0.00012207	0.00024426	0.000383613	1.48471e-08	2.33191e-08	10899419	46846.9
