1
1
h	L1 error (fluid)	L-Inf error (fluid)	L1 error (solid)	L-Inf error (solid)	nsteps	Runtime [s]
0.125	0.0999339	0.130808	0.0506538	0.0565026	9512	0.076485
0.0625	0.0223552	0.0411424	0.0110923	0.0185867	25315	0.313023
0.03125	0.00584624	0.0139601	0.00292654	0.00754154	109636	1.71747
0.015625	0.0017457	0.00529202	0.00113842	0.00349014	361240	9.11004
0.0078125	0.000707821	0.00220339	0.000672065	0.00166122	1097155	48.4739
0.00390625	0.000331802	0.00091541	0.0003043	0.000734552	3006642	256.203
0.00195312	0.000198603	0.000362571	0.000172678	0.000334541	6647051	1040.1
0.000976562	0.00136284	0.00151501	0.00136416	0.00149467	5560804	1611.1
0.000488281	0.00187028	0.00218067	0.00187219	0.00216593	5033272	2390.37
0.000244141	0.00194043	0.00279497	0.00194288	0.00277598	13247103	10257.5
