1
2
h	L1 error (fluid)	L-Inf error (fluid)	L1 error (solid)	L-Inf error (solid)	nsteps	Runtime [s]
0.125	0.216767	0.508873	0.198343	0.356092	13080	0.135122
0.0625	0.0497551	0.107875	0.0368607	0.0772701	41207	0.519769
0.03125	0.0129103	0.0301423	0.0101058	0.0206046	127395	2.20172
0.015625	0.004196	0.00949821	0.0036054	0.00665924	375136	10.1962
0.0078125	0.0016198	0.00346647	0.00146601	0.00247267	1007084	47.0915
0.00390625	0.000635734	0.00137084	0.000575258	0.000970945	2216362	189.865
0.00195312	0.000218285	0.00045479	0.000109831	0.000256322	2230448	366.336
0.000976562	0.000328745	0.000526971	0.000329221	0.000448318	934866	297.698
0.000488281	0.000348779	0.000632236	0.000349338	0.000589266	2003962	1247.16
0.000244141	0.000388186	0.00102191	0.00038729	0.000988043	3361377	3179.76
